Le Figaro - Les dernières actualités à la une,amazon,"MacBook Pro M1: en rupture de stock sur l’Apple Store, le PC portable Apple dernière génération est disponible sur Amazon",https://www.lefigaro.fr/services/bons-plans/macbook-pro-m1-en-rupture-de-stock-sur-l-apple-store-le-pc-portable-apple-derniere-generation-est-disponible-sur-amazon-20210421,"Wed, 21 Apr 2021 11:53:03 +0200","La dernière petite merveille Apple est en rupture de stock sur l’Apple Store. Heureusement, le MacBook Pro M1 est toujours disponible sur Amazon pour combler votre envie d’obtenir le meilleur en matière de PC portable."
Franceinfo - Les Titres,amazon,"""Notre dernier rempart est en train de basculer"" : pourquoi la récente étude sur l'Amazonie est (très) inquiétante pour le climat",https://www.francetvinfo.fr/monde/ameriques/amazonie/notre-dernier-rempart-est-en-train-de-basculer-pourquoi-la-recente-etude-sur-l-amazonie-est-tres-inquietante-pour-le-climat_4609179.html#xtor=RSS-3-[lestitres],"Mon, 03 May 2021 17:18:35 +0200","Selon cette&nbsp;étude, la forêt amazonienne brésilienne a rejeté depuis 2010 plus de carbone qu'elle n'en a absorbé.&nbsp;Ce changement majeur&nbsp;entraîne un affaiblissement de&nbsp;ses capacités à&nbsp;freiner le réchauffement climatique dans le monde."
Libération,amazon,La forêt amazonienne brésilienne émet désormais plus de CO2 qu’elle n’en absorbe,https://www.liberation.fr/environnement/la-foret-amazonienne-bresilienne-emet-desormais-plus-de-co2-quelle-nen-absorbe-20210430_7Z3TIJ55W5EM5NJR4VPOMONFRA/,"Fri, 30 Apr 2021 17:55:00 +0000","Un des poumons de la planète est en train de basculer à cause des dégradations et de la déforestation. La forêt brésilienne, étendue sur 60% de l’Amazonie, ne joue plus son rôle de puits de carbone qui freine le réchauffement de la planète."
Libération,amazon,Amazon pulvérise les attentes en triplant ses profits au premier trimestre,https://www.liberation.fr/economie/amazon-pulverise-les-attentes-en-triplant-ses-profits-au-1er-trimestre-20210430_4FMYTDNBMFBUPOEERC6BONGZQU/,"Fri, 30 Apr 2021 12:11:48 +0000","Les résultats du leader mondial du commerce en ligne et du cloud s’envolent après une année de pandémie qui a bouleversé l’usage des appareils et services numériques. Les autres géants de la Silicon Valley (Google, Apple et Facebook) ne sont pas en reste."
Courrier international - Actualités France et Monde,amazon,Amazon accorde à ses salariés américains 1 milliard de dollars de hausses de salaire,https://www.courrierinternational.com/article/social-amazon-accorde-ses-salaries-americains-1-milliard-de-dollars-de-hausses-de-salaire,"Thu, 29 Apr 2021 15:04:42 +0200","Le géant du commerce en ligne, très critiqué pendant la campagne contre la création d’un syndicat dans ses entrepôts américains, a annoncé mercredi des augmentations de salaire pour 500 000 de ses 950 000 employés. Avec en moyenne une hausse de 40 dollars par semaine."
Le Point - En continu,amazon,Amazon officialise son implantation à Metz et promet 1.000 emplois sur trois ans,https://www.lepoint.fr/societe/amazon-officialise-son-implantation-a-metz-et-promet-1-000-emplois-sur-trois-ans-04-05-2021-2424791_23.php,"Tue, 04 May 2021 13:49:00 +0200","Le geant americain de la vente en ligne Amazon a prevu d'ouvrir ""a l'ete 2021"" un entrepot de grande taille situe dans la metropole de Metz, et a..."
LEXPRESS.fr - Rss A la Une,amazon,"Après des années de négociations secrètes, Amazon s'installe à Metz",https://lexpansion.lexpress.fr/actualite-economique/amazon-s-installe-a-metz-en-silence_2105344.html,"Tue, 05 Nov 2019 16:56:00 +0100","Après avoir essuyé plusieurs refus en Alsace, le géant de l&#039;e-commerce vient d&#039;officialiser l&#039;installation à Metz d&#039;un vaste entrepôt."
FranceSoir - Articles de la rédaction,amazon,Amazon officialise son implantation à Metz et promet 1.000 emplois sur trois ans,https://www.francesoir.fr/actualites-france/amazon-officialise-son-implantation-metz-et-promet-1000-emplois-sur-trois-ans,"Tue, 04 May 2021 08:53:10 +0200","Le géant américain de la vente en ligne Amazon a prévu d'ouvrir ""à l'été 2021"" un entrepôt de grande taille situé dans la métropole de Metz, et a promis mardi la création de 1.000 emplois en CDI dans les trois ans.
Le ""centre de distribution"", la terminologie d'Amazon pour désigner les entrepôts de...  - Lire la suite sur FranceSoir.fr 

  
          
            
                  <img alt="""" height=""1128"" src=""https://www.francesoir.fr/sites/francesoir/files/images/2019/325da19b769ffdc7329c0707ff864012d2b99500_field_mise_en_avant_principale.jpg"" width=""1111"" />
                        
    
        
            
                  © DENIS CHARLET / AFP/Archives - <a href=""https://www.francesoir.fr/actualites-france/amazon-officialise-son-implantation-metz-et-promet-1000-emplois-sur-trois-ans"">Amazon officialise son implantation à Metz et promet 1.000 emplois sur trois ans</a>"
Franceinfo - Les Titres,amazon,"Amazonie : ""Les politiques adorent en parler mais ne font rien derrière"", regrette l'association Canopée",https://www.francetvinfo.fr/monde/ameriques/amazonie/climat-tout-le-drame-de-l-amazonie-c-est-que-les-politiques-adorent-en-parler-mais-ne-font-rien-derriere-regrette-l-association-canopee_4608285.html#xtor=RSS-3-[lestitres],"Sun, 02 May 2021 15:22:18 +0200","Face à la déforestation qui continue, l'organisation non gouvernementale (ONG) écologiste appelle la France et l'Europe à ""taper&nbsp;du poing sur la table et pas seulement dans les discours comme on l'entend."""
Franceinfo - Les Titres,amazon,Amazon officialise son implantation à Metz et promet 1 000 emplois sur trois ans,https://www.francetvinfo.fr/internet/amazon/amazon-officialise-son-implantation-a-metz-et-promet-1-000-emplois-sur-trois-ans_4610659.html#xtor=RSS-3-[lestitres],"Tue, 04 May 2021 13:30:00 +0200",Ce site sera le huitième centre de distribution d'Amazon en France.
LEXPRESS.fr - Rss A la Une,amazon,Amazon officialise son implantation à Metz et promet 1.000 emplois sur trois ans,https://www.lexpress.fr/actualites/1/societe/amazon-officialise-son-implantation-a-metz-et-promet-1-000-emplois-sur-trois-ans_2150129.html,"Tue, 04 May 2021 08:53:10 +0200","Strasbourg - Le géant américain de la vente en ligne Amazon a prévu d&#039;ouvrir &quot;à l&#039;été 2021&quot; un entrepôt de grande taille situé dans la métropole de Metz, et a promis mardi la création de 1.000 emplois en CDI dans les trois ans."
Courrier international - Actualités France et Monde,amazon,“Them” sur Amazon : l’horreur est-elle un genre approprié pour parler des violences racistes ?,https://www.courrierinternational.com/revue-de-presse/serie-them-sur-amazon-lhorreur-est-elle-un-genre-approprie-pour-parler-des-violences,"Tue, 20 Apr 2021 06:07:43 +0200","En prenant pour cadre l’Amérique raciste des années 1950, cette série en ligne depuis le 9 avril explore une histoire encore récente et douloureuse. Son mélange de réalisme et de fantastique n’est pas sans précédent, mais la presse américaine interroge les représentations de la violence auxquelles aboutit ce parti pris."
Courrier international - Actualités France et Monde,amazon,“Le Seigneur des anneaux” d’Amazon s’annonce comme la série la plus chère de l’histoire,https://www.courrierinternational.com/revue-de-presse/television-le-seigneur-des-anneaux-damazon-sannonce-comme-la-serie-la-plus-chere-de,"Mon, 19 Apr 2021 17:55:16 +0200","Sur le marché du streaming, le géant ne lésine pas sur les dépenses pour son adaptation en série de l’univers de Tolkien. En plus d’un budget record, la firme compte sur un solide soutien du gouvernement néo-zélandais – lequel espère bénéficier de retombées, comme à l’époque de la trilogie cinématographique de Peter Jackson."
Le Monde.fr - Actualités et Infos en France et dans le monde,amazon,"« L’Amazonie, notre dernier rempart, est en train de basculer » en émettant plus de carbone qu’en en absorbant",https://www.lemonde.fr/planete/article/2021/04/30/a-cause-du-changement-climatique-la-foret-amazonienne-bresilienne-emet-desormais-plus-de-carbone-qu-elle-n-en-absorbe_6078699_3244.html,"Fri, 30 Apr 2021 18:04:42 +0200",Ce basculement majeur et inédit de la forêt amazonienne brésilienne sur les dix dernières années est dû au changement climatique ainsi qu’aux activités humaines.
Franceinfo - Les Titres,amazon,Brésil : la forêt amazonienne émet désormais plus de carbone qu'elle n'en absorbe,https://www.francetvinfo.fr/monde/ameriques/amazonie/bresil-la-foret-amazonienne-emet-desormais-plus-de-carbone-qu-elle-n-en-absorbe_4606157.html#xtor=RSS-3-[lestitres],"Fri, 30 Apr 2021 19:00:53 +0200","Entre 2010 et 2019, l'Amazonie brésilienne&nbsp;a ainsi émis environ 18% de plus de carbone qu'elle n'en a absorbé, avec 4,45 milliards de tonnes rejetées, contre 3,78 milliards de tonnes stockées."
Le Point - En continu,amazon,La forêt amazonienne brésilienne désormais émettrice nette de carbone,https://www.lepoint.fr/environnement/la-foret-amazonienne-bresilienne-desormais-emettrice-nette-de-carbone-30-04-2021-2424419_1927.php,"Fri, 30 Apr 2021 18:26:00 +0200","Consideree comme l'un des << poumons >> de la planete, la foret sud-americaine a rejete ces dix dernieres annees plus de carbone qu'elle n'en a absorbe."
La Tribune,amazon,"Toujours plus fort, Amazon triple ses bénéfices au premier trimestre",https://www.latribune.fr/technos-medias/toujours-plus-fort-amazon-triple-ses-benefices-au-premier-trimestre-883672.html,"Fri, 30 Apr 2021 16:36:00 +0200","L'ogre du commerce est désormais rentable partout et a triplé son bénéfice net au cours du premier trimestre, à 8,1 milliards de dollars. Amazon continue de profiter de l'appétit croissant des consommateurs pour le commerce en ligne et de la demande des entreprises pour son service cloud."
Flux d'actualité Marianne.net,amazon,"Climat, data, ex-usine PSA... : Amazon, le roi de l’opportunisme sanitaire",https://www.marianne.net/economie/entreprises/climat-data-ex-usine-psa-amazon-le-roi-de-lopportunisme-sanitaire#utm_source=RSS-MARIANNE&utm_medium=Flux-Rss&utm_campaign=RSS_general,"Sat, 24 Apr 2021 11:30:00 GMT","Loi Climat, fermetures d’usines, hébergement des données… La crise du Covid crée des occasions. Et le géant du commerce électronique Amazon sait les déceler comme personne."
Flux d'actualité Marianne.net,amazon,Amazon Future Engineer : comment le géant du e-commerce s'infiltre dans les écoles,https://www.marianne.net/societe/education/amazon-future-engineer-comment-le-geant-du-e-commerce-sinfiltre-dans-les-ecoles#utm_source=RSS-MARIANNE&utm_medium=Flux-Rss&utm_campaign=RSS_general,"Sat, 24 Apr 2021 06:00:00 GMT","Avec son programme Amazon Future Engineer, l'entreprise de Seattle s'immisce dans les établissements scolaires, profitant du manque de moyens dévolus à la découverte de l'information et du numérique, pourtant promu par l'Éducation nationale. Un moyen de s'offrir une image - et des consommateurs - à peu de frais."
LEXPRESS.fr - Rss A la Une,amazon,Amazonie : Joe Biden met Bolsonaro sous pression,https://www.lexpress.fr/actualite/monde/amerique-sud/amazonie-joe-biden-met-bolsonaro-sous-pression_2149814.html,"Sat, 01 May 2021 12:00:00 +0200","Le président Joe Biden, qui a nommé John Kerry pour gérer le dossier &quot;climat&quot;, veut faire cesser la déforestation du &quot;poumon de la planète&quot;. Pas si simple."
