20Minutes - Une,application,TikTok : Comment faites-vous pour restreindre votre usage de l’application ? Racontez-nous,https://www.20minutes.fr/arts-stars/culture/3034615-20210504-tiktok-comment-faites-restreindre-usage-application#xtor=RSS-149,"Tue, 04 May 2021 18:47:37 +0200","Limitation du temps d'utilisation, voire suppression totale de l’application, parvenez-vous à vous fixer des règles lorsque vous êtes sur TikTok ?"
Le Point - En continu,application,Birmanie: le Conseil de sécurité de l'ONU réclame l'application du plan de l'Asean,https://www.lepoint.fr/monde/birmanie-nouvelle-reunion-du-conseil-de-securite-de-l-onu-mais-sans-declaration-commune-30-04-2021-2424430_24.php,"Sat, 01 May 2021 01:41:00 +0200",Le Conseil de securite de l'ONU a reclame vendredi dans une declaration unanime l'application du plan de l'Asean en cinq points en faveur notamment...
FranceSoir - Articles de la rédaction,application,Pass sanitaire: l'application TousAntiCovid va certifier tests et vaccination,https://www.francesoir.fr/actualites-france/pass-sanitaire-lapplication-tousanticovid-va-certifier-tests-et-vaccination,"Sun, 18 Apr 2021 20:25:10 +0200","L'application française de traçage des malades du Covid-19 TousAntiCovid va intégrer un carnet permettant de prouver le résultat positif ou négatif d'un test de détection du virus, puis certifier l'état vaccinal, a annoncé dimanche le gouvernement dans une invitation à la presse.
""TousAntiCovid-...  - Lire la suite sur FranceSoir.fr 

  
          
            
                  <img alt="""" height=""739"" src=""https://www.francesoir.fr/sites/francesoir/files/images/2019/f333a0095950f390f03cf8fcc00e511f0c6eeb99_field_mise_en_avant_principale_1.jpg"" width=""1111"" />
                        
    
        
            
                  © LIONEL BONAVENTURE / AFP/Archives - <a href=""https://www.francesoir.fr/actualites-france/pass-sanitaire-lapplication-tousanticovid-va-certifier-tests-et-vaccination"">Pass sanitaire: l&#039;application TousAntiCovid va certifier tests et vaccination</a>"
Libération,application,Darmanin fait des lois antiterroristes comme Google fait des applications,https://www.liberation.fr/politique/darmanin-fait-des-lois-antiterroristes-comme-google-fait-des-applications-20210428_K4U36Z5GQJAKPO4XXGPUE5263Q/,"Wed, 28 Apr 2021 10:39:11 +0000","Indiscrétions piquantes, maladresses vaches ou douces confessions : chaque jour, retrouvez les brèves qui auscultent le monde politique."
Le Figaro - Les dernières actualités à la une,application,Une application contre les vols dans les fermes en Mayenne,https://www.lefigaro.fr/actualite-france/une-application-contre-les-vols-dans-les-fermes-en-mayenne-20210428,"Wed, 28 Apr 2021 20:38:06 +0200","REPORTAGE - Gratuite, elle permet d’avoir connaissance, quasiment en temps réel sur son smartphone, des actes de malveillance en milieu rural."
