Flux d'actualité Marianne.net,crypto,"""Pourquoi les banques centrales s’intéressent-elles soudainement aux cryptomonnaies ?""",https://www.marianne.net/agora/tribunes-libres/pourquoi-les-banques-centrales-sinteressent-elles-soudainement-aux-cryptomonnaies#utm_source=RSS-MARIANNE&utm_medium=Flux-Rss&utm_campaign=RSS_general,"Mon, 03 May 2021 11:52:38 GMT","Jamal Bouoiyour, enseignant-chercheur à l'Université de Pau et des pays de l'Adour, analyse l'engouement soudain des banques centrales pour les monnaies digitales."
Courrier international - Actualités France et Monde,crypto,"Le bitcoin n’est pas une cryptomonnaie, c’est une religion",https://www.courrierinternational.com/article/decryptage-le-bitcoin-nest-pas-une-cryptomonnaie-cest-une-religion,"Sun, 02 May 2021 06:13:25 +0200","La réussite de la célèbre cryptomonnaie repose sur une construction mythologique n’ayant rien à envier à une religion classique, analyse <em>Le Temps</em>. Et comme dans tout autre système financier, la foi joue un rôle prépondérant."
Le Figaro - Les dernières actualités à la une,crypto,Le fondateur d’une plateforme de cryptomonnaie s’enfuit avec la caisse,https://www.lefigaro.fr/secteur/high-tech/le-fondateur-d-une-plateforme-de-cryptomonnaie-s-enfuit-avec-la-caisse-20210422,"Thu, 22 Apr 2021 21:17:15 +0200","La panique s’est emparée des utilisateurs lorsque, mercredi, le site a brusquement interrompu toutes les transactions pour une durée de quatre à cinq jours."
