Le Point - En continu,en-ligne,Musique en ligne : l’Union européenne accuse Apple d'« abus de position dominante »,https://www.lepoint.fr/high-tech-internet/musique-en-ligne-l-union-europeenne-accuse-apple-d-abus-de-position-dominante-03-05-2021-2424641_47.php,"Mon, 03 May 2021 10:55:00 +0200","Saisie du cas Spotify, l'UE estime qu'Apple a << fausse la concurrence >> sur ce marche en << abusant de sa position dominante >> pour evincer ses rivaux."
La Tribune,en-ligne,"Jeu vidéo en ligne : après la faillite, la résurrection de Blade Shadow, repris par le fondateur d'OVH Octave Klaba",https://www.latribune.fr/technos-medias/internet/jeu-video-en-ligne-blade-shadow-cas-d-ecole-d-hypercroissance-non-maitrisee-repris-par-le-fondateur-d-ovh-octave-klaba-883741.html,"Sat, 01 May 2021 09:39:00 +0200","Malgré ses déboires, la startup Blade, qui propose le PC dématérialisé Shadow et qui a déposé le bilan fin mars, va connaître une nouvelle vie. Le tribunal de commerce de Paris a accepté l'offre de reprise de l'entrepreneur-star Octave Klaba, le fondateur et dirigeant d'OVHCloud. Retour sur la descente aux enfers et la résurrection d'une des plus belles pépites de la French Tech."
FranceSoir - Articles de la rédaction,en-ligne,"Vente en ligne: source d’arnaques, le ""dropshipping""  va être mieux régulé",https://www.francesoir.fr/lifestyle-shopping/vente-en-ligne-source-darnaques-le-dropshipping-va-etre-mieux-regule,"Mon, 19 Apr 2021 10:35:24 +0200","Vous êtes peut-être déjà tombé sur le compte d’un influenceur qui vous propose d’acheter un produit qui a l'air d'être une occasion à ne pas manquer. Son message ressemble souvent à cela: « Coucou les amis! Aujourd’hui je vais vous présenter ce magnifique produit ! » Cela vous dit quelque chose?...  - Lire la suite sur FranceSoir.fr 

  
          
            
                  <img alt="""" height=""444"" src=""https://www.francesoir.fr/sites/francesoir/files/ecommerce-2607114_1920_field_mise_en_avant_principale_1_0.jpg"" width=""1110"" />
                        
    
        
            
                  StockSnap / Pixabay - <a href=""https://www.francesoir.fr/lifestyle-shopping/vente-en-ligne-source-darnaques-le-dropshipping-va-etre-mieux-regule"">Vente en ligne: source d’arnaques, le ""dropshipping""  va être mieux régulé</a>"
Le Point - En continu,en-ligne,73 % des femmes journalistes attaquées en ligne dans le monde,https://www.lepoint.fr/societe/73-des-femmes-journalistes-attaquees-en-ligne-dans-le-monde-30-04-2021-2424394_23.php,"Fri, 30 Apr 2021 16:09:00 +0200","20 % des femmes journalistes affirment avoir souffert du prolongement de ces attaques dans leur vie reelle, selon une enquete mondiale menee par l'Unesco."
Le Point - En continu,en-ligne,Boris Johnson : son téléphone personnel circulait en ligne depuis 15 ans,https://www.lepoint.fr/europe/boris-johnson-son-telephone-personnel-circulait-en-ligne-depuis-15-ans-30-04-2021-2424372_2626.php,"Fri, 30 Apr 2021 15:25:00 +0200","Le numero de portable du Premier ministre britannique figurait sur un communique de presse de 2006, selon des medias britanniques, dont la BBC."
La Tribune,en-ligne,Guerre de la musique en ligne: Bruxelles prend parti pour Spotify contre Apple,https://www.latribune.fr/technos-medias/musique-en-ligne-l-ue-accuse-apple-d-evincer-ses-rivaux-apple-accuse-spotify-d-abuser-de-son-appstore-883700.html,"Fri, 30 Apr 2021 16:42:00 +0200","La musique en ligne n'adoucit pas les mœurs en ce moment. La Commission européenne, qui avait ouvert une enquête à la suite de la plainte déposée par Spotify contre Apple et le fonctionnement de son App Store, donne aujourd'hui de sérieux atouts au suédois. Mais la firme de Cupertino vient de répliquer aussitôt en accusant à nouveau le suédois d'ingratitude et de ne pas payer ce qu'il doit à l'App Store."
Les 50 derniers articles du journal La Croix,en-ligne,Haine en ligne : le sport anglais lance un mouvement de boycott des réseaux sociaux,https://www.la-croix.com/Sciences-et-ethique/Haine-ligne-sport-anglais-lance-mouvement-boycott-reseaux-sociaux-2021-04-30-1201153538,"Fri, 30 Apr 2021 16:47:47 GMT","Plusieurs sportifs et clubs, principalement anglais, ont lancé vendredi 30 avril un mouvement de boycott des réseaux sociaux prévu pour durer tout le week-end afin de protester contre les injures en ligne, notamment le racisme. Ils ont été rejoints par le prince William, en tant que président de la Fédération anglaise de football."
LEXPRESS.fr - Rss A la Une,en-ligne,"Musique en ligne : l'UE accuse Apple d'""abus de position dominante""",https://lexpansion.lexpress.fr/high-tech/musique-en-ligne-l-ue-accuse-apple-d-abus-de-position-dominante_2149911.html,"Fri, 30 Apr 2021 13:43:07 +0200",Bruxelles avait ouvert une enquête à la suite d&#039;une plainte de la société suédoise Spotify.
L'Obs - A la une,en-ligne,"Saisie par Spotify, l’UE accuse Apple d’abus de position dominante sur le marché de la musique en ligne",https://www.nouvelobs.com/economie/20210430.OBS43504/saisie-par-spotify-l-ue-accuse-apple-d-abus-de-position-dominante-sur-le-marche-de-la-musique-en-ligne.html,"Fri, 30 Apr 2021 17:58:09 +0200",La plateforme suédoise estime qu’Apple utilise sa boutique d’applications App Store de manière déloyale pour promouvoir sa propre application Apple Music. La Commission européenne a estimé que le groupe à la pomme a bien «&nbsp;faussé la concurrence&nbsp;» pour évincer ses rivaux.
Le fil info Actu de Paris-Match,en-ligne,Nouveau scandale en Angleterre: le numéro de portable de Boris Johnson en ligne depuis 15 ans,https://www.parismatch.com/Actu/International/Nouveau-scandale-en-Angleterre-le-numero-de-portable-de-Boris-Johnson-en-ligne-depuis-15-ans-1736269,"Fri, 30 Apr 2021 17:34:11 +0200",Le numéro du téléphone personnel du Premier ministre Boris Johnson était à la libre disposition du public depuis... 2006.
20Minutes - Une,en-ligne,Vente en ligne : Bruno Le Maire met en garde les influenceurs sur leurs responsabilités,https://www.20minutes.fr/economie/3026999-20210422-vente-ligne-bruno-maire-met-garde-influenceurs-responsabilites#xtor=RSS-149,"Thu, 22 Apr 2021 15:43:22 +0200","« Prenez vos responsabilités, faites attention à ce que vous recommandez, faites attention à vos promos flash », a averti le ministre de l’Economie"
Franceinfo - Les Titres,en-ligne,"VRAI OU FAKE. Vinted, Airbnb... Les revenus tirés de ces plateformes en ligne doivent-ils être déclarés aux impôts ?",https://www.francetvinfo.fr/economie/impots/vrai-ou-fake-vinted-airbnb-les-revenus-tires-de-ces-plateformes-en-ligne-doivent-ils-etre-declares-aux-impots_4378385.html#xtor=RSS-3-[lestitres],"Thu, 22 Apr 2021 06:58:32 +0200","Vendre ses vêtements en ligne ou louer son appartement sur une plateforme... Est-ce imposable, comme le craignent des internautes ? Oui, dans certains cas, confirme à franceinfo une avocate fiscaliste."
Franceinfo - Les Titres,en-ligne,"Au théâtre de la Plume de Montpellier, un ""intermitthon"" de 507 heures de live en vitrine et en ligne",https://www.francetvinfo.fr/culture/spectacles/theatre/au-theatre-de-la-plume-de-montpellier-un-intermitthon-de-507-heures-de-live-en-vitrine-et-en-ligne_4604297.html#xtor=RSS-3-[lestitres],"Thu, 29 Apr 2021 17:11:15 +0200","Pendant 507 heures, soit 21 jours, des intermittents du spectacle se relaient dans la vitrine du petit théâtre montpelliérain. Une performance pour dénoncer la fermeture des lieux culturels et soutenir le mouvement national des intermittents du spectacle.&nbsp;"
20Minutes - Une,en-ligne,Royaume-Uni : Le numéro de portable de Boris Johnson disponible en ligne depuis quinze ans,https://www.20minutes.fr/high-tech/3032479-20210501-royaume-uni-numero-portable-boris-johnson-disponible-ligne-depuis-15-ans#xtor=RSS-149,"Sat, 01 May 2021 10:56:42 +0200","Le numéro personnel du Premier ministre britannique figurerait sur un communiqué de presse datant de 2006, selon des médias britanniques"
