L'actualité par l'Humanite.fr,gafam,Profits : heureux comme des Gafam en temps de Covid,https://www.humanite.fr/profits-heureux-comme-des-gafam-en-temps-de-covid-705660#xtor=RSS-1,"Mon, 03 May 2021 09:40:52 +0000","<p>Google, Apple, Facebook, Amazon et Microsoft affichent des profits record. Ils sont les grands gagnants des transformations numériques liées à la pandémie.</p>"
LEXPRESS.fr - Rss A la Une,gafam,Les Gafam vont devoir payer leur insolente santé,https://lexpansion.lexpress.fr/high-tech/les-gafam-vont-devoir-payer-leur-insolente-sante_2149930.html,"Mon, 03 May 2021 13:00:00 +0200","Les résultats record des géants américains de la technologie les exposent plus que jamais à une riposte politique. En matière de régulation, mais aussi de fiscalité."
LEXPRESS.fr - Rss A la Une,gafam,"André Loesekrug-Pietri : ""Mettons enfin en place un arsenal de sanctions contre les Gafam""",https://lexpansion.lexpress.fr/actualite-economique/andre-loesekrug-pietri-mettons-enfin-en-place-un-arsenal-de-sanctions-contre-les-gafam_2150059.html,"Mon, 03 May 2021 11:51:00 +0200","Apple est en passe d&#039;être à nouveau sanctionné par Bruxelles pour des pratiques anticoncurrentielles. A travers ce cas, c&#039;est l&#039;efficacité de telles sanctions qui se pose."
L'actualité par l'Humanite.fr,gafam,Multinationales. Les Gafam s’engraissent comme jamais,https://www.humanite.fr/multinationales-les-gafam-sengraissent-comme-jamais-705660#xtor=RSS-1,"Sun, 02 May 2021 17:30:01 +0000","<p>Google, Apple, Facebook, Amazon et Microsoft affichent des profits record. Ils sont les grands gagnants des transformations numériques liées à la pandémie.</p>"
LEXPRESS.fr - Rss A la Une,gafam,"Le CV de Lina Khan, icône anti-monopole nommée par Biden et futur cauchemar des Gafam",https://www.lexpress.fr/actualite/monde/le-cv-de-lina-khan-icone-anti-monopole-nommee-par-biden-et-futur-cauchemar-des-gafam_2149431.html,"Fri, 23 Apr 2021 14:19:00 +0200",La jeune juriste s&#039;apprête à prendre un poste de commissaire à l&#039;autorité américaine de la concurrence. Et ne manque pas d&#039;argument pour mettre au pas les Gafam.
