L'Obs - A la une,mobile,L’Empire du moyeu : 4 choses à savoir sur l’automobile en Chine,https://www.nouvelobs.com/auto-moto/20210421.OBS43073/l-empire-du-moyeu-4-choses-a-savoir-sur-l-automobile-en-chine.html,"Wed, 21 Apr 2021 14:08:21 +0200","Ce mercredi, le salon Auto Shanghaï ouvre ses portes en présentiel. L’occasion de prendre la (dé)mesure du plus grand marché au monde de la voiture"
FranceSoir - Articles de la rédaction,mobile,Fonderies: les rouages grippés de l'automobile en France,https://www.francesoir.fr/actualites-france/fonderies-les-rouages-grippes-de-lautomobile-en-france,"Wed, 28 Apr 2021 21:41:34 +0200","Fonderie de Bretagne, Gupta, MBF Aluminium: les menaces se multiplient sur les fonderies françaises, des rouages essentiels de l'industrie automobile qui doivent se transformer.
De la serrure au moteur
Les fonderies fabriquent plus d'une centaine de pièces en fonte ou en aluminium destinées à l'...  - Lire la suite sur FranceSoir.fr 

  
          
            
                  <img alt="""" height=""1215"" src=""https://www.francesoir.fr/sites/francesoir/files/images/2019/5d983a202cfd5294d3c879b49c1b6cbabbb7e6b6_field_mise_en_avant_principale.jpg"" width=""1111"" />
                        
    
        
            
                  © Fred TANNEAU / AFP - <a href=""https://www.francesoir.fr/actualites-france/fonderies-les-rouages-grippes-de-lautomobile-en-france"">Fonderies: les rouages grippés de l&#039;automobile en France</a>"
Le Point - En continu,mobile,Carlos Tavares : « Les lobbys anti-automobile sont très puissants »,https://www.lepoint.fr/economie/carlos-tavares-les-lobbys-anti-automobile-sont-tres-puissants-04-05-2021-2424867_28.php,"Wed, 05 May 2021 11:24:00 +0200","Ecologie, relocalisations, Chine... Le directeur general de Stellantis, ne de la fusion entre PSA et Fiat Chrysler Automobiles, devoile son plan de route."
Le Point - En continu,mobile,Le marché automobile pénalisé par la pénurie de puces électroniques,https://www.lepoint.fr/automobile/le-marche-automobile-penalise-par-la-penurie-de-puces-electroniques-04-05-2021-2424778_646.php,"Tue, 04 May 2021 07:00:00 +0200","En reprise nette, le marche automobile francais n'a toutefois pas encore retrouve son niveau d'avant-crise avec une baisse de plus de 20 % par rapport a 2019."
L'actualité par l'Humanite.fr,mobile,Industrie. Relocalisations : quand l’automobile ne tourne pas rond,https://www.humanite.fr/industrie-relocalisations-quand-lautomobile-ne-tourne-pas-rond-706208#xtor=RSS-1,"Wed, 05 May 2021 18:09:30 +0000","<p>Ce jeudi, les salariés des constructeurs et des sous-traitants sont appelés par la CGT à se mobiliser contre la casse sociale. Les syndicats proposent des solutions pour « produire là où on achète », à rebours de la mise en concurrence.</p>"
LEXPRESS.fr - Rss A la Une,mobile,"Les constructeurs automobiles, ces banquiers pas comme les autres",https://lexpansion.lexpress.fr/actualite-economique/les-constructeurs-automobiles-ces-banquiers-pas-comme-les-autres_2149770.html,"Wed, 05 May 2021 17:00:00 +0200","Durement impactés par la crise, les constructeurs misent plus que jamais sur leurs propres banques pour rebondir. Et se diversifier."
La Tribune,mobile,Le marché automobile français pénalisé par la pénurie de composants électroniques,https://www.latribune.fr/entreprises-finance/industrie/automobile/le-marche-automobile-francais-penalise-par-la-penurie-de-composants-electroniques-883762.html,"Sat, 01 May 2021 16:22:00 +0200","Le marché automobile français est resté sous son niveau d'avant la crise liée à la pandémie de Covid-19 l'an dernier, dans un contexte de production pénalisé par la pénurie mondiale de composants électroniques."
Le Point - En continu,mobile,Carlos Tavares : « Les lobbys anti-automobile sont très puissants »,https://www.lepoint.fr/economie/carlos-tavares-les-lobbys-anti-automobile-sont-tres-puissants-04-05-2021-2424867_28.php,"Tue, 04 May 2021 15:27:00 +0200","Ecologie, relocalisations, Chine... Le directeur general de Stellantis, ne de la fusion entre PSA et Fiat Chrysler Automobiles, devoile son plan de route."
Libération,mobile,Affaire Zecler : un montage raillant la mort de George Floyd retrouvé dans le mobile d’un policier mis en examen,https://www.liberation.fr/societe/police-justice/affaire-zecler-un-montage-raillant-la-mort-de-george-floyd-retrouve-dans-le-mobile-dun-policier-mis-en-examen-20210422_5U2BJSIAKZCDRF2N4NAH32AICQ/,"Thu, 22 Apr 2021 15:16:20 +0000",L’émission «Envoyé spécial» révèle ce jeudi de nouveaux éléments sur le profil d’un des policiers mis en cause dans l’agression du producteur de musique en novembre.
La Tribune,mobile,Automobile: l'électrique profite de la chute du diesel en Europe,https://www.latribune.fr/entreprises-finance/industrie/automobile/automobile-l-electrique-profite-de-la-chute-du-diesel-en-europe-883147.html,"Fri, 23 Apr 2021 15:37:00 +0200","Le ventes de voitures diesel ont chuté de près de 7 points sur le marché de l'automobile européen en 2020, selon des données récentes. Au contraire, les ventes de véhicules électrifiés ont augmenté, toujours soutenues par les subventions publiques."
Mediapart,mobile,"Race, classe: dans l’industrie automobile, un moment fondateur",https://www.mediapart.fr/journal/culture-idees/250421/race-classe-dans-l-industrie-automobile-un-moment-fondateur,"Sun, 25 Apr 2021 10:59:42 +0200","Alors que le débat sur l’articulation entre condition ouvrière et condition immigrée demeure vif, le sociologue Vincent Gay revient, dans un livre, sur l’épisode originel des grandes grèves de l’industrie automobile du début des années 1980."
Le Point - En continu,mobile,L’État au chevet des fonderies automobiles,https://www.lepoint.fr/economie/l-etat-au-chevet-des-fonderies-automobiles-30-04-2021-2424360_28.php,"Fri, 30 Apr 2021 10:38:00 +0200",Le ministere de l'Industrie envisage deja de devoir reconvertir des salaries et s'apprete a debloquer des prets directs de l'Etat pour trois sites.
Flux d'actualité Marianne.net,mobile,"Automobile : la bulle Tesla, dopée aux crédits réglementaires",https://www.marianne.net/agora/tribunes-libres/automobile-la-bulle-tesla-dopee-aux-credits-reglementaires#utm_source=RSS-MARIANNE&utm_medium=Flux-Rss&utm_campaign=RSS_general,"Fri, 30 Apr 2021 11:54:59 GMT","« Comment un constructeur automobile qui a écoulé à peine un demi-million de voitures l’an dernier peut-il valoir autant que tous les géants du secteur réunis ? La seule vente de ses voitures n’est toujours pas profitable, et si ses concurrents se mettent dans la position de pouvoir se passer de ses crédits, Tesla sera dans le rouge », rappelle Laurent Herblay."
La Tribune,mobile,L'Etat accélère la transition écologique du secteur automobile français,https://www.latribune.fr/entreprises-finance/industrie/automobile/l-etat-accelere-la-transition-ecologique-du-secteur-automobile-francais-883301.html,"Mon, 26 Apr 2021 18:53:00 +0200",Le ministre de l'Economie a tenu une réunion à Bercy pour mettre à jour le contrat stratégique de filière afin d'accélérer la transformation de l'industrie automobile française vers la transition énergétique. Un plan spécifique doit être mis en place pour répondre à la situation critique des fonderies françaises.
LEXPRESS.fr - Rss A la Une,mobile,Fonderies: les rouages grippés de l'automobile en France,https://www.lexpress.fr/actualites/1/societe/fonderies-les-rouages-grippes-de-l-automobile-en-france_2149810.html,"Thu, 29 Apr 2021 10:36:06 +0200","Paris - Fonderie de Bretagne, Gupta, MBF Aluminium: les menaces se multiplient sur les fonderies françaises, des rouages essentiels de l&#039;industrie automobile qui doivent se transformer."
