Le Point - En continu,reconnaissance,"""Halte au mépris"": sages-femmes ""en colère"" cherchent reconnaissance",https://www.lepoint.fr/societe/halte-au-mepris-les-sages-femmes-en-colere-donnent-de-la-voix-05-05-2021-2425167_23.php,"Wed, 05 May 2021 17:18:00 +0200","""Faut pas pousser"", ""ras le col"": des sages-femmes ont manifeste mercredi en France dans le cadre de la journee internationale qui leur est..."
LEXPRESS.fr - Rss A la Une,reconnaissance,"""Halte au mépris"": sages-femmes ""en colère"" cherchent reconnaissance",https://www.lexpress.fr/actualites/1/societe/halte-au-mepris-les-sages-femmes-en-colere-donnent-de-la-voix_2150226.html,"Wed, 05 May 2021 14:42:12 +0200","Paris - &quot;Faut pas pousser&quot;, &quot;ras le col&quot;: des sages-femmes ont manifesté mercredi en France dans le cadre de la journée internationale qui leur est consacrée, réclamant reconnaissance et effectifs."
FranceSoir - Articles de la rédaction,reconnaissance,"""Halte au mépris"": sages-femmes ""en colère"" cherchent reconnaissance",https://www.francesoir.fr/actualites-france/halte-au-mepris-les-sages-femmes-en-colere-donnent-de-la-voix,"Wed, 05 May 2021 14:19:06 +0200","""Faut pas pousser"", ""ras le col"": des sages-femmes ont manifesté mercredi en France dans le cadre de la journée internationale qui leur est consacrée, réclamant reconnaissance et effectifs. 
""Notre profession est très peu connue et très peu reconnue"", a expliqué à l'AFP Camille Dumortier,...  - Lire la suite sur FranceSoir.fr 

  
          
            
                  <img alt="""" height=""740"" src=""https://www.francesoir.fr/sites/francesoir/files/images/2019/541e609479252367869a5ca6262a93823b73c0e2_field_mise_en_avant_principale_1.jpg"" width=""1111"" />
                        
    
        
            
                  © Alain JOCARD / AFP/Archives - <a href=""https://www.francesoir.fr/actualites-france/halte-au-mepris-les-sages-femmes-en-colere-donnent-de-la-voix"">""Halte au mépris"": sages-femmes ""en colère"" cherchent reconnaissance</a>"
Libération,reconnaissance,"Enquête sur le tueur de Rambouillet, le monde au chevet de l’Inde et reconnaissance du génocide arménien par Joe Biden… L’actu du week-end",https://www.liberation.fr/societe/police-justice/enquete-sur-le-tueur-de-rambouillet-le-monde-au-chevet-de-linde-et-reconnaissance-du-genocide-armenien-par-joe-biden-lactu-du-week-end-20210425_TBZDZG4ZZNGUBAKXUNBGVP6OT4/,"Sun, 25 Apr 2021 18:15:56 +0000",
Libération,reconnaissance,"Reconnaissance du génocide arménien par Biden : la Turquie condamne, l’Arménie se réjouit",https://www.liberation.fr/international/amerique/biden-doit-reconnaitre-ce-samedi-le-genocide-armenien-apres-avoir-parle-avec-erdogan-20210424_ALUL4SYWTRF5LE7L2JX4N54EAM/,"Sat, 24 Apr 2021 09:26:28 +0000","Le démocrate est le premier président américain à reconnaître le génocide arménien ce samedi. Si la dimension symbolique de cette décision est forte, et risque de tendre les relations avec la Turquie, elle n’a pas de portée légale."
Le Point - En continu,reconnaissance,Les Turcs arméniens font profil bas après la reconnaissance du génocide par Washington,https://www.lepoint.fr/monde/les-turcs-armeniens-font-profil-bas-apres-la-reconnaissance-du-genocide-par-washington-27-04-2021-2423921_24.php,"Tue, 27 Apr 2021 12:36:00 +0200","Chauffee a blanc par les medias progouvernementaux, l'opinion publique en Turquie est tres remontee contre les Etats-Unis depuis la reconnaissance,..."
LEXPRESS.fr - Rss A la Une,reconnaissance,Les Turcs arméniens font profil bas après la reconnaissance du génocide par Washington,https://www.lexpress.fr/actualites/1/monde/les-turcs-armeniens-font-profil-bas-apres-la-reconnaissance-du-genocide-par-washington_2149683.html,"Tue, 27 Apr 2021 12:34:05 +0200","Istanbul - Chauffée à blanc par les médias progouvernementaux, l&#039;opinion publique en Turquie est très remontée contre les Etats-Unis depuis la reconnaissance, samedi, du génocide arménien par Joe Biden. Craignant de devenir la cible de cette colère, la petite communauté arménienne fait profil bas."
FranceSoir - Articles de la rédaction,reconnaissance,"L'UE propose un encadrement de l’IA, de la surveillance et de la reconnaissance faciale",https://www.francesoir.fr/societe-science-tech/lue-propose-un-encadrement-de-lia-de-la-surveillance-et-de-la-reconnaissance,"Mon, 26 Apr 2021 10:43:59 +0200","Pour mieux encadrer les nouvelles technologies sans que les citoyens en soient forcément conscients, la Commission européenne a présenté le 21 avril dernier une proposition de règlement visant à harmoniser et réglementer les applications en matière d’intelligence artificielle, de reconnaissance...  - Lire la suite sur FranceSoir.fr 

  
          
            
                  <img alt="""" height=""439"" src=""https://www.francesoir.fr/sites/francesoir/files/technology-4256272_1920_field_mise_en_avant_principale_1_0.jpg"" width=""1098"" />
                        
    
        
            
                  Pixabay - <a href=""https://www.francesoir.fr/societe-science-tech/lue-propose-un-encadrement-de-lia-de-la-surveillance-et-de-la-reconnaissance"">L&#039;UE propose un encadrement de l’IA, de la surveillance et de la reconnaissance faciale</a>"
LEXPRESS.fr - Rss A la Une,reconnaissance,"Une décision ""forte"": trois questions sur la reconnaissance du génocide arménien par Biden",https://www.lexpress.fr/actualite/monde/une-decision-forte-trois-questions-sur-la-reconnaissance-du-genocide-armenien-par-biden_2149550.html,"Sun, 25 Apr 2021 18:34:00 +0200","L&#039;annonce est à la fois une claque pour Erdogan et l&#039;affirmation d&#039;un Biden plaçant les droits de l&#039;homme au centre sa politique étrangère, analysent plusieurs experts."
Les 50 derniers articles du journal La Croix,reconnaissance,"Libération des otages en Haïti : « Alléluia », soulagement et reconnaissance",https://www.la-croix.com/Religion/Liberation-otages-Haiti-Alleluia-soulagement-reconnaissance-2021-04-30-1201153539,"Fri, 30 Apr 2021 17:49:22 GMT","À la suite de la libération, dans la nuit du 29 au 30 avril, de tous les religieux catholiques retenus en otage en Haïti, les communautés religieuses auxquelles ils appartiennent ont exprimé leur soulagement et leur reconnaissance pour le soutien dont ils ont bénéficié en France et sur place."
Flux d'actualité Marianne.net,reconnaissance,"Reconnaissance du génocide arménien : ""Joe Biden ne peut pas infliger un camouflet à l'Arménie""",https://www.marianne.net/monde/geopolitique/reconnaissance-du-genocide-armenien-joe-biden-ne-peut-infliger-un-camouflet-a-larmenie#utm_source=RSS-MARIANNE&utm_medium=Flux-Rss&utm_campaign=RSS_general,"Thu, 22 Apr 2021 11:33:21 GMT","Philosophe et enseignant, Michel Marian s’efforce, dans son dernier ouvrage*, de résumer en 100 questions tout sauf classiques l’histoire, la culture et les enjeux géo-politiques autour d’un peuple et d’une civilisation située aux confins des empires. Il s’interroge sur l’avenir de ce petit pays caucasien, au lendemain d’une défaite infligée à la fin de l’an dernier au Karabakh, par l’Azerbaïdjan voisin."
Le Point - En continu,reconnaissance,"Dans la reconnaissance des génocides, Washington à géographie variable",https://www.lepoint.fr/monde/dans-la-reconnaissance-des-genocides-washington-a-geographie-variable-28-04-2021-2424182_24.php,"Wed, 28 Apr 2021 14:52:00 +0200","Lorsqu'en 1994 pres de 800.000 personnes, principalement des Tutsis, ont ete massacrees au Rwanda sur une periode de 100 jours, les Etats-Unis..."
LEXPRESS.fr - Rss A la Une,reconnaissance,"Dans la reconnaissance des génocides, Washington à géographie variable",https://www.lexpress.fr/actualites/1/monde/dans-la-reconnaissance-des-genocides-washington-a-geographie-variable_2149771.html,"Wed, 28 Apr 2021 14:50:49 +0200","Washington - Lorsqu&#039;en 1994 près de 800.000 personnes, principalement des Tutsis, ont été massacrées au Rwanda sur une période de 100 jours, les Etats-Unis avaient hésité à qualifier l&#039;événement de génocide, lui préférant le terme plus édulcoré d&#039;&quot;actes de génocide&quot;."
Les 50 derniers articles du journal La Croix,reconnaissance,"Libération des otages en Haïti : « Alléluia », soulagement et reconnaissance",https://www.la-croix.com/Religion/Liberation-otages-Haiti-Alleluia-soulagement-reconnaissance-2021-04-30-1201153539,"Sat, 01 May 2021 06:56:19 GMT","À la suite de la libération, dans la nuit du 29 au 30 avril, de tous les religieux catholiques retenus en otage en Haïti, les communautés religieuses auxquelles ils appartiennent ont exprimé leur soulagement et leur reconnaissance pour le soutien dont ils ont bénéficié en France et sur place."
