Courrier international - Actualités France et Monde,smartphone,Les soldats américains trahis par leurs smartphones,https://www.courrierinternational.com/article/enquete-les-soldats-americains-trahis-par-leurs-smartphones,"Wed, 28 Apr 2021 12:02:11 +0200","Les troupes américaines peuvent être géolocalisées grâce aux données issues des téléphones des soldats en mission, récoltées et revendues par diverses entreprises, révèle le <em>Wall Street Journal</em> dans une longue enquête. Une faille dans la sécurité de l’armée qui préoccupe de plus en plus les autorités américaines."
Franceinfo - Les Titres,smartphone,"DIRECT. Vies d'infirmières, géolocalisation sur les smartphones... Regardez ""Envoyé spécial""",https://www.francetvinfo.fr/replay-magazine/france-2/envoye-special/envoye-special-du-jeudi-29-avril-2021_4383117.html#xtor=RSS-3-[lestitres],"Thu, 29 Apr 2021 21:55:42 +0200","Proximité, rencontres, immersion. Chaque jeudi, Elise Lucet présente ""Envoyé spécial"", au contact de celles et ceux qui participent aux reportages.
Au sommaire : &nbsp; 
- Héritage, la fête au village&nbsp;!&nbsp;Parfois, des défunts lèguent leur fortune à leur commune... Comment ces dernières gèrent-elles cette manne inespérée&nbsp;? La volonté des donateurs est-elle toujours respectée&nbsp;? Le cadeau peut-il se révéler empoisonné&nbsp;?
-&nbsp;Un espion dans la poche&nbsp;? Nos téléphones portables enregistrent presque tout ce que nous leur confions&nbsp;: fréquentations, déplacements, achats, mots de passe, goûts... Jusqu'où va leur connaissance de notre intimité&nbsp;? A qui transmettent-ils ces informations privées&nbsp;?
- Ma vie d'infirmière.&nbsp;Tiffany, 30&nbsp;ans, et Anne-Sophie, 49&nbsp;ans, sont infirmières au service réanimation du CHU d'Amiens. C'est une vocation, mais aujourd'hui, elles n'en peuvent plus&nbsp;: la troisième vague de Covid qu'elles affrontent les amène au bord de la rupture. &nbsp;"
Franceinfo - Les Titres,smartphone,VIDEO. Smartphones : sommes-nous surveillés par la géolocalisation ?,https://www.francetvinfo.fr/internet/telephonie/video-smartphones-sommes-nous-surveilles-par-la-geolocalisation_4603275.html#xtor=RSS-3-[lestitres],"Thu, 29 Apr 2021 15:44:07 +0200","Jusqu'à quel point sommes-nous traqués et pistés par notre smartphone&nbsp;? Bien sûr, la géolocalisation a des avantages&nbsp;: elle permet aux applications GPS de nous proposer le meilleur itinéraire. De là à imaginer que notre téléphone enregistre de lui-même tous nos déplacements... C'est ce que découvre une journaliste d'""Envoyé spécial"" dans cet extrait."
