20Minutes - Une,application,TikTok : Comment faites-vous pour restreindre votre usage de l’application ? Racontez-nous,https://www.20minutes.fr/arts-stars/culture/3034615-20210504-tiktok-comment-faites-restreindre-usage-application#xtor=RSS-149,"Tue, 04 May 2021 18:47:37 +0200","Limitation du temps d'utilisation, voire suppression totale de l’application, parvenez-vous à vous fixer des règles lorsque vous êtes sur TikTok ?"
Franceinfo - Les Titres,code,"""Zero"" sur Netflix : explosive et engagée, une série italienne qui bouscule les codes des super-héros",https://www.francetvinfo.fr/culture/series/netflix/zero-sur-netflix-explosive-et-engagee-une-serie-italienne-qui-bouscule-les-codes-des-super-heros_4609467.html#xtor=RSS-3-[lestitres],"Tue, 04 May 2021 13:39:19 +0200","La série italienne, disponible sur Netflix depuis fin avril,&nbsp;réinvente les super-héros sur petit écran à travers le portrait d'Omar. Livreur de pizzas d'origine&nbsp;sénégalaise, il est doté de la faculté de se rendre invisible.&nbsp;"
Franceinfo - Les Titres,amazon,Amazon officialise son implantation à Metz et promet 1 000 emplois sur trois ans,https://www.francetvinfo.fr/internet/amazon/amazon-officialise-son-implantation-a-metz-et-promet-1-000-emplois-sur-trois-ans_4610659.html#xtor=RSS-3-[lestitres],"Tue, 04 May 2021 13:30:00 +0200",Ce site sera le huitième centre de distribution d'Amazon en France.
Libération,tweet,Comment Thomas Pesquet tweete-t-il depuis l’espace ?,https://www.liberation.fr/checknews/comment-thomas-pesquet-tweete-t-il-depuis-lespace-20210427_W4HAXD7MYVGUBMPOCALXWIYBH4/,"Tue, 27 Apr 2021 17:30:04 +0000","Le spationaute ne «pousse pas le bouton» pour envoyer ses très réguliers messages mais il en est souvent à l’origine et peut très bien, s’il le souhaite, les envoyer lui-même depuis l’ISS."
Libération,facebook,Pourquoi CheckNews ne fait plus de fact-checking avec Facebook,https://www.liberation.fr/checknews/pourquoi-checknews-ne-fait-plus-de-fact-checking-avec-facebook-20210307_JAHVHU2NJRA5HAV7NTCUCWX3DE/,"Sun, 07 Mar 2021 09:46:45 +0000","Après un peu plus de trois ans de collaboration, «Libération» a mis un terme à son contrat de fact-checking avec Facebook fin 2020. Un choix cohérent avec notre stratégie éditoriale."
Libération,ordinateur,"Non, l'homme qui aurait «fouillé l'ordinateur de Nancy Pelosi» au Capitole n'a pas été retrouvé mort",https://www.liberation.fr/checknews/2021/01/14/non-l-homme-qui-aurait-fouille-l-ordinateur-de-nancy-pelosi-au-capitole-n-a-pas-ete-retrouve-mort_1817264/,"Thu, 14 Jan 2021 13:30:14 +0000","Le site Sputnik a confondu le suicide d'un homme qui s'était introduit au Capitole avec l'invasion du bureau de Nancy Pelosi, le 6 janvier, donnant lieu à des interprétations conspirationnistes."
Libération,securite,"Non, le directeur de l’Agence nationale de sécurité du médicament n'a pas démissionné à cause de scandales",https://www.liberation.fr/checknews/2020/12/02/non-le-directeur-de-l-agence-nationale-de-securite-du-medicament-n-a-pas-demissionne-a-cause-de-scan_1807291/,"Wed, 02 Dec 2020 07:35:07 +0000","Le départ de Dominique Martin a fait l'objet de nombreuses spéculations, poussant l'institution à publier une «mise au point»."
Libération,vie-privee,"Covid-19 : pour la Défenseure des droits, «le droit à la vie privée et familiale a été grandement entravé» dans les Ehpad",https://www.liberation.fr/societe/sante/covid-19-pour-la-defenseure-des-droits-le-droit-a-la-vie-privee-et-familiale-a-ete-grandement-entrave-dans-les-ehpad-20210504_5CQWVSNXYVFK3EO746VIMVKRAI/,"Tue, 04 May 2021 12:10:04 +0000","Dans un rapport publié ce mardi, Claire Hédon fait le bilan des restrictions, encore plus importantes que dans le reste de la société. Des restrictions qui entraînent une très grande souffrance chez un grand nombre de résidents."
Libération,5g,Boycottons la 5G !,https://www.liberation.fr/idees-et-debats/tribunes/boycottons-la-5g-20210501_FH4YLLHMUVCTLBT5ZY7QEW5WDU/,"Sat, 01 May 2021 13:08:02 +0000","Alors que les fournisseurs d’accès et les industriels communiquent déjà sur l’absolue nécessité des futurs objets connectés liés à cette technologie énergivore, plus de 500 scientifiques appellent les citoyens à dire «non» à tous les produits liés de près ou de loin à la 5G et son monde."
Libération,amazon,La forêt amazonienne brésilienne émet désormais plus de CO2 qu’elle n’en absorbe,https://www.liberation.fr/environnement/la-foret-amazonienne-bresilienne-emet-desormais-plus-de-co2-quelle-nen-absorbe-20210430_7Z3TIJ55W5EM5NJR4VPOMONFRA/,"Fri, 30 Apr 2021 17:55:00 +0000","Un des poumons de la planète est en train de basculer à cause des dégradations et de la déforestation. La forêt brésilienne, étendue sur 60% de l’Amazonie, ne joue plus son rôle de puits de carbone qui freine le réchauffement de la planète."
Libération,reseau,"Pour lutter contre le cyberharcèlement, le foot anglais se coupe des réseaux",https://www.liberation.fr/sports/pour-lutter-contre-le-cyberharcelement-le-foot-anglais-se-coupe-des-reseaux-20210430_GRONVH5XZZH7JGNISTYBHBD4FY/,"Fri, 30 Apr 2021 17:02:31 +0000","Alors que les sportifs sont souvent la cible d’insultes et de racisme en ligne, de nombreux clubs ont décidé de boycotter ce week-end Twitter, Facebook et Instagram."
Libération,numerique,L’administration Biden soutient le statut de salarié pour les travailleurs indépendants du numérique,https://www.liberation.fr/international/amerique/ladministration-biden-soutient-le-statut-de-salarie-pour-les-travailleurs-independants-du-numerique-20210430_TENEYXTA6VHNTKY6AFFV556ADM/,"Fri, 30 Apr 2021 14:32:18 +0000","La déclaration du secrétaire américain au Travail, Marty Walsh, qui souhaite que les employés des plateformes soient considérés comme des salariés, déstabilise les cours de l’action de Uber, Lyft ou DoorDash."
Libération,amazon,Amazon pulvérise les attentes en triplant ses profits au premier trimestre,https://www.liberation.fr/economie/amazon-pulverise-les-attentes-en-triplant-ses-profits-au-1er-trimestre-20210430_4FMYTDNBMFBUPOEERC6BONGZQU/,"Fri, 30 Apr 2021 12:11:48 +0000","Les résultats du leader mondial du commerce en ligne et du cloud s’envolent après une année de pandémie qui a bouleversé l’usage des appareils et services numériques. Les autres géants de la Silicon Valley (Google, Apple et Facebook) ne sont pas en reste."
Le Figaro - Les dernières actualités à la une,reseau,"L'Allemagne découvre, choquée, les membres d'un vaste réseau pédocriminel démantelé",https://www.lefigaro.fr/international/l-allemagne-decouvre-choquee-les-membres-d-un-vaste-reseau-pedophile-demantele-20210504,"Tue, 04 May 2021 20:27:31 +0200","Un ancien chauffeur de taxi exilé au Paraguay et ses trois acolytes marginaux sont accusés d'avoir monté et animé un important réseau de pédopornographie sur le «darknet», fréquenté par pas moins de 374 000 membres."
Le Point - En continu,mobile,Carlos Tavares : « Les lobbys anti-automobile sont très puissants »,https://www.lepoint.fr/economie/carlos-tavares-les-lobbys-anti-automobile-sont-tres-puissants-04-05-2021-2424867_28.php,"Tue, 04 May 2021 15:27:00 +0200","Ecologie, relocalisations, Chine... Le directeur general de Stellantis, ne de la fusion entre PSA et Fiat Chrysler Automobiles, devoile son plan de route."
Le Point - En continu,surveillance,Vidéosurveillance des chauffeurs-livreurs : que dit le droit ?,https://www.lepoint.fr/editos-du-point/laurence-neuer/videosurveillance-des-chauffeurs-livreurs-que-dit-le-droit-04-05-2021-2424899_56.php,"Tue, 04 May 2021 14:00:00 +0200",Les chauffeurs-livreurs d'Amazon doivent accepter la presence de cameras embarquees dans leurs vehicules : l'exemple americain est-il duplicable en France ?
Le Point - En continu,amazon,Amazon officialise son implantation à Metz et promet 1.000 emplois sur trois ans,https://www.lepoint.fr/societe/amazon-officialise-son-implantation-a-metz-et-promet-1-000-emplois-sur-trois-ans-04-05-2021-2424791_23.php,"Tue, 04 May 2021 13:49:00 +0200","Le geant americain de la vente en ligne Amazon a prevu d'ouvrir ""a l'ete 2021"" un entrepot de grande taille situe dans la metropole de Metz, et a..."
Le Point - En continu,mobile,Le marché automobile pénalisé par la pénurie de puces électroniques,https://www.lepoint.fr/automobile/le-marche-automobile-penalise-par-la-penurie-de-puces-electroniques-04-05-2021-2424778_646.php,"Tue, 04 May 2021 07:00:00 +0200","En reprise nette, le marche automobile francais n'a toutefois pas encore retrouve son niveau d'avant-crise avec une baisse de plus de 20 % par rapport a 2019."
Le Point - En continu,puce,Le marché automobile pénalisé par la pénurie de puces électroniques,https://www.lepoint.fr/automobile/le-marche-automobile-penalise-par-la-penurie-de-puces-electroniques-04-05-2021-2424778_646.php,"Tue, 04 May 2021 07:00:00 +0200","En reprise nette, le marche automobile francais n'a toutefois pas encore retrouve son niveau d'avant-crise avec une baisse de plus de 20 % par rapport a 2019."
Le Point - En continu,tech,Aucune technologie ne permet encore d’empêcher un astéroïde de s’écraser sur Terre,https://www.lepoint.fr/astronomie/aucune-technologie-ne-permet-encore-d-empecher-un-asteroide-de-s-ecraser-sur-terre-03-05-2021-2424753_1925.php,"Tue, 04 May 2021 06:02:00 +0200","La Nasa a simule l'arrivee d'un asteroide situe a 35 millions de kilometres qui menacait de frapper la Terre, rapporte Business Insider."
Le Point - En continu,reseau,Un vaste réseau de pédopornographie sur le darknet démantelé en Allemagne,https://www.lepoint.fr/monde/un-vaste-reseau-de-pedopornographie-sur-le-darknet-demantele-en-allemagne-03-05-2021-2424672_24.php,"Mon, 03 May 2021 16:04:00 +0200","L'Allemagne a demantele un important reseau de pedopornographie sur le ""darknet"", presente comme l'un ""des plus grands au monde"", et arrete quatre..."
Le Point - En continu,reseau,Allemagne : un vaste réseau de pédopornographie sur le darknet démantelé,https://www.lepoint.fr/faits-divers/allemagne-un-vaste-reseau-de-pedopornographie-sur-le-darknet-demantele-03-05-2021-2424666_2627.php,"Mon, 03 May 2021 13:42:00 +0200","Ce reseau allemand, presente comme << l'un des plus grands au monde >>, comptait plus de 400 000 membres bases aux quatre coins du monde."
Le Point - En continu,en-ligne,Musique en ligne : l’Union européenne accuse Apple d'« abus de position dominante »,https://www.lepoint.fr/high-tech-internet/musique-en-ligne-l-union-europeenne-accuse-apple-d-abus-de-position-dominante-03-05-2021-2424641_47.php,"Mon, 03 May 2021 10:55:00 +0200","Saisie du cas Spotify, l'UE estime qu'Apple a << fausse la concurrence >> sur ce marche en << abusant de sa position dominante >> pour evincer ses rivaux."
Le Point - En continu,apple,Musique en ligne : l’Union européenne accuse Apple d'« abus de position dominante »,https://www.lepoint.fr/high-tech-internet/musique-en-ligne-l-union-europeenne-accuse-apple-d-abus-de-position-dominante-03-05-2021-2424641_47.php,"Mon, 03 May 2021 10:55:00 +0200","Saisie du cas Spotify, l'UE estime qu'Apple a << fausse la concurrence >> sur ce marche en << abusant de sa position dominante >> pour evincer ses rivaux."
La Tribune,digital,La digitalisation de la vérification d'identité s'accélère,https://www.latribune.fr/opinions/tribunes/la-digitalisation-de-la-verification-d-identite-s-accelere-883918.html,"Tue, 04 May 2021 15:43:00 +0200","OPINION. La révolution numérique, accélérée par la crise sanitaire ainsi que par les dernières directives relatives à la lutte contre le blanchiment et le financement du terrorisme, a développé les besoins de recourir à des services de confiance dans le domaine de la vérification d'identité en ligne. Ces services deviennent dans le monde numérique ce qu'étaient les documents d'identité physiques. (*) Par Bertrand Bouteloup, directeur général adjoint chez ARIADNEXT"
LEXPRESS.fr - Rss A la Une,blockchain,"Blockchain : aux Etats-Unis, la seconde jeunesse des cartes de joueurs de baseball",https://lexpansion.lexpress.fr/actualite-economique/blockchain-aux-etats-unis-la-seconde-jeunesse-des-cartes-de-joueurs-de-baseball_2149863.html,"Tue, 04 May 2021 16:28:50 +0200","Michael Eisner, l&#039;ex-patron de Disney, propriétaire du leader américain des cartes de baseball, vient de lancer une version virtuelle utilisant la technologie NFT. Un carton !"
LEXPRESS.fr - Rss A la Une,amazon,Amazon officialise son implantation à Metz et promet 1.000 emplois sur trois ans,https://www.lexpress.fr/actualites/1/societe/amazon-officialise-son-implantation-a-metz-et-promet-1-000-emplois-sur-trois-ans_2150129.html,"Tue, 04 May 2021 08:53:10 +0200","Strasbourg - Le géant américain de la vente en ligne Amazon a prévu d&#039;ouvrir &quot;à l&#039;été 2021&quot; un entrepôt de grande taille situé dans la métropole de Metz, et a promis mardi la création de 1.000 emplois en CDI dans les trois ans."
L'Obs - A la une,virtuel,"Yasmine Varma, 19 ans, influenceuse virtuelle made in France",https://www.nouvelobs.com/mode/20210504.OBS43614/yasmine-varma-19-ans-influenceuse-virtuelle-made-in-france.html,"Tue, 04 May 2021 09:36:53 +0200","Jeune, jolie et influente, Yasmine Varma n’est pas une influenceuse comme les autres. Créée en agence, cette créature hybride&nbsp;vient de débarquer sur le réseau social Instagram et affiche déjà 5&nbsp;000 abonnés"
Le fil info Actu de Paris-Match,twitter,Photos d'exactions du groupe EI sur Twitter : Marine Le Pen et Gilbert Collard relaxés,https://www.parismatch.com/Actu/Politique/Photos-d-exactions-du-groupe-EI-sur-Twitter-Marine-Le-Pen-et-Gilbert-Collard-relaxes-1736652,"Tue, 04 May 2021 16:26:04 +0200","Marine Le Pen et Gilbert Collard , poursuivis pour avoir diffusé en 2015 des photos d'exactions du groupe Etat islamique, ont été relaxés."
Flux d'actualité Marianne.net,twitter,Images d'exaction de l’État islamique sur Twitter : Marine Le Pen et Gilbert Collard relaxés,https://www.marianne.net/societe/police-et-justice/images-dexaction-de-letat-islamique-sur-twitter-marine-le-pen-et-gilbert-collard-relaxes#utm_source=RSS-MARIANNE&utm_medium=Flux-Rss&utm_campaign=RSS_general,"Tue, 04 May 2021 15:51:31 GMT","Le tribunal correctionnel de Nanterre a relaxé, ce mardi 4 mai, Marine Le Pen et Gilbert Collard dans l'affaire de la diffusion d'images des exactions de Daesh. Les publications rentraient « dans une démarche de protestation politique »."
Courrier international - Actualités France et Monde,apple,La bataille d’Epic Games contre Apple face aux juges,https://www.courrierinternational.com/revue-de-presse/concurrence-la-bataille-depic-games-contre-apple-face-aux-juges,"Mon, 03 May 2021 17:31:05 +0200","C’est ce lundi 3 mai que débute le procès d’Apple devant la justice californienne. Epic Games, éditeur du jeu <em>Fortnite,</em> l’accuse d’abuser de sa position dominante sur son App Store. Une affaire qui pourrait redéfinir l’économie des plateformes numériques."
Courrier international - Actualités France et Monde,censure,Homophobie : une tentative de censure lors du concert du 1er mai agite l’Italie,https://www.courrierinternational.com/article/polemique-homophobie-une-tentative-de-censure-lors-du-concert-du-1er-mai-agite-litalie,"Mon, 03 May 2021 17:26:08 +0200","Lors du traditionnel concert romain qui célèbre la Fête du travail, le rappeur Fedez a accusé les organisateurs et la télévision publique italienne d’avoir voulu censurer son discours brocardant les déclarations homophobes de responsables politiques. Une affaire qui s’inscrit dans le contexte, déjà tendu, de l’approbation d’une loi controversée sur la discrimination."
Courrier international - Actualités France et Monde,wiki,"Avec WikiAfrica, les Africains prennent le pouvoir sur leur propre histoire",https://www.courrierinternational.com/article/memoire-avec-wikiafrica-les-africains-prennent-le-pouvoir-sur-leur-propre-histoire,"Mon, 03 May 2021 06:02:39 +0200","C’est une bible de connaissances et l’un des sites les plus visités du monde. Mais sur Wikipédia, les sujets qui concernent l’Afrique sont largement sous-représentés. En réaction, l’initiative WikiAfrica est née. <em>Reasons to Be Cheerful</em> raconte ce projet colossal."
Courrier international - Actualités France et Monde,crypto,"Le bitcoin n’est pas une cryptomonnaie, c’est une religion",https://www.courrierinternational.com/article/decryptage-le-bitcoin-nest-pas-une-cryptomonnaie-cest-une-religion,"Sun, 02 May 2021 06:13:25 +0200","La réussite de la célèbre cryptomonnaie repose sur une construction mythologique n’ayant rien à envier à une religion classique, analyse <em>Le Temps</em>. Et comme dans tout autre système financier, la foi joue un rôle prépondérant."
Courrier international - Actualités France et Monde,apple,L’Europe accuse Apple d’abus de position dominante,https://www.courrierinternational.com/article/antitrust-leurope-accuse-apple-dabus-de-position-dominante,"Fri, 30 Apr 2021 18:05:38 +0200","C’est une première : suite à une plainte déposée par Spotify en 2019, la Commission européenne inculpe le géant à la pomme pour avoir enfreint les règles à la concurrence. Apple impose aux développeurs d’applications une commission de 30 % sur son AppStore sur chaque téléchargement."
Courrier international - Actualités France et Monde,internet,"Décès d’El Risitas, conteur espagnol hilarant et star d’Internet",https://www.courrierinternational.com/article/humour-deces-del-risitas-conteur-espagnol-hilarant-et-star-dinternet,"Thu, 29 Apr 2021 17:20:09 +0200","L’humoriste espagnol s’était fait connaître après une intervention télévisée devenue virale en 2015 sur Internet. Détournée, elle avait fait d’El Risitas l’un des mèmes les plus connus."
LEXPRESS.fr - RSS Tout L'Entreprise,intelligence,A paraître demain : nos sept formes d'intelligence.,https://blogs.lentreprise.com/le-management-dans-tous-ses-etats/2020/01/20/a-paraitre-demain-nos-sept-formes-dintelligence/,"Mon, 20 Jan 2020 07:51:43 +0100","De juillet 2017 à septembre 2018, j&#039;avais rédigé sur ce blog une série de vingt cinq articles sur les intelligences managériales. Mon éditeur &quot; Jouvence &quot;, m&#039;a sollicité pour en faire un guide pratique destiné non seulement aux managers , mais à tous les publics. [...]"
LEXPRESS.fr - RSS Tout L'Entreprise,reseau,Carnet d'adresses: les réseaux de femmes entrepreneures qui comptent,https://lentreprise.lexpress.fr/outils-classements/annuaires/carnet-d-adresses-des-reseaux-de-femmes-entrepreneures_1523138.html,"Wed, 07 Mar 2012 18:59:00 +0100","Que ce soit pour rompre sa solitude de femme dirigeante ou pour trouver de nouveaux contacts, voici une sélection &quot;non exhaustive&quot; d&#039;adresses de réseaux 100% féminins."
FranceSoir - Articles de la rédaction,ecran,Écrans : comment accompagner les enfants dans leur usage et éviter les dangers ?,https://www.francesoir.fr/societe-sante/ecrans-comment-accompagner-les-enfants-dans-leur-usage-et-eviter-les-dangers,"Tue, 04 May 2021 17:59:31 +0200","Bien que de nombreuses études aient démontré leurs effets néfastes, les écrans sont omniprésents dans le quotidien des enfants. Comment accompagner leur usage de la télévision, de la tablette ou du smartphone afin de protéger leur santé&nbsp;? Quelques conseils à appliquer.
Des effets sur le...  - Lire la suite sur FranceSoir.fr 

  
          
            
                  <img alt="""" height=""739"" src=""https://www.francesoir.fr/sites/francesoir/files/images/2019/16fc5a2d9d67babdf190f2dc743b782ff39fb946_field_mise_en_avant_principale_3.jpg"" width=""1111"" />
                        
    
        
            
                  © TANG CHHIN Sothy / AFP/Archives - <a href=""https://www.francesoir.fr/societe-sante/ecrans-comment-accompagner-les-enfants-dans-leur-usage-et-eviter-les-dangers"">Écrans : comment accompagner les enfants dans leur usage et éviter les dangers ? </a>"
FranceSoir - Articles de la rédaction,amazon,Amazon officialise son implantation à Metz et promet 1.000 emplois sur trois ans,https://www.francesoir.fr/actualites-france/amazon-officialise-son-implantation-metz-et-promet-1000-emplois-sur-trois-ans,"Tue, 04 May 2021 08:53:10 +0200","Le géant américain de la vente en ligne Amazon a prévu d'ouvrir ""à l'été 2021"" un entrepôt de grande taille situé dans la métropole de Metz, et a promis mardi la création de 1.000 emplois en CDI dans les trois ans.
Le ""centre de distribution"", la terminologie d'Amazon pour désigner les entrepôts de...  - Lire la suite sur FranceSoir.fr 

  
          
            
                  <img alt="""" height=""1128"" src=""https://www.francesoir.fr/sites/francesoir/files/images/2019/325da19b769ffdc7329c0707ff864012d2b99500_field_mise_en_avant_principale.jpg"" width=""1111"" />
                        
    
        
            
                  © DENIS CHARLET / AFP/Archives - <a href=""https://www.francesoir.fr/actualites-france/amazon-officialise-son-implantation-metz-et-promet-1000-emplois-sur-trois-ans"">Amazon officialise son implantation à Metz et promet 1.000 emplois sur trois ans</a>"
FranceSoir - Articles de la rédaction,facebook,La nouvelle règle de confidentialité d’Apple inquiète Google et Facebook,https://www.francesoir.fr/societe-economie/la-nouvelle-regle-de-confidentialite-dapple-inquiete-google-et-facebook,"Mon, 03 May 2021 21:44:49 +0200","Dès ce lundi 3 mai, les propriétaires d’iPhone devront donner leur accord sur chaque application, concernant la collecte et le traçage de leurs données durant leur navigation. Un changement de paradigme qui ne plaît pas à Facebook, qui fonctionne justement sur ce système de publicités ciblées.
Des...  - Lire la suite sur FranceSoir.fr 

  
          
            
                  <img alt="""" height=""419"" src=""https://www.francesoir.fr/sites/francesoir/files/images/Part-GTY-495316169-1-1-2_field_mise_en_avant_principale_1_0.jpg"" width=""1049"" />
                        
    
        
            
                  © JUSTIN SULLIVAN / GETTY IMAGES NORTH AMERICA/AFP/Archives - <a href=""https://www.francesoir.fr/societe-economie/la-nouvelle-regle-de-confidentialite-dapple-inquiete-google-et-facebook"">La nouvelle règle de confidentialité d’Apple inquiète Google et Facebook</a>"
FranceSoir - Articles de la rédaction,google,La nouvelle règle de confidentialité d’Apple inquiète Google et Facebook,https://www.francesoir.fr/societe-economie/la-nouvelle-regle-de-confidentialite-dapple-inquiete-google-et-facebook,"Mon, 03 May 2021 21:44:49 +0200","Dès ce lundi 3 mai, les propriétaires d’iPhone devront donner leur accord sur chaque application, concernant la collecte et le traçage de leurs données durant leur navigation. Un changement de paradigme qui ne plaît pas à Facebook, qui fonctionne justement sur ce système de publicités ciblées.
Des...  - Lire la suite sur FranceSoir.fr 

  
          
            
                  <img alt="""" height=""419"" src=""https://www.francesoir.fr/sites/francesoir/files/images/Part-GTY-495316169-1-1-2_field_mise_en_avant_principale_1_0.jpg"" width=""1049"" />
                        
    
        
            
                  © JUSTIN SULLIVAN / GETTY IMAGES NORTH AMERICA/AFP/Archives - <a href=""https://www.francesoir.fr/societe-economie/la-nouvelle-regle-de-confidentialite-dapple-inquiete-google-et-facebook"">La nouvelle règle de confidentialité d’Apple inquiète Google et Facebook</a>"
FranceSoir - Articles de la rédaction,apple,La nouvelle règle de confidentialité d’Apple inquiète Google et Facebook,https://www.francesoir.fr/societe-economie/la-nouvelle-regle-de-confidentialite-dapple-inquiete-google-et-facebook,"Mon, 03 May 2021 21:44:49 +0200","Dès ce lundi 3 mai, les propriétaires d’iPhone devront donner leur accord sur chaque application, concernant la collecte et le traçage de leurs données durant leur navigation. Un changement de paradigme qui ne plaît pas à Facebook, qui fonctionne justement sur ce système de publicités ciblées.
Des...  - Lire la suite sur FranceSoir.fr 

  
          
            
                  <img alt="""" height=""419"" src=""https://www.francesoir.fr/sites/francesoir/files/images/Part-GTY-495316169-1-1-2_field_mise_en_avant_principale_1_0.jpg"" width=""1049"" />
                        
    
        
            
                  © JUSTIN SULLIVAN / GETTY IMAGES NORTH AMERICA/AFP/Archives - <a href=""https://www.francesoir.fr/societe-economie/la-nouvelle-regle-de-confidentialite-dapple-inquiete-google-et-facebook"">La nouvelle règle de confidentialité d’Apple inquiète Google et Facebook</a>"
FranceSoir - Articles de la rédaction,google,Heads Up : la nouvelle fonctionnalité de Google pour vous inciter à lever la tête dans la rue,https://www.francesoir.fr/societe-science-tech/heads-une-nouvelle-fonctionnalite-de-google-pour-vous-inciter-lever-la-tete-dans-la-rue,"Mon, 03 May 2021 15:11:32 +0200","Êtes-vous un smombie ? Contraction de « smartphone » et « zombie », ce mot-valise désigne un piéton ne décollant pas les yeux de son smartphone. Si cette posture est de plus en plus répandue, elle n’est pas sans danger : risque de collision entre piétons, rencontre hasardeuse avec un poteau ou pire...  - Lire la suite sur FranceSoir.fr 

  
          
            
                  <img alt="""" height=""444"" src=""https://www.francesoir.fr/sites/francesoir/files/jon-tyson-bp8tte8zqma-unsplash_field_mise_en_avant_principale_1_0.jpg"" width=""1110"" />
                        
    
        
            
                  Unsplash - <a href=""https://www.francesoir.fr/societe-science-tech/heads-une-nouvelle-fonctionnalite-de-google-pour-vous-inciter-lever-la-tete-dans-la-rue"">Heads Up : la nouvelle fonctionnalité de Google pour vous inciter à lever la tête dans la rue</a>"
FranceSoir - Articles de la rédaction,artificielle,Méduses : l'intelligence artificielle pour les anticiper,https://www.francesoir.fr/societe-science-tech/meduses-de-lintelligence-artificielle-pour-les-anticiper,"Sun, 02 May 2021 14:48:06 +0200","Il y a deux semaines, en plein mois d'avril, des méduses ont été répertoriées sur le littoral méditerranéen, surprenant les baigneurs courageux qui profitaient des premiers jours de beau temps. L'apparition de méduses se fait souvent de façon inattendue, et cette arrivée soudaine induit forcément...  - Lire la suite sur FranceSoir.fr 

  
          
            
                  <img alt="""" height=""443"" src=""https://www.francesoir.fr/sites/francesoir/files/joel-filipe-_ajqggafofe-unsplash_field_mise_en_avant_principale_1_0.jpg"" width=""1109"" />
                        
    
        
            
                  Unsplash - <a href=""https://www.francesoir.fr/societe-science-tech/meduses-de-lintelligence-artificielle-pour-les-anticiper"">Méduses : l&#039;intelligence artificielle pour les anticiper</a>"
FranceSoir - Articles de la rédaction,intelligence,Méduses : l'intelligence artificielle pour les anticiper,https://www.francesoir.fr/societe-science-tech/meduses-de-lintelligence-artificielle-pour-les-anticiper,"Sun, 02 May 2021 14:48:06 +0200","Il y a deux semaines, en plein mois d'avril, des méduses ont été répertoriées sur le littoral méditerranéen, surprenant les baigneurs courageux qui profitaient des premiers jours de beau temps. L'apparition de méduses se fait souvent de façon inattendue, et cette arrivée soudaine induit forcément...  - Lire la suite sur FranceSoir.fr 

  
          
            
                  <img alt="""" height=""443"" src=""https://www.francesoir.fr/sites/francesoir/files/joel-filipe-_ajqggafofe-unsplash_field_mise_en_avant_principale_1_0.jpg"" width=""1109"" />
                        
    
        
            
                  Unsplash - <a href=""https://www.francesoir.fr/societe-science-tech/meduses-de-lintelligence-artificielle-pour-les-anticiper"">Méduses : l&#039;intelligence artificielle pour les anticiper</a>"
