Le Monde.fr - Actualités et Infos en France et dans le monde,covid,"Dans New Delhi submergée par le Covid-19, les gens suffoquent et courent dans les rues en quête d’oxygène",https://www.lemonde.fr/international/article/2021/05/03/new-delhi-submergee-par-l-epidemie-de-covid-19-a-bascule-dans-un-monde-parallele_6078912_3210.html,"Mon, 03 May 2021 11:00:17 +0200",La ville de 20 millions d’habitants a basculé dans un monde parallèle. Les hôpitaux sont dépassés et les cendres des bûchers brûlant les corps des victimes de la pandémie s’infiltrent partout.
Le Monde.fr - Actualités et Infos en France et dans le monde,covid,Covid-19 : la Commission veut faire progressivement revenir les touristes en Europe,https://www.lemonde.fr/international/article/2021/05/03/covid-19-la-commission-veut-faire-progressivement-revenir-les-touristes-en-europe_6078963_3210.html,"Mon, 03 May 2021 20:17:05 +0200","Les pays les plus dépendants du tourisme, comme la Grèce, l’Espagne ou le Portugal, font pression pour que le continent s’ouvre plus qu’il ne l’est aujourd’hui. La France et l’Allemagne prônent la prudence."
Franceinfo - Les Titres,covid,Covid-19 : ce qu'il faut retenir du rapport du collectif citoyen sur la stratégie vaccinale du gouvernement,https://www.francetvinfo.fr/sante/maladie/coronavirus/vaccin/covid-19-ce-qu-il-faut-retenir-du-rapport-du-collectif-citoyen-sur-la-strategie-vaccinale-du-gouvernement_4605879.html#xtor=RSS-3-[lestitres],"Mon, 03 May 2021 15:06:42 +0200","Trente-et-un&nbsp;Français et Françaises tirés au sort ont rendu leurs recommandations à&nbsp;Alain Fischer, chargé de&nbsp;coordonner la campagne de vaccination en France.&nbsp;"
Franceinfo - Les Titres,covid,DIRECT. Covid-19 : le Danemark renonce à utiliser le vaccin Johnson & Johnson,https://www.francetvinfo.fr/sante/maladie/coronavirus/deconfinement/covid-19-collegiens-et-lyceens-font-leur-retour-en-classes_4609127.html#xtor=RSS-3-[lestitres],"Mon, 03 May 2021 20:58:16 +0200",Le pays avait été le premier d'Europe à abandonner l'utilisation du vaccin AstraZeneca en avril.
Franceinfo - Les Titres,covid,Covid-19 : des cadeaux pour inciter les Américains à se faire vacciner,https://www.francetvinfo.fr/sante/maladie/coronavirus/vaccin/etats-unis-des-cadeaux-pour-inciter-les-americains-a-se-faire-vacciner-contre-le-covid-19_4609795.html#xtor=RSS-3-[lestitres],"Mon, 03 May 2021 20:52:12 +0200","Aux&nbsp;États-Unis, 40% de la population a reçu ses deux doses de vaccin contre le Covid-19, mais 24% des Américains ne veulent pas se faire vacciner. Pour les convaincre, les autorités promettent des bons d'achat.&nbsp;"
Franceinfo - Les Titres,covid,Vaccins contre le Covid-19 : voici les réponses aux questions les plus fréquentes que vous vous posez,https://www.francetvinfo.fr/sante/maladie/coronavirus/vaccin/vaccins-contre-le-covid-19-voici-les-reponses-aux-41-questions-les-plus-frequentes-que-vous-vous-posez_4253025.html#xtor=RSS-3-[lestitres],"Fri, 23 Apr 2021 14:16:50 +0200","Franceinfo répond à vos questions sur les vaccins, dans le cadre de son opération #OnVousRépond."
Franceinfo - Les Titres,covid,"Covid-19 : un concert ""Vax Live"" en streaming le 8 mai, avec Jennifer Lopez, les Foo Fighters et le prince Harry",https://www.francetvinfo.fr/culture/musique/pop/covid-19-un-concert-vax-live-en-streaming-le-8-mai-avec-jennifer-lopez-les-foo-fighters-et-le-prince-harry_4609379.html#xtor=RSS-3-[lestitres],"Mon, 03 May 2021 17:36:35 +0200","Installé en Californie, le prince Harry s'est associé à des stars de la pop, du rock et du cinéma pour appeler à une vaccination mondiale plus rapide et généralisée contre le Covid-19, à l'occasion d'un concert caritatif organisé dimanche 2 mai à Los Angeles."
Franceinfo - Les Titres,covid,APPEL A TEMOIGNAGES. Covid-19 : vous avez été vacciné alors que vous ne faites pas partie des personnes prioritaires ? Racontez-nous,https://www.francetvinfo.fr/sante/maladie/coronavirus/vaccin/appel-a-temoignages-covid-19-vous-avez-ete-vaccine-alors-que-vous-ne-faites-pas-partie-des-personnes-prioritaires-racontez-nous_4609393.html#xtor=RSS-3-[lestitres],"Mon, 03 May 2021 15:34:29 +0200",Franceinfo souhaite recueillir les témoignages de personnes qui ont pu être vaccinées alors qu'elle n'entraient théoriquement pas dans les critères édictés par les autorités de santé et le gouvernement.
Franceinfo - Les Titres,covid,Covid-19 : l'Agence européenne des médicaments entame l'évaluation du vaccin de Pfizer-BioNTech pour les 12-15 ans,https://www.francetvinfo.fr/sante/maladie/coronavirus/covid-19-l-agence-europeenne-des-medicaments-entame-l-evaluation-du-vaccin-de-pfizer-biontech-pour-les-12-15-ans_4609553.html#xtor=RSS-3-[lestitres],"Mon, 03 May 2021 16:38:34 +0200","Si cette autorisation était accordée, elle s'appliquerait dans les 27 Etats membres de l'Union européenne."
Franceinfo - Les Titres,covid,Covid-19 : Bruxelles propose de permettre l'entrée dans l'UE aux voyageurs vaccinés venant de pays tiers,https://www.francetvinfo.fr/sante/maladie/coronavirus/bruxelles-propose-de-permettre-l-entree-dans-l-ue-aux-voyageurs-vaccines-venant-de-pays-tiers_4609413.html#xtor=RSS-3-[lestitres],"Mon, 03 May 2021 13:17:17 +0200",Les frontières de l'UE sont fermées depuis mars 2020 pour les voyages non-essentiels. La vaccination pourrait permettre de les réouvrir.
Franceinfo - Les Titres,covid,Covid-19 : le festival francilien We Love Green reporté à septembre,https://www.francetvinfo.fr/culture/musique/electro/covid-19-le-festival-francilien-we-love-green-reporte-a-septembre_4609559.html#xtor=RSS-3-[lestitres],"Mon, 03 May 2021 18:48:26 +0200","Initialement prévu début juin, l'événement musical se tiendra finalement le week-end du 10 au 12 septembre du fait de la crise sanitaire, ont annoncé les organisateurs lundi 3 mai."
Libération,covid,Le Blanc-Mesnil : combien de classes ont été fermées pour cause de Covid depuis la rentrée ?,https://www.liberation.fr/checknews/le-blanc-mesnil-combien-de-classes-ont-ete-fermees-pour-cause-de-covid-depuis-la-rentree-20210429_VHEWHDOC7NH3HP3FLKJSOWWWNI/,"Thu, 29 Apr 2021 15:57:47 +0000","Quelques jours seulement après la réouverture des écoles, lundi, sept classes ont déjà été fermées dans un établissement de la commune de Seine-Saint-Denis."
Libération,covid,Des vers microscopiques ont-ils vraiment été retrouvés dans des masques anti-Covid ?,https://www.liberation.fr/checknews/des-vers-microscopiques-ont-ils-vraiment-ete-retrouves-dans-des-masques-anti-covid-20210411_ZXSDN4ADCBCANJ2AFP2FF2NYZI/,"Sun, 11 Apr 2021 12:48:34 +0000","Sur les réseaux sociaux circulent plusieurs vidéos dont les auteurs assurent avoir identifié des «parasites» ou des «vers» en zoomant sur des masques anti-Covid. Il s’agit bien plus probablement de fibres textiles, estiment les spécialistes consultés par «CheckNews»."
Libération,covid,"La plateforme Covidliste, qui propose des doses de vaccins qui n’ont pas trouvé preneur, est-elle sérieuse ?",https://www.liberation.fr/checknews/la-plateforme-covidliste-qui-propose-des-doses-de-vaccins-qui-nont-pas-trouve-preneur-est-elle-serieuse-20210407_TUJKB5WL3RCRHDSC5SRWY3TBTM/,"Wed, 07 Apr 2021 13:47:04 +0000","Ce tout nouveau site de rencontre entre doses non utilisées et candidats au vaccin compte déjà 400 000 inscrits, une semaine après sa création. Certains internautes s’inquiètent cependant de la collecte de données personnelles."
Libération,covid,"Non, le patient de 47 ans en réa à cause du Covid filmé par RMC n’est pas un acteur",https://www.liberation.fr/checknews/non-le-patient-de-47-ans-en-rea-a-cause-du-covid-filme-par-rmc-nest-pas-un-acteur-20210322_7WR75TNSDVFLPECDDJUEEFB3CY/,"Mon, 22 Mar 2021 11:53:24 +0000",L’interview d’un homme en réanimation lors d’un reportage de RMC dans un hôpital de Seine-Saint-Denis a provoqué l’incrédulité chez certains internautes. Le direction de l’hôpital «regrette l’acharnement sur les réseaux sociaux contre ce patient».
Libération,covid,Est-il vrai que 40% des doses de vaccins contre le Covid n’ont pas été distribuées ?,https://www.liberation.fr/checknews/est-il-vrai-que-40-des-doses-de-vaccins-contre-le-covid-nont-pas-ete-distribuees-20210307_JGYHNTRIXVES3HKFEWS66GTJOA/,"Sun, 07 Mar 2021 09:48:58 +0000","Le Premier secrétaire du PS, Olivier Faure, s’étonne que près de la moitié des doses n’aient pas été distribuées."
Libération,covid,Vaccin : toutes les personnes infectées par le Covid-19 ne recevront-elles qu’une seule injection ?,https://www.liberation.fr/checknews/vaccin-toutes-les-personne-infectees-par-le-covid-19-ne-recevront-elles-quune-seule-une-injection-20210302_DE4BLLIMARAH7H5FU6QXX5UWZU/,"Tue, 02 Mar 2021 15:40:30 +0000",La Haute autorité de santé considère qu’un individu qui a déjà contracté le virus pourra se limiter à une seule dose.
Libération,covid,Traitement contre le Covid-19 : y a-t-il un conflit d’intérêt entre le labo Lilly et certains conseillers du gouvernement ?,https://www.liberation.fr/checknews/traitement-contre-le-covid-19-y-a-t-il-un-conflit-dinteret-entre-le-labo-lilly-et-certains-conseillers-du-gouvernement-20210302_2YJH2PU7XFHQNBBUS5YOYGPEAI/,"Tue, 02 Mar 2021 10:09:53 +0000","L’ANSM a octroyé une autorisation temporaire au laboratoire Lilly pour un traitement contre le Covid-19. Dans ce labo travaille l’épouse d’un député LREM, qui se trouve également être la mère de deux conseillers à l’Elysée et à Matignon."
Libération,covid,Covid-19 : comment se déroule la vaccination des étrangers en France ?,https://www.liberation.fr/checknews/2021/01/28/covid-19-comment-se-deroule-la-vaccination-des-etrangers-en-france_1818586/,"Thu, 28 Jan 2021 11:29:38 +0000",La possibilité de se faire vacciner ou non pour un étranger résidant en France dépend uniquement de son inclusion ou non dans les publics cibles.
Libération,covid,"Covid-19 en France : 54 000 morts supplémentaires en 2020, selon l'Insee",https://www.liberation.fr/checknews/2021/01/15/covid-19-en-france-54-000-morts-supplementaires-en-2020-selon-l-insee_1817700/,"Fri, 15 Jan 2021 16:13:09 +0000","L'excès de mortalité toutes causes confondues en 2020 est établi à 9% par rapport à 2019, selon l'institut de statistiques. Cette hausse concerne les plus de 65 ans."
Libération,covid,"Non, «Der Spiegel» n’a pas révélé que l’Allemagne a quatre fois moins de morts du Covid que la France grâce à l’hydroxychloroquine",https://www.liberation.fr/checknews/2020/12/29/non-der-spiegel-n-a-pas-revele-que-l-allemagne-a-quatre-fois-moins-de-morts-du-covid-que-la-france-g_1809890/,"Tue, 29 Dec 2020 16:46:57 +0000",Des sites défendant l'hydroxychloroquine pour lutter contre le Covid-19 inventent le fait que le magazine allemand aurait écrit que «l’Allemagne a quatre fois moins de décès du Covid qu’en France parce que les médecins ont prescrit massivement l’hydroxychloroquine» (lien signalé sur Facebook).
Libération,covid,"Covid-19 : les personnes vaccinées devront-elles continuer de se faire dépister, comme en Belgique ?",https://www.liberation.fr/checknews/2020/12/24/covid-19-les-personnes-vaccinees-devront-elles-continuer-de-se-faire-depister-comme-en-belgique_1809631/,"Thu, 24 Dec 2020 12:17:11 +0000","Outre-Quiévrain, les individus présentant des symptômes ou étant cas contacts devront se faire dépister, même si ils ont reçu le vaccin contre le Sars-CoV-2."
Libération,covid,Une compote de pomme peut-elle être testée positive au Covid-19 ?,https://www.liberation.fr/checknews/2020/12/15/une-compote-de-pomme-peut-elle-etre-testee-positive-au-covid-19_1808616/,"Tue, 15 Dec 2020 14:27:23 +0000","Une vidéo virale montre un test antigénique, censé réagir au Sars-CoV-2, afficher un résultat positif pour de la compote de pomme. Une réaction peu surprenante selon l'entreprise qui commercialise ce test, qui rappelle qu'il doit être utilisé dans les conditions d’un prélèvement nasal."
Libération,covid,"Non, les vaccins à ARN messager contre le Covid-19 ne feront pas de nous des OGM",https://www.liberation.fr/checknews/2020/12/09/non-les-vaccins-a-arn-messager-contre-le-covid-19-ne-feront-pas-de-nous-des-ogm_1808053/,"Wed, 09 Dec 2020 07:00:37 +0000",Divers commentateurs affirment que les vaccins anti-Covid développés par les sociétés Pfizer et Moderna représentent un risque pour l’intégrité de notre génome. Une crainte injustifiée.
Libération,covid,Covid-19 : des Länder allemands ont-ils commandé des congélateurs capables de transporter le vaccin «il y a plusieurs mois» ?,https://www.liberation.fr/checknews/2020/12/01/covid-19-des-lander-allemands-ont-ils-commande-des-congelateurs-capable-de-transporter-le-vaccin-il-_1807008/,"Tue, 01 Dec 2020 14:50:19 +0000",Le vidéaste Silvano Trotta utilise un reportage pour arguer que le Covid est une conspiration. Des Länder allemands auraient commandé des congélateurs pour la conservation des vaccins bien avant l'annonce de leurs développements. L'entreprise estime au contraire recevoir des demandes depuis quatre semaines (lien signalé par Facebook).
Libération,covid,Covid-19 : les Danois ont-ils obtenu le retrait d'une loi sur la «vaccination obligatoire» ?,https://www.liberation.fr/checknews/2020/11/24/covid-19-les-danois-ont-ils-obtenu-le-retrait-d-une-loi-sur-la-vaccination-obligatoire_1806454/,"Tue, 24 Nov 2020 10:19:13 +0000","La proposition préliminaire d'une loi sur les épidémies, au Danemark, a suscité de vives critiques. Le texte sera finalement entièrement repensé."
Libération,covid,Covid-19 : cinq questions sur l’utilisation du midazolam et du Rivotril dans les Ehpad,https://www.liberation.fr/checknews/2020/11/20/covid-19-cinq-questions-sur-l-utilisation-du-midazolam-et-du-rivotril-dans-les-ehpad_1805873/,"Fri, 20 Nov 2020 17:22:32 +0000","Le magazine de France 3 «Pièces à conviction» est revenu sur l’utilisation du midazolam et du Rivotril en soins palliatifs, relançant la polémique sur ces deux médicaments."
Libération,covid,"Covid-19 : Non, les supermarchés n'ont pas fermé en Espagne",https://www.liberation.fr/checknews/2020/11/15/covid-19-non-les-supermarches-n-ont-pas-ferme-en-espagne_1805191/,"Sun, 15 Nov 2020 09:17:00 +0000","Un message partagé des milliers de fois en ligne indique que l'Espagne a fermé les grandes surfaces, mais pas les petits commerces. C'est inexact (lien signalé sur Facebook)."
Libération,covid,Covid : une doctrine vaccinale à géométrie variable,https://www.liberation.fr/societe/sante/covid-une-doctrine-vaccinale-a-geometrie-variable-20210503_TPQFFOTSVZE6BBYKQAMEGCHIFY/,"Mon, 03 May 2021 10:25:10 +0000","Christian Lehmann est écrivain et médecin dans les Yvelines. Pour «Libération», il tient la chronique d’une société suspendue à l’évolution du coronavirus."
Libération,covid,Covid-19 : Plus de 5 600 malades en services de réanimation et 311 morts dans les dernières 24 heures,https://www.liberation.fr/societe/sante/en-direct-suivez-les-dernieres-informations-sur-lepidemie-de-covid-19-en-france-et-dans-le-monde-20210503_SBMSXU7YLVEHNBMCQ2AGJGZXTA/,"Mon, 03 May 2021 16:48:24 +0000","Vaccination, déconfinement, bilan épidémique, mutation du virus… Retrouvez les dernières informations sur la crise sanitaire liée à la pandémie de Covid-19."
Libération,covid,"Covid-19 : record de décès en 24 heures en Inde, malgré l’aide internationale",https://www.liberation.fr/societe/sante/covid-19-laide-medicale-francaise-arrive-en-inde-20210501_SOQ6VP5GLFENBNU6TISVNKWN3Y/,"Sun, 02 May 2021 11:36:00 +0000","Vaccination, reconfinement, bilan épidémique, mutation du virus… Retrouvez les dernières informations sur la crise sanitaire liée à la pandémie de Covid-19."
Libération,covid,Covid-19 : pourquoi nous devons tous payer l’addition,https://www.liberation.fr/idees-et-debats/tribunes/covid-19-pourquoi-nous-devons-tous-payer-laddition-20210430_OL6NDRUF3ZGWPDPFEUPQAIZVUE/,"Fri, 30 Apr 2021 08:00:00 +0000","Il ne suffit pas de «faire payer les ultra-riches», comme le répète la gauche, estime le directeur de l’Observatoire des inégalités Louis Maurin.  La justice sociale commande de mettre en place un impôt qui frappe tous les revenus à partir d’un seuil faible et qui augmente progressivement."
Libération,covid,Covid-19 : 100 millions de personnes entièrement vaccinées aux Etats-Unis,https://www.liberation.fr/societe/sante/en-direct-suivez-les-dernieres-informations-sur-lepidemie-de-covid-19-en-france-et-dans-le-monde-20210430_R2HST3W4RVGRTMWJCIOADYPYUQ/,"Fri, 30 Apr 2021 19:30:52 +0000","Vaccination, reconfinement, bilan épidémique, mutation du virus… Retrouvez les dernières informations sur la crise sanitaire liée à la pandémie de Covid-19."
Libération,covid,Le Blanc-Mesnil : combien de classes ont été fermées pour cause de Covid depuis la rentrée ?,https://www.liberation.fr/checknews/le-blanc-mesnil-combien-de-classes-ont-ete-fermees-pour-cause-de-covid-depuis-la-rentree-20210429_VHEWHDOC7NH3HP3FLKJSOWWWNI/,"Thu, 29 Apr 2021 15:57:47 +0000","Quelques jours seulement après la réouverture des écoles, lundi, sept classes ont déjà été fermées dans un établissement de la commune de Seine-Saint-Denis."
Le Figaro - Les dernières actualités à la une,covid,"Covid-19 : un peu partout dans le monde, les cimetières commencent à manquer de place",https://www.lefigaro.fr/international/covid-19-un-peu-partout-dans-le-monde-les-cimetieres-commencent-a-manquer-de-place-20210503,"Mon, 03 May 2021 20:38:28 +0200","La France n'échappe pas à ce phénomène. Avec plus de 100.000 décès depuis mars 2020, l'hexagone fait face à une demande sans précédent dans ses cimetières."
Le Figaro - Les dernières actualités à la une,covid,Covid-19: la piste d’une fuite de laboratoire resurgit,https://www.lefigaro.fr/sciences/covid-19-la-piste-d-une-fuite-de-laboratoire-resurgit-20210503,"Mon, 03 May 2021 20:27:56 +0200","RÉCIT - Des scientifiques demandent à la Chine de publier des données manquantes, afin d’éclaircir un faisceau d’indices troublants."
Le Point - En continu,covid,"Covid-19: retour en présentiel des collégiens et lycéens, début du déconfinement",https://www.lepoint.fr/societe/covid-19-retour-en-presentiel-des-collegiens-et-lyceens-debut-du-deconfinement-03-05-2021-2424609_23.php,"Mon, 03 May 2021 20:41:00 +0200","Une semaine apres la rentree des ecoliers, collegiens et lyceens ont retrouve eux aussi leurs salles de classe lundi, une journee marquee par la fin..."
Le Point - En continu,covid,"Covid-19 : plus de 5 600 malades en réanimation, un chiffre en hausse",https://www.lepoint.fr/sante/covid-19-plus-de-5-600-malades-en-reanimation-un-chiffre-en-hausse-03-05-2021-2424737_40.php,"Mon, 03 May 2021 19:01:00 +0200","Le total des patients Covid a l'hopital est egalement en legere hausse, a 28 950 avec 1 495 nouvelles hospitalisations dans les dernieres 24 heures."
Le Point - En continu,covid,Covid-19 : le Danemark renonce au vaccin Johnson & Johnson,https://www.lepoint.fr/sante/covid-19-le-danemark-renonce-au-vaccin-johnson-johnson-03-05-2021-2424701_40.php,"Mon, 03 May 2021 17:25:00 +0200","Le pays, qui a egalement abandonne le vaccin AstraZeneca, evoque de possibles effets secondaires graves, malgre le feu vert de l'AEM et de l'OMS."
Le Point - En continu,covid,Covid-19 : l’UE veut organiser le retour des touristes étrangers,https://www.lepoint.fr/monde/covid-19-l-ue-veut-organiser-le-retour-des-touristes-etrangers-03-05-2021-2424675_24.php,"Mon, 03 May 2021 14:53:00 +0200","Alors que certains pays comptent sur la periode estivale pour se relancer, la Commission espere parvenir a des mesures generalisees a toute l'Union."
Le Point - En continu,covid,"Faire pipi dehors en temps de Covid, un casse-tête à Paris",https://www.lepoint.fr/societe/faire-pipi-dehors-en-temps-de-covid-un-casse-tete-a-paris-03-05-2021-2424669_23.php,"Mon, 03 May 2021 14:01:00 +0200","""Il a fallu patienter 20 ou 30 minutes"". Depuis que les cafes et les restaurants ont ferme a Paris, Covid oblige, l'attente est souvent longue devant..."
Le Point - En continu,covid,Le Covid-19 fait les affaires des enseignes hard-discount,https://www.lepoint.fr/economie/le-covid-19-fait-les-affaires-des-enseignes-hard-discount-03-05-2021-2424598_28.php,"Mon, 03 May 2021 08:29:00 +0200","A l'image de Lidl et d'Aldi, le hard-discount a largement beneficie des effets de la pandemie, avec des chiffres d'affaires en nette hausse, explique << Le Monde >>."
Le Point - En continu,covid,"Covid-19 : collégiens et lycéens de retour, début du déconfinement",https://www.lepoint.fr/societe/covid-19-collegiens-et-lyceens-de-retour-debut-du-deconfinement-03-05-2021-2424604_23.php,"Mon, 03 May 2021 05:24:00 +0200","Avec le retour en presentiel des collegiens et des lyceens ainsi que la fin des restrictions de deplacement, ce lundi 3 mai marque une etape importante du deconfinement."
Le Point - En continu,covid,"Covid-19 : la nouvelle attestation disponible, la limite en journée levée",https://www.lepoint.fr/societe/covid-19-la-nouvelle-attestation-disponible-la-limite-en-journee-levee-02-05-2021-2424593_23.php,"Sun, 02 May 2021 21:43:00 +0200","Avec la levee, lundi, de la limite des 10 kilometres, l'attestation de deplacement ne sera plus necessaire entre 6 heures et 19 heures en France."
Le Point - En continu,covid,Covid-19: début du déconfinement lundi mais les Français doivent rester vigilants,https://www.lepoint.fr/societe/covid-19-debut-du-deconfinement-lundi-mais-les-francais-doivent-rester-vigilants-02-05-2021-2424554_23.php,"Sun, 02 May 2021 19:10:00 +0200",Fin des restrictions de deplacement et retour partiel des collegiens et lyceens en classe: les contraintes liees a l'epidemie de Covid-19 commencent...
Le Point - En continu,covid,"Après le Covid, une vie de bureau en miettes ?",https://www.lepoint.fr/societe/apres-le-covid-une-vie-de-bureau-en-miettes-01-05-2021-2424466_23.php,"Sun, 02 May 2021 18:49:00 +0200","INTERVIEW. Sarah Proust publie une etude sur les Francais et leur bureau. Apres l'euphorie du teletravail, l'heure des doutes a sonne."
Le Point - En continu,covid,"Covid: Attal appelle à la ""solidarité"" pour vacciner les personnes prioritaires",https://www.lepoint.fr/politique/covid-attal-appelle-a-la-solidarite-pour-vacciner-les-personnes-prioritaires-02-05-2021-2424563_20.php,"Sun, 02 May 2021 14:25:00 +0200","Le porte-parole du gouvernement, Gabriel Attal, a appele dimanche a la ""solidarite"" pour que les publics prioritaires soient vaccines les premiers..."
Le Point - En continu,covid,Covid-19 : ces milliers de morts que l’Inde ne compte pas,https://www.lepoint.fr/monde/covid-19-ces-milliers-de-morts-que-l-inde-ne-compte-pas-02-05-2021-2424529_24.php,"Sun, 02 May 2021 11:54:00 +0200","Experts et medias estiment que le nombre de morts et de cas de Covid-19 est largement sous-estime en Inde, en depit des chiffres records enregistres."
Le Point - En continu,covid,"Covid-19 : 400 000 cas en un jour, l’Inde ouvre la vaccination à tous",https://www.lepoint.fr/monde/covid-19-400-000-cas-en-un-jour-l-inde-ouvre-la-vaccination-a-tous-01-05-2021-2424506_24.php,"Sun, 02 May 2021 08:42:00 +0200","Victime d'une penurie de vaccins, l'Inde tente de juguler l'epidemie de Covid-19. Plus de 200 000 morts ont deja ete recenses dans le pays."
Le Point - En continu,covid,Chiffres du Covid-19 : la lente décrue se poursuit,https://www.lepoint.fr/societe/chiffres-du-covid-19-la-lente-decrue-se-poursuit-01-05-2021-2424509_23.php,"Sun, 02 May 2021 07:57:00 +0200","Le nombre de patients Covid-19 en reanimation continue de baisser en France, mais restait ce samedi a un niveau eleve avec 5 581 personnes en soins critiques."
Le Point - En continu,covid,1er-Mai syndical: des dizaines de milliers de manifestants retrouvent la rue malgré le Covid-19,https://www.lepoint.fr/societe/un-1er-mai-syndical-encore-sous-covid-19-mais-a-nouveau-dans-la-rue-01-05-2021-2424435_23.php,"Sat, 01 May 2021 23:03:00 +0200","Defense de l'emploi et des libertes: les syndicats ont retrouve la rue pour ce 1er-Mai, malgre le Covid-19, organisant des manifestations partout en..."
La Tribune,covid,Covid-19 : la France est-elle si mauvaise élève par rapport à l'Allemagne ?,https://www.latribune.fr/economie/union-europeenne/covid-19-la-france-est-elle-si-mauvaise-eleve-par-rapport-a-l-allemagne-883572.html,"Mon, 03 May 2021 15:53:00 +0200","FOCUS DATA. Avec encore 27.000 cas quotidiens de Covid détectés en France contre 20.000 en Allemagne, l'Hexagone baisse la tête. Le début de gestion de crise notamment a été plus calamiteux, toutefois, la France peut se féliciter de réaliser deux fois plus de tests que son voisin et d'avoir aujourd'hui un taux de positivité plus faible."
L'actualité par l'Humanite.fr,covid,Covid-19. Les maires sonnent l’alerte sur les finances des communes,https://www.humanite.fr/covid-19-les-maires-sonnent-lalerte-sur-les-finances-des-communes-705763#xtor=RSS-1,"Mon, 03 May 2021 18:03:18 +0000","<p>Selon une étude de l’Association des maires de France, les dépenses, conjuguées aux pertes de recettes, atteignent « environ 6 milliards d’euros ».</p>"
L'actualité par l'Humanite.fr,covid,"24 heures avec Sabrina, infirmière libérale, dévouée et oubliée de la lutte contre le Covid",https://www.humanite.fr/24-heures-avec-sabrina-infirmiere-liberale-devouee-et-oubliee-de-la-lutte-contre-le-covid-705648#xtor=RSS-1,"Mon, 03 May 2021 16:40:59 +0000","<p><em>« Après votre article, j’espère qu’elle touchera au moins 1 500 euros ! »</em> nous lance une patiente de Sabrina. Contrairement à leurs collègues à l’hôpital, les infirmières libérales n’ont pas touché de prime Covid. Elles jouent pourtant un rôle crucial sur les fronts du dépistage et de la vaccination contre la maladie. Reportage aux côtés d'une soignante officiant dans une petite commune alsacienne qui a dû adapter ses activités à la pandémie.</p>"
L'actualité par l'Humanite.fr,covid,Profits : heureux comme des Gafam en temps de Covid,https://www.humanite.fr/profits-heureux-comme-des-gafam-en-temps-de-covid-705660#xtor=RSS-1,"Mon, 03 May 2021 09:40:52 +0000","<p>Google, Apple, Facebook, Amazon et Microsoft affichent des profits record. Ils sont les grands gagnants des transformations numériques liées à la pandémie.</p>"
Les 50 derniers articles du journal La Croix,covid,Les essentiels sur la crise du Covid-19,https://www.la-croix.com/JournalV2/essentiels-crise-Covid-19-2021-05-04-1101153970,"Tue, 04 May 2021 06:00:00 GMT",
Les 50 derniers articles du journal La Croix,covid,"Covid-19 : se faire vacciner ou pas, le dilemme des femmes enceintes",https://www.la-croix.com/Sciences-et-ethique/faire-vacciner-pas-dilemme-femmes-enceintes-2021-05-03-1201153918,"Mon, 03 May 2021 18:12:27 GMT","Plus à risques de faire des formes graves du Covid, les futures mères figurent parmi les cibles prioritaires. Pourtant, beaucoup d’entre elles hésitent à sauter le pas."
Les 50 derniers articles du journal La Croix,covid,"Covid-19 : début du déconfinement, SNCF, évaluation de Pfizer pour les plus jeunes, Danemark, Roland-Garros… Le récap’ du 3 mai",https://www.la-croix.com/Sciences-et-ethique/Covid-19-debut-deconfinement-SNCF-evaluation-Pfizer-jeunes-Danemark-Roland-Garros-Le-recap-3-mai-2021-05-03-1201153922,"Mon, 03 May 2021 18:08:32 GMT","Ce lundi 3 mai marque la première étape du calendrier de déconfinement progressif souhaité par Emmanuel Macron. Dans les collèges et lycées, les élèves ont repris le chemin de l’école en présentiel. Côté transport, la SNCF relève son offre de trains après la levée des restrictions de déplacement."
LEXPRESS.fr - Rss A la Une,covid,"Covid-19: retour en présentiel des collégiens et lycéens, début du déconfinement",https://www.lexpress.fr/actualites/1/societe/covid-19-retour-en-presentiel-des-collegiens-et-lyceens-debut-du-deconfinement_2150041.html,"Mon, 03 May 2021 04:00:42 +0200","Paris - Une semaine après la rentrée des écoliers, collégiens et lycéens ont retrouvé eux aussi leurs salles de classe lundi, une journée marquée par la fin des restrictions de déplacement, première étape dans le déconfinement progressif du pays engagé par le gouvernement."
LEXPRESS.fr - Rss A la Une,covid,Covid-19 : les propositions du collectif de citoyens sur la vaccination,https://www.lexpress.fr/actualite/societe/covid-19-les-propositions-du-collectif-de-citoyens-sur-la-vaccination_2150103.html,"Mon, 03 May 2021 19:21:00 +0200",Le &quot;collectif citoyen&quot; mis en place par le Conseil économique social et environnemental insiste sur la nécessité d&#039;une communication claire autour des vaccins.
LEXPRESS.fr - Rss A la Une,covid,Covid-19 : pourquoi certains pays ne vaccinent toujours pas,https://www.lexpress.fr/actualite/societe/sante/covid-19-pourquoi-certains-pays-ne-vaccinent-toujours-pas_2150093.html,"Mon, 03 May 2021 17:16:00 +0200","Douze pays d&#039;Afrique, d&#039;Océanie, d&#039;Asie et des Caraïbes ne vaccinent pas encore contre le Covid-19. Certains dépendent du dispositif Covax."
LEXPRESS.fr - Rss A la Une,covid,"Faire pipi dehors en temps de Covid, un casse-tête à Paris",https://www.lexpress.fr/actualites/1/societe/faire-pipi-dehors-en-temps-de-covid-un-casse-tete-a-paris_2150074.html,"Mon, 03 May 2021 13:53:28 +0200","Paris - &quot;Il a fallu patienter 20 ou 30 minutes&quot;. Depuis que les cafés et les restaurants ont fermé à Paris, Covid oblige, l&#039;attente est souvent longue devant les toilettes publiques de la capitale, derniers repaires pour éviter de faire pipi dans les buissons."
LEXPRESS.fr - Rss A la Une,covid,"Enquête. Commerces : le Covid-19, une aubaine pour le crime organisé",https://lexpansion.lexpress.fr/actualite-economique/enquete-commerces-le-covid-19-une-aubaine-pour-le-crime-organise_2149788.html,"Mon, 03 May 2021 09:00:00 +0200","Les commerces fragilisés par la crise économique, en particulier ceux qui ne déclarent qu&#039;une partie de leur activité, constituent des proies pour les réseaux mafieux. Et pas seulement en Italie ou en Russie..."
LEXPRESS.fr - Rss A la Une,covid,Vaccins anti-Covid : bientôt un accord entre l'UE et le français Valneva ?,https://www.lexpress.fr/actualite/societe/sante/covid-19-le-vaccin-du-francais-valneva-sera-t-il-le-prochain-homologue-par-l-ue_2150066.html,"Mon, 03 May 2021 11:57:00 +0200","Si son vaccin contre le Covid-19 est encore en étude clinique de phase 3, une dizaine de pays européens seraient intéressés par une commande auprès du laboratoire français."
LEXPRESS.fr - Rss A la Une,covid,"Souffler pour se faire dépister : quatre questions sur CovidAir, le test expérimenté à Lyon",https://www.lexpress.fr/actualite/societe/sante/souffler-pour-se-faire-depister-quatre-questions-sur-covidair-le-test-experimente-a-lyon_2150058.html,"Mon, 03 May 2021 10:44:01 +0200","L&#039;étude clinique en cours à Lyon a déjà fait participer 3000 personnes. Si l&#039;expérimentation est menée jusqu&#039;au bout, la technologie pourrait accélérer le dépistage."
LEXPRESS.fr - Rss A la Une,covid,Covid-19 : comment l'oxygène français vient en aide à l'Inde,https://www.lexpress.fr/actualite/monde/asie/covid-19-comment-l-oxygene-francais-vient-en-aide-a-l-inde_2150044.html,"Mon, 03 May 2021 06:59:00 +0200",L&#039;inde est en cruel manque de moyens hospitaliers pour faire face à l&#039;épidémie de Covid-19 qui s&#039;est largement accélérée dans le pays ces dernières semaines. La France a notamment envoyé de l&#039;oxygène.
L'Obs - A la une,covid,Le nombre de malades du Covid-19 en réanimation passe à nouveau au-dessus des 5 600,https://www.nouvelobs.com/coronavirus-de-wuhan/20210503.OBS43600/le-nombre-de-malades-du-covid-19-en-reanimation-passe-a-nouveau-au-dessus-des-5-600.html,"Mon, 03 May 2021 20:18:29 +0200","Les services de soins critiques (qui rassemblent réanimation, soins intensifs et surveillance continue) comptaient 5&nbsp;630 patients ce lundi contre 5&nbsp;585 dimanche."
Le fil info Actu de Paris-Match,covid,"Covid-19 et baccalauréat : Blanquer ""ouvert"" à des ""aménagements"" supplémentaires",https://www.parismatch.com/Actu/Politique/Covid-19-et-baccalaureat-Blanquer-ouvert-a-des-amenagements-supplementaires-1736592,"Mon, 03 May 2021 20:10:45 +0200","Le ministre de l'Education a indiqué qu'il restait ""ouvert"" à de nouveaux ""aménagements"" pour la session 2021 du baccalauréat."
Le fil info Actu de Paris-Match,covid,"Covid-19 : Castex assure que ""le virus circule très peu"" à l'école",https://www.parismatch.com/Actu/Politique/Covid-19-Castex-assure-que-le-virus-circule-tres-peu-a-l-ecole-1736556,"Mon, 03 May 2021 16:44:47 +0200","Jean Castex et Jean-Michel Blanquer étaient lundi matin à Laxou, dans un lycée, pour marquer la rentrée des lycées,"
Le fil info Actu de Paris-Match,covid,"Covid-19 : A Liverpool, des milliers de fêtards ont participé à un festival test",https://www.parismatch.com/Actu/International/Covid-19-A-Liverpool-des-milliers-de-fetards-ont-participe-a-un-festival-test-1736527,"Mon, 03 May 2021 11:05:00 +0200","Près de 5 000 personnes dansant les unes contre les autres ont été photographiées dimanche à Liverpool, en Angleterre, lors d'un festival test or..."
Flux d'actualité Marianne.net,covid,"VIH, Cancer, Staphylocoque… La recherche non-Covid largement freinée par l’épidémie",https://www.marianne.net/societe/sciences-et-bioethique/vih-cancer-staphylocoque-la-recherche-non-covid-largement-freinee-par-lepidemie#utm_source=RSS-MARIANNE&utm_medium=Flux-Rss&utm_campaign=RSS_general,"Mon, 03 May 2021 19:23:03 GMT","Depuis un peu plus d’un an, des centaines d’études ont été lancées en France concernant de le SARS-COV-2. Parfois au détriment d’autres thèmes de recherches."
Flux d'actualité Marianne.net,covid,"Covid-19 : après AstraZeneca, le Danemark renonce au vaccin Johnson & Johnson",https://www.marianne.net/societe/sante/covid-19-apres-astrazeneca-le-danemark-renonce-au-vaccin-johnson-and-johnson#utm_source=RSS-MARIANNE&utm_medium=Flux-Rss&utm_campaign=RSS_general,"Mon, 03 May 2021 16:55:56 GMT","En raison de risques de thromboses, le Danemark a annoncé ce 3 mai qu’il n’utilisera pas le vaccin Johnson & Johnson pour son programme d'immunisation. Il va rejoindre celui d'Astrazeneca, déjà mis au ban pour les mêmes raisons."
Liste,covid,"Attention à cette vidéo sur la grippe, utilisée dans le but de minimiser la pandémie de Covid-19",https://factuel.afp.com/attention-cette-video-sur-la-grippe-utilisee-dans-le-de-minimiser-la-pandemie-de-covid-19,"Thu, 29 Apr 2021 18:37:00 +0200","Une publication partagée près de 10.000 fois depuis début mars reprend un reportage daté de 2015 et compare les décès dus à la grippe, particulièrement virulente cette année-là, avec des chiffres de 2021. Si la vidéo de 2015 ne parle que de la grippe saisonnière, le montage partagé tend à minimiser la gravité de la pandémie de Covid-19 en induisant une comparaison trompeuse qui s’appuie en outre sur des chiffres erronés."
Courrier international - Actualités France et Monde,covid,"Malgré le Covid-19, Poutine autorise les Russes à aller au musée ou dans leur datcha",https://www.courrierinternational.com/article/parenthese-malgre-le-covid-19-poutine-autorise-les-russes-aller-au-musee-ou-dans-leur-datcha,"Mon, 03 May 2021 15:55:33 +0200","La semaine du 3 mai a été décrétée entièrement fériée. Contrairement à la situation en mai 2020, la liberté de mouvement est entière cette année, et les Russes vont pouvoir en profiter, qu’ils restent en ville ou partent à la campagne. Les nouvelles du front sanitaire ne portent pourtant pas à l’optimisme."
Courrier international - Actualités France et Monde,covid,Les policiers américains rechignent à se faire vacciner contre le Covid-19,https://www.courrierinternational.com/article/etats-unis-les-policiers-americains-rechignent-se-faire-vacciner-contre-le-covid-19,"Mon, 03 May 2021 12:50:53 +0200","Bien que prioritaires pour se faire vacciner, le pourcentage de policiers ayant reçu au moins une dose de vaccin est plus faible que celui de la population générale."
Courrier international - Actualités France et Monde,covid,Covid-19 : que risque-t-on vraiment lorsque l’on prend l’avion ?,https://www.courrierinternational.com/article/modelisation-covid-19-que-risque-t-vraiment-lorsque-lon-prend-lavion,"Sat, 01 May 2021 14:47:36 +0200","Alors que les vols et le tourisme reprennent aux États-Unis, <em>The New York Times </em>a représenté ce qui se produit lorsqu’une personne portant un masque éternue à bord d’un Boeing."
Courrier international - Actualités France et Monde,covid,Le Covid-19 a bouleversé le travail des diplomates,https://www.courrierinternational.com/article/numerique-le-covid-19-bouleverse-le-travail-des-diplomates,"Fri, 30 Apr 2021 18:14:26 +0200","Forcés de travailler à distance en raison de la pandémie, les diplomates ont ont dû adopter des outils technologiques pour mener à bien rencontres et sommets. Pour cet hebdomadaire britannique, ces nouvelles pratiques devraient s’installer durablement, à côté des anciens usages, et transformer les négociations internationales."
Courrier international - Actualités France et Monde,covid,Le Covid-19 a fait plus de 400 000 morts au Brésil,https://www.courrierinternational.com/article/pandemie-le-covid-19-fait-plus-de-400-000-morts-au-bresil,"Fri, 30 Apr 2021 13:58:43 +0200","Le géant sud-américain continue d’enregistrer plus de 2 000 morts par jour. Selon la presse brésilienne, le Covid-19 est à l’origine d’un décès sur cinq dans le pays depuis un an."
Courrier international - Actualités France et Monde,covid,Le Kazakhstan produit et utilise désormais son propre vaccin contre le Covid-19,https://www.courrierinternational.com/revue-de-presse/qazvac-le-kazakhstan-produit-et-utilise-desormais-son-propre-vaccin-contre-le-covid,"Fri, 30 Apr 2021 11:34:10 +0200","Le Kazakhstan, qui utilisait jusqu’à présent le vaccin russe Spoutnik V, a commencé à distribuer son propre vaccin contre le Covid-19, baptisé QazVac. Le pays d’Asie centrale prévoit de produire entre 500 000 et 600 000 doses par mois."
Courrier international - Actualités France et Monde,covid,Un temple indien crée un “drive-in” d’oxygène pour les patients Covid-19,https://www.courrierinternational.com/article/video-un-temple-indien-cree-un-drive-doxygene-pour-les-patients-covid-19,"Fri, 30 Apr 2021 09:31:46 +0200","Un temple sikh a mis en place un service gratuit qui permet aux patients atteints de formes graves du Covid-19 de recevoir une aide respiratoire dans leur voiture. En Inde, où les hôpitaux sont saturés, les familles démunies racontent n’avoir <em>“nulle part où aller”</em>."
Courrier international - Actualités France et Monde,covid,Quels effets secondaires peut-on éprouver après un vaccin contre le Covid-19  ?,https://www.courrierinternational.com/video/video-quels-effets-secondaires-peut-eprouver-apres-un-vaccin-contre-le-covid-19,"Thu, 29 Apr 2021 12:43:10 +0200","À mesure que les campagnes de vaccination s’accélèrent, de plus en plus de personnes s’interrogent sur les effets secondaires que l’on peut ressentir après un vaccin contre le Covid-19. Dans cette vidéo traduite et sous-titrée par <em>Courrier international</em>, le <em>Wall Street Journal </em>liste avec une infectiologue les symptômes les plus courants."
Courrier international - Actualités France et Monde,covid,"Rio rouvre ses plages, au risque d’une troisième vague de Covid-19",https://www.courrierinternational.com/revue-de-presse/bresil-rio-rouvre-ses-plages-au-risque-dune-troisieme-vague-de-covid-19,"Thu, 29 Apr 2021 10:35:10 +0200","Les indicateurs épidémiques commencent tout juste à s’améliorer au Brésil, mais plusieurs régions assouplissent d’ores et déjà les restrictions sanitaires, tandis que la vaccination connaît d’importants retards."
FranceSoir - Articles de la rédaction,covid,"Covid-19: retour en présentiel des collégiens et lycéens, début du déconfinement",https://www.francesoir.fr/actualites-france/covid-19-retour-en-presentiel-des-collegiens-et-lyceens-debut-du-deconfinement,"Mon, 03 May 2021 00:24:13 +0200","Une semaine après la rentrée des écoliers, collégiens et lycéens ont retrouvé eux aussi leurs salles de classe lundi, une journée marquée par la fin des restrictions de déplacement, première étape dans le déconfinement progressif du pays engagé par le gouvernement.
Après deux semaines d'...  - Lire la suite sur FranceSoir.fr 

  
          
            
                  <img alt="""" height=""765"" src=""https://www.francesoir.fr/sites/francesoir/files/images/2019/5dd6b80f31147047747f8218aefb9659c6cf861d_field_mise_en_avant_principale.jpg"" width=""1111"" />
                        
    
        
            
                  © Thomas SAMSON
 / AFP - <a href=""https://www.francesoir.fr/actualites-france/covid-19-retour-en-presentiel-des-collegiens-et-lyceens-debut-du-deconfinement"">Covid-19: retour en présentiel des collégiens et lycéens, début du déconfinement</a>"
FranceSoir - Articles de la rédaction,covid,Brésil : le ministre de la Santé considère la chloroquine et l'ivermectine dans le protocole médicamenteux contre Covid-19,https://www.francesoir.fr/societe-sante-politique-monde/bresil-le-ministre-de-la-sante-considere-la-chloroquine-et,"Sun, 02 May 2021 21:11:42 +0200","Le Diario Do Nordeste, journal au Brésil fait état que que :
« Le ministre de la Santé, Marcelo Queiroga, a annoncé qu’il lancera prochainement un protocole de médicaments à utiliser dans le traitement contre Covid-19. »

Ce guide, qui devrait guider les agents de santé, a, comme médicaments...  - Lire la suite sur FranceSoir.fr 

  
          
            
                  <img alt="""" height=""444"" src=""https://www.francesoir.fr/sites/francesoir/files/bresil00_field_mise_en_avant_principale_1_0.jpg"" width=""1111"" />
                        
    
        
            
                  FranceSoir - <a href=""https://www.francesoir.fr/societe-sante-politique-monde/bresil-le-ministre-de-la-sante-considere-la-chloroquine-et"">Brésil : le ministre de la Santé considère la chloroquine et l&#039;ivermectine dans le protocole médicamenteux contre Covid-19</a>"
FranceSoir - Articles de la rédaction,covid,Covid-19: début du déconfinement lundi mais les Français doivent rester vigilants,https://www.francesoir.fr/actualites-france/covid-19-debut-du-deconfinement-lundi-mais-les-francais-doivent-rester-vigilants,"Sun, 02 May 2021 12:17:54 +0200","Fin des restrictions de déplacement et retour partiel des collégiens et lycéens en classe: les contraintes liées à l'épidémie de Covid-19 commencent à se desserrer lundi, sur fond de lente décrue des hospitalisations, mais le corps médical appelle les Français à ne pas relâcher leur comportement....  - Lire la suite sur FranceSoir.fr 

  
          
            
                  <img alt="""" height=""742"" src=""https://www.francesoir.fr/sites/francesoir/files/images/2019/5c4ea5e29851c5b47a68599aaa385a7843656341_field_mise_en_avant_principale.jpg"" width=""1111"" />
                        
    
        
            
                  © Valery HACHE / AFP - <a href=""https://www.francesoir.fr/actualites-france/covid-19-debut-du-deconfinement-lundi-mais-les-francais-doivent-rester-vigilants"">Covid-19: début du déconfinement lundi mais les Français doivent rester vigilants</a>"
FranceSoir - Articles de la rédaction,covid,"Covid: Attal appelle à la ""solidarité"" pour vacciner les personnes prioritaires",https://www.francesoir.fr/actualites-france/covid-attal-appelle-la-solidarite-pour-vacciner-les-personnes-prioritaires,"Sun, 02 May 2021 12:16:26 +0200","Le porte-parole du gouvernement, Gabriel Attal, a appelé dimanche à la ""solidarité"" pour que les publics prioritaires soient vaccinés les premiers contre le Covid-19, fustigeant des collectivités ayant élargi la vaccination.
""La France est limitée par le nombre de doses qu'elle reçoit"" et la ""...  - Lire la suite sur FranceSoir.fr 

  
          
            
                  <img alt="""" height=""740"" src=""https://www.francesoir.fr/sites/francesoir/files/images/2019/a7872c1d9532d90d7c1eca0e378809da9ee7997f_field_mise_en_avant_principale_1.jpg"" width=""1111"" />
                        
    
        
            
                  © Ludovic MARIN / AFP/Archives - <a href=""https://www.francesoir.fr/actualites-france/covid-attal-appelle-la-solidarite-pour-vacciner-les-personnes-prioritaires"">Covid: Attal appelle à la ""solidarité"" pour vacciner les personnes prioritaires</a>"
FranceSoir - Articles de la rédaction,covid,"Faire pipi dehors en temps de Covid, un casse-tête à Paris",https://www.francesoir.fr/actualites-france/faire-pipi-dehors-en-temps-de-covid-un-casse-tete-paris,"Sat, 01 May 2021 23:34:46 +0200","""Il a fallu patienter 20 ou 30 minutes"". Depuis que les cafés et les restaurants ont fermé à Paris, Covid oblige, l'attente est souvent longue devant les toilettes publiques de la capitale, derniers repaires pour éviter de faire pipi dans les buissons. 
""C'est super compliqué, surtout quand on est...  - Lire la suite sur FranceSoir.fr 

  
          
            
                  <img alt="""" height=""740"" src=""https://www.francesoir.fr/sites/francesoir/files/images/2019/036d45893671ec6f995a066e6689e4f7a21f533e_field_mise_en_avant_principale.jpg"" width=""1111"" />
                        
    
        
            
                  © JACQUES DEMARTHON / AFP/Archives - <a href=""https://www.francesoir.fr/actualites-france/faire-pipi-dehors-en-temps-de-covid-un-casse-tete-paris"">Faire pipi dehors en temps de Covid, un casse-tête à Paris</a>"
FranceSoir - Articles de la rédaction,covid,Covid-19: cinquième jour de décrue dans les services de réanimation,https://www.francesoir.fr/actualites-france/covid-19-cinquieme-jour-de-decrue-dans-les-services-de-reanimation,"Sat, 01 May 2021 18:41:18 +0200","Le nombre de malades du Covid-19 dans les services de réanimation a poursuivi sa décrue samedi, pour le cinquième jour consécutif, avec moins de 5.600 patients enregistrés, selon les chiffres de Santé publique France.
Les services de soins critiques (qui rassemblent réanimation, soins intensifs et...  - Lire la suite sur FranceSoir.fr 

  
          
            
                  <img alt="""" height=""740"" src=""https://www.francesoir.fr/sites/francesoir/files/images/2019/85e0d45a7347a046b8e686a8682d38f8caecc579_field_mise_en_avant_principale_1.jpg"" width=""1111"" />
                        
    
        
            
                  © SEBASTIEN BOZON / AFP - <a href=""https://www.francesoir.fr/actualites-france/covid-19-cinquieme-jour-de-decrue-dans-les-services-de-reanimation"">Covid-19: cinquième jour de décrue dans les services de réanimation</a>"
FranceSoir - Articles de la rédaction,covid,Courbes meurtrières et modélisations de l’enfer : les chiffres tuent plus que le Covid,https://www.francesoir.fr/opinions-tribunes/courbes-meurtrieres-et-modelisations-de-lenfer-les-chiffres-tuent-plus-que-le-covid,"Sat, 01 May 2021 16:00:09 +0200","À tout seigneur tout honneur, et il serait bien insolent de nier la suzeraineté du britannique Neil Ferguson dans l’art de la prédiction qui tue. Coutumier du fait, l’épidémiologiste s’illustre dès 2005 en prédisant jusqu'à 150 millions morts de la grippe aviaire dans le monde. Mauvais calcul, 282...  - Lire la suite sur FranceSoir.fr 

  
          
            
                  <img alt="""" height=""444"" src=""https://www.francesoir.fr/sites/francesoir/files/courbes_0_field_mise_en_avant_principale_1_0_0.jpg"" width=""1111"" />
                        
    
        
            
                  FranceSoir/Stock.Adobe - <a href=""https://www.francesoir.fr/opinions-tribunes/courbes-meurtrieres-et-modelisations-de-lenfer-les-chiffres-tuent-plus-que-le-covid"">Courbes meurtrières et modélisations de l’enfer : les chiffres tuent plus que le Covid</a>"
FranceSoir - Articles de la rédaction,covid,1er-Mai syndical: des dizaines de milliers de manifestants retrouvent la rue malgré le Covid-19,https://www.francesoir.fr/actualites-france/un-1er-mai-syndical-encore-sous-covid-19-mais-nouveau-dans-la-rue,"Sat, 01 May 2021 01:00:58 +0200","Défense de l'emploi et des libertés: les syndicats ont retrouvé la rue pour ce 1er-Mai, malgré le Covid-19, organisant des manifestations partout en France dont certaines émaillées d'incidents comme à Paris.
Les cortèges ont rassemblé samedi plus de 170.000 manifestants, selon la CGT, dont 25.000 à...  - Lire la suite sur FranceSoir.fr 

  
          
            
                  <img alt="""" height=""740"" src=""https://www.francesoir.fr/sites/francesoir/files/images/2019/2a6e0bb42fa93ff135ffa72e05ed015c41a4da18_field_mise_en_avant_principale.jpg"" width=""1111"" />
                        
    
        
            
                  © Martin BUREAU / AFP - <a href=""https://www.francesoir.fr/actualites-france/un-1er-mai-syndical-encore-sous-covid-19-mais-nouveau-dans-la-rue"">1er-Mai syndical: des dizaines de milliers de manifestants retrouvent la rue malgré le Covid-19</a>"
FranceSoir - Articles de la rédaction,covid,Covid-19: le gouvernement français veut vacciner plus pour rouvrir mieux,https://www.francesoir.fr/actualites-france/covid-19-le-gouvernement-veut-vacciner-plus-pour-rouvrir-mieux,"Fri, 30 Apr 2021 12:38:35 +0200","Tous les Français de plus de 18 ans pourront se faire vacciner contre le Covid-19 à partir du 15 juin, a annoncé Emmanuel Macron vendredi, après avoir dévoilé la veille le calendrier de la levée progressive des mesures de restriction.
""Vous avez 18 ans ou plus: rendez-vous le 15 juin pour vous...  - Lire la suite sur FranceSoir.fr 

  
          
            
                  <img alt="""" height=""740"" src=""https://www.francesoir.fr/sites/francesoir/files/images/2019/904979a3ed4af1081a26d72ffbf9d509d358b0f8_field_mise_en_avant_principale.jpg"" width=""1111"" />
                        
    
        
            
                  © Pascal GUYOT / AFP/Archives - <a href=""https://www.francesoir.fr/actualites-france/covid-19-le-gouvernement-veut-vacciner-plus-pour-rouvrir-mieux"">Covid-19: le gouvernement français veut vacciner plus pour rouvrir mieux</a>"
FranceSoir - Articles de la rédaction,covid,Inde : ivermectine et hydroxychloroquine dans les recommandations révisées pour les cas Covid légers/asymptomatiques,https://www.francesoir.fr/societe-sante/inde-ivermectine-et-hydroxychloroquine-dans-les-lignes-directrices,"Fri, 30 Apr 2021 11:44:05 +0200","Dans un contexte sanitaire délicat, avec l’augmentation importante du nombre de cas de Covid-19 dans certains États en Inde, le ministère de la Santé indien a mis à jour ses lignes directrices le 28 avril 2021, pour le traitement des cas légers ou asymptomatiques. Nous reproduisons ci-après le...  - Lire la suite sur FranceSoir.fr 

  
          
            
                  <img alt="""" height=""427"" src=""https://www.francesoir.fr/sites/francesoir/files/inde_hcq_ivermectine_0_field_mise_en_avant_principale_1_0.png"" width=""1067"" />
                        
    
        
            
                  FS - <a href=""https://www.francesoir.fr/societe-sante/inde-ivermectine-et-hydroxychloroquine-dans-les-lignes-directrices"">Inde : ivermectine et hydroxychloroquine dans les recommandations révisées pour les cas Covid légers/asymptomatiques</a>"
FranceSoir - Articles de la rédaction,covid,"Covid: vaccination élargie samedi à 4 millions de personnes ""fragiles""",https://www.francesoir.fr/actualites-france/covid-vaccination-elargie-samedi-4-millions-de-personnes-fragiles,"Fri, 30 Apr 2021 09:11:50 +0200","Le ministre de la Santé, Olivier Véran, a indiqué vendredi que la vaccination contre le Covid-19 serait élargie ""à partir de samedi"" à tous les Français majeurs ""fragiles"", parmi lesquels les personnes obèses mais aussi celles souffrant d'hypertension, de diabète, d'insuffisance rénale ou cardiaque...  - Lire la suite sur FranceSoir.fr 

  
          
            
                  <img alt="""" height=""740"" src=""https://www.francesoir.fr/sites/francesoir/files/images/2019/a817355b95a5854cf66498121adb45416d095f43_field_mise_en_avant_principale_1.jpg"" width=""1111"" />
                        
    
        
            
                  © GEOFFROY VAN DER HASSELT / AFP/Archives - <a href=""https://www.francesoir.fr/actualites-france/covid-vaccination-elargie-samedi-4-millions-de-personnes-fragiles"">Covid: vaccination élargie samedi à 4 millions de personnes ""fragiles""</a>"
FranceSoir - Articles de la rédaction,covid,"Pauvreté et covid : mauvaise alimentation et stress parental, des facteurs aggravants",https://www.francesoir.fr/societe-economie/une-mauvaise-alimentation-et-le-stress-parental-aggravent-la-pauvrete-des-enfants,"Thu, 29 Apr 2021 17:52:05 +0200","Alors qu’il y a deux ans 2,9 millions d’enfants (soit 21 %), vivaient sous le seuil de pauvreté, la pauvreté infantile est dans une phase d’aggravation en raison de la pandémie de coronavirus. Outre le facteur économique, des facteurs comme le contexte émotionnel ou l'alimentation de l'enfant...  - Lire la suite sur FranceSoir.fr 

  
          
            
                  <img alt="""" height=""444"" src=""https://www.francesoir.fr/sites/francesoir/files/addy-mae-kc4q51odpjk-unsplash_field_mise_en_avant_principale_1_0.jpg"" width=""1110"" />
                        
    
        
            
                  Unsplash - <a href=""https://www.francesoir.fr/societe-economie/une-mauvaise-alimentation-et-le-stress-parental-aggravent-la-pauvrete-des-enfants"">Pauvreté et covid : mauvaise alimentation et stress parental, des facteurs aggravants</a>"
FranceSoir - Articles de la rédaction,covid,"Covid-19: Macron dévoile un déconfinement en quatre étapes, premier cas de variant indien",https://www.francesoir.fr/actualites-france/covid-19-les-francais-fatigues-dattendre,"Thu, 29 Apr 2021 12:29:20 +0200","Terrasses, salles de sport, couvre-feu... Emmanuel Macron a dévoilé jeudi un calendrier du déconfinement ""en quatre étapes"", qui devrait s'accélérer entre le 19 mai et le 30 juin, malgré une situation sanitaire fragile.
Cette communication a été faite quelques heures avant l'annonce, par l'ARS de...  - Lire la suite sur FranceSoir.fr 

  
          
            
                  <img alt="""" height=""741"" src=""https://www.francesoir.fr/sites/francesoir/files/images/2019/d5088fbd91e46ef38b0b2a03f17263e6820e99e1_field_mise_en_avant_principale.jpg"" width=""1111"" />
                        
    
        
            
                  © Pascal POCHARD-CASABIANCA / AFP - <a href=""https://www.francesoir.fr/actualites-france/covid-19-les-francais-fatigues-dattendre"">Covid-19: Macron dévoile un déconfinement en quatre étapes, premier cas de variant indien</a>"
FranceSoir - Articles de la rédaction,covid,"Covid: plus de 700 personnes en quarantaine contrôlées, 62 verbalisations",https://www.francesoir.fr/actualites-france/covid-plus-de-700-personnes-en-quarantaine-controlees-62-verbalisations,"Thu, 29 Apr 2021 11:04:50 +0200","Un total de 708 personnes ont été contrôlées et 62 verbalisées depuis l'entrée en vigueur de la quarantaine pour tous les voyageurs revenant de cinq pays à risques, face à la menace des nouveaux variants du Covid-19, a appris jeudi l'AFP auprès du ministère de l'Intérieur.
Depuis samedi, tous les...  - Lire la suite sur FranceSoir.fr 

  
          
            
                  <img alt="""" height=""718"" src=""https://www.francesoir.fr/sites/francesoir/files/images/2019/d4bc4b132d3d2ea7abd3f08386c192c0ae1d12ec_field_mise_en_avant_principale_3.jpg"" width=""1111"" />
                        
    
        
            
                  © ERIC PIERMONT / AFP/Archives - <a href=""https://www.francesoir.fr/actualites-france/covid-plus-de-700-personnes-en-quarantaine-controlees-62-verbalisations"">Covid: plus de 700 personnes en quarantaine contrôlées, 62 verbalisations </a>"
