Le Monde.fr - Actualités et Infos en France et dans le monde,covid,"Au Mexique, le gouvernement accusé de minimiser « l’hécatombe » provoquée par la pandémie de Covid-19",https://www.lemonde.fr/international/article/2021/05/04/au-mexique-le-gouvernement-accuse-de-minimiser-la-mortalite-due-au-covid-19_6079100_3210.html,"Tue, 04 May 2021 18:44:27 +0200","Des experts calculent que le nombre de morts pourrait atteindre en réalité un demi-million, plus de deux fois plus que le chiffre officiel."
Le Monde.fr - Actualités et Infos en France et dans le monde,covid,Covid-19 : visualisez l’évolution de l’épidémie en France et dans le monde,https://www.lemonde.fr/les-decodeurs/article/2020/05/05/coronavirus-age-mortalite-departements-pays-suivez-l-evolution-de-l-epidemie-en-cartes-et-graphiques_6038751_4355770.html,"Tue, 05 May 2020 18:07:51 +0200","La situation sanitaire en France et à l’étranger, synthétisée par « Le Monde » en cartes et en graphiques et actualisée chaque jour."
Franceinfo - Les Titres,covid,DIRECT. Covid-19 : un quart des Européens ont reçu au moins une dose de vaccin,https://www.francetvinfo.fr/sante/maladie/coronavirus/vaccin/direct-covid-19-l-inde-a-depasse-les-20-millions-de-cas-confirmes-plus-de-220-000-morts-ont-ete-recenses_4610317.html#xtor=RSS-3-[lestitres],"Tue, 04 May 2021 18:51:44 +0200",Plus de 9% des habitants de l'Union européenne sont désormais entièrement vaccinés contre le Covid-19.
Libération,covid,Le Blanc-Mesnil : combien de classes ont été fermées pour cause de Covid depuis la rentrée ?,https://www.liberation.fr/checknews/le-blanc-mesnil-combien-de-classes-ont-ete-fermees-pour-cause-de-covid-depuis-la-rentree-20210429_VHEWHDOC7NH3HP3FLKJSOWWWNI/,"Thu, 29 Apr 2021 15:57:47 +0000","Quelques jours seulement après la réouverture des écoles, lundi, sept classes ont déjà été fermées dans un établissement de la commune de Seine-Saint-Denis."
Libération,covid,Des vers microscopiques ont-ils vraiment été retrouvés dans des masques anti-Covid ?,https://www.liberation.fr/checknews/des-vers-microscopiques-ont-ils-vraiment-ete-retrouves-dans-des-masques-anti-covid-20210411_ZXSDN4ADCBCANJ2AFP2FF2NYZI/,"Sun, 11 Apr 2021 12:48:34 +0000","Sur les réseaux sociaux circulent plusieurs vidéos dont les auteurs assurent avoir identifié des «parasites» ou des «vers» en zoomant sur des masques anti-Covid. Il s’agit bien plus probablement de fibres textiles, estiment les spécialistes consultés par «CheckNews»."
Libération,covid,"La plateforme Covidliste, qui propose des doses de vaccins qui n’ont pas trouvé preneur, est-elle sérieuse ?",https://www.liberation.fr/checknews/la-plateforme-covidliste-qui-propose-des-doses-de-vaccins-qui-nont-pas-trouve-preneur-est-elle-serieuse-20210407_TUJKB5WL3RCRHDSC5SRWY3TBTM/,"Wed, 07 Apr 2021 13:47:04 +0000","Ce tout nouveau site de rencontre entre doses non utilisées et candidats au vaccin compte déjà 400 000 inscrits, une semaine après sa création. Certains internautes s’inquiètent cependant de la collecte de données personnelles."
Libération,covid,"Non, le patient de 47 ans en réa à cause du Covid filmé par RMC n’est pas un acteur",https://www.liberation.fr/checknews/non-le-patient-de-47-ans-en-rea-a-cause-du-covid-filme-par-rmc-nest-pas-un-acteur-20210322_7WR75TNSDVFLPECDDJUEEFB3CY/,"Mon, 22 Mar 2021 11:53:24 +0000",L’interview d’un homme en réanimation lors d’un reportage de RMC dans un hôpital de Seine-Saint-Denis a provoqué l’incrédulité chez certains internautes. Le direction de l’hôpital «regrette l’acharnement sur les réseaux sociaux contre ce patient».
Libération,covid,Est-il vrai que 40% des doses de vaccins contre le Covid n’ont pas été distribuées ?,https://www.liberation.fr/checknews/est-il-vrai-que-40-des-doses-de-vaccins-contre-le-covid-nont-pas-ete-distribuees-20210307_JGYHNTRIXVES3HKFEWS66GTJOA/,"Sun, 07 Mar 2021 09:48:58 +0000","Le Premier secrétaire du PS, Olivier Faure, s’étonne que près de la moitié des doses n’aient pas été distribuées."
Libération,covid,Vaccin : toutes les personnes infectées par le Covid-19 ne recevront-elles qu’une seule injection ?,https://www.liberation.fr/checknews/vaccin-toutes-les-personne-infectees-par-le-covid-19-ne-recevront-elles-quune-seule-une-injection-20210302_DE4BLLIMARAH7H5FU6QXX5UWZU/,"Tue, 02 Mar 2021 15:40:30 +0000",La Haute autorité de santé considère qu’un individu qui a déjà contracté le virus pourra se limiter à une seule dose.
Libération,covid,Traitement contre le Covid-19 : y a-t-il un conflit d’intérêt entre le labo Lilly et certains conseillers du gouvernement ?,https://www.liberation.fr/checknews/traitement-contre-le-covid-19-y-a-t-il-un-conflit-dinteret-entre-le-labo-lilly-et-certains-conseillers-du-gouvernement-20210302_2YJH2PU7XFHQNBBUS5YOYGPEAI/,"Tue, 02 Mar 2021 10:09:53 +0000","L’ANSM a octroyé une autorisation temporaire au laboratoire Lilly pour un traitement contre le Covid-19. Dans ce labo travaille l’épouse d’un député LREM, qui se trouve également être la mère de deux conseillers à l’Elysée et à Matignon."
Libération,covid,Covid-19 : comment se déroule la vaccination des étrangers en France ?,https://www.liberation.fr/checknews/2021/01/28/covid-19-comment-se-deroule-la-vaccination-des-etrangers-en-france_1818586/,"Thu, 28 Jan 2021 11:29:38 +0000",La possibilité de se faire vacciner ou non pour un étranger résidant en France dépend uniquement de son inclusion ou non dans les publics cibles.
Libération,covid,"Covid-19 en France : 54 000 morts supplémentaires en 2020, selon l'Insee",https://www.liberation.fr/checknews/2021/01/15/covid-19-en-france-54-000-morts-supplementaires-en-2020-selon-l-insee_1817700/,"Fri, 15 Jan 2021 16:13:09 +0000","L'excès de mortalité toutes causes confondues en 2020 est établi à 9% par rapport à 2019, selon l'institut de statistiques. Cette hausse concerne les plus de 65 ans."
Libération,covid,"Non, «Der Spiegel» n’a pas révélé que l’Allemagne a quatre fois moins de morts du Covid que la France grâce à l’hydroxychloroquine",https://www.liberation.fr/checknews/2020/12/29/non-der-spiegel-n-a-pas-revele-que-l-allemagne-a-quatre-fois-moins-de-morts-du-covid-que-la-france-g_1809890/,"Tue, 29 Dec 2020 16:46:57 +0000",Des sites défendant l'hydroxychloroquine pour lutter contre le Covid-19 inventent le fait que le magazine allemand aurait écrit que «l’Allemagne a quatre fois moins de décès du Covid qu’en France parce que les médecins ont prescrit massivement l’hydroxychloroquine» (lien signalé sur Facebook).
Libération,covid,"Covid-19 : les personnes vaccinées devront-elles continuer de se faire dépister, comme en Belgique ?",https://www.liberation.fr/checknews/2020/12/24/covid-19-les-personnes-vaccinees-devront-elles-continuer-de-se-faire-depister-comme-en-belgique_1809631/,"Thu, 24 Dec 2020 12:17:11 +0000","Outre-Quiévrain, les individus présentant des symptômes ou étant cas contacts devront se faire dépister, même si ils ont reçu le vaccin contre le Sars-CoV-2."
Libération,covid,Une compote de pomme peut-elle être testée positive au Covid-19 ?,https://www.liberation.fr/checknews/2020/12/15/une-compote-de-pomme-peut-elle-etre-testee-positive-au-covid-19_1808616/,"Tue, 15 Dec 2020 14:27:23 +0000","Une vidéo virale montre un test antigénique, censé réagir au Sars-CoV-2, afficher un résultat positif pour de la compote de pomme. Une réaction peu surprenante selon l'entreprise qui commercialise ce test, qui rappelle qu'il doit être utilisé dans les conditions d’un prélèvement nasal."
Libération,covid,"Non, les vaccins à ARN messager contre le Covid-19 ne feront pas de nous des OGM",https://www.liberation.fr/checknews/2020/12/09/non-les-vaccins-a-arn-messager-contre-le-covid-19-ne-feront-pas-de-nous-des-ogm_1808053/,"Wed, 09 Dec 2020 07:00:37 +0000",Divers commentateurs affirment que les vaccins anti-Covid développés par les sociétés Pfizer et Moderna représentent un risque pour l’intégrité de notre génome. Une crainte injustifiée.
Libération,covid,Covid-19 : des Länder allemands ont-ils commandé des congélateurs capables de transporter le vaccin «il y a plusieurs mois» ?,https://www.liberation.fr/checknews/2020/12/01/covid-19-des-lander-allemands-ont-ils-commande-des-congelateurs-capable-de-transporter-le-vaccin-il-_1807008/,"Tue, 01 Dec 2020 14:50:19 +0000",Le vidéaste Silvano Trotta utilise un reportage pour arguer que le Covid est une conspiration. Des Länder allemands auraient commandé des congélateurs pour la conservation des vaccins bien avant l'annonce de leurs développements. L'entreprise estime au contraire recevoir des demandes depuis quatre semaines (lien signalé par Facebook).
Libération,covid,Covid-19 : les Danois ont-ils obtenu le retrait d'une loi sur la «vaccination obligatoire» ?,https://www.liberation.fr/checknews/2020/11/24/covid-19-les-danois-ont-ils-obtenu-le-retrait-d-une-loi-sur-la-vaccination-obligatoire_1806454/,"Tue, 24 Nov 2020 10:19:13 +0000","La proposition préliminaire d'une loi sur les épidémies, au Danemark, a suscité de vives critiques. Le texte sera finalement entièrement repensé."
Libération,covid,Covid-19 : cinq questions sur l’utilisation du midazolam et du Rivotril dans les Ehpad,https://www.liberation.fr/checknews/2020/11/20/covid-19-cinq-questions-sur-l-utilisation-du-midazolam-et-du-rivotril-dans-les-ehpad_1805873/,"Fri, 20 Nov 2020 17:22:32 +0000","Le magazine de France 3 «Pièces à conviction» est revenu sur l’utilisation du midazolam et du Rivotril en soins palliatifs, relançant la polémique sur ces deux médicaments."
Libération,covid,"Covid-19 : pour la Défenseure des droits, «le droit à la vie privée et familiale a été grandement entravé» dans les Ehpad",https://www.liberation.fr/societe/sante/covid-19-pour-la-defenseure-des-droits-le-droit-a-la-vie-privee-et-familiale-a-ete-grandement-entrave-dans-les-ehpad-20210504_5CQWVSNXYVFK3EO746VIMVKRAI/,"Tue, 04 May 2021 12:10:04 +0000","Dans un rapport publié ce mardi, Claire Hédon fait le bilan des restrictions, encore plus importantes que dans le reste de la société. Des restrictions qui entraînent une très grande souffrance chez un grand nombre de résidents."
Libération,covid,Covid-19 : Le nombre de patients à l’hôpital et dans les services de réanimation en baisse en France,https://www.liberation.fr/societe/sante/covid-19-suivez-les-dernieres-informations-sur-lepidemie-en-france-et-dans-le-monde-20210504_E5O5V5PHIJB4JMNKOOSNRVDLS4/,"Tue, 04 May 2021 18:46:38 +0000","Vaccination, déconfinement, bilan épidémique, mutation du virus… Retrouvez les dernières informations sur la crise sanitaire liée à la pandémie de Covid-19."
Libération,covid,Covid : une doctrine vaccinale à géométrie variable,https://www.liberation.fr/societe/sante/covid-une-doctrine-vaccinale-a-geometrie-variable-20210503_TPQFFOTSVZE6BBYKQAMEGCHIFY/,"Mon, 03 May 2021 10:25:10 +0000","Christian Lehmann est écrivain et médecin dans les Yvelines. Pour «Libération», il tient la chronique d’une société suspendue à l’évolution du coronavirus."
Libération,covid,Covid-19 : Plus de 5 600 malades en services de réanimation et 311 morts dans les dernières 24 heures,https://www.liberation.fr/societe/sante/en-direct-suivez-les-dernieres-informations-sur-lepidemie-de-covid-19-en-france-et-dans-le-monde-20210503_SBMSXU7YLVEHNBMCQ2AGJGZXTA/,"Mon, 03 May 2021 16:48:24 +0000","Vaccination, déconfinement, bilan épidémique, mutation du virus… Retrouvez les dernières informations sur la crise sanitaire liée à la pandémie de Covid-19."
Libération,covid,"Covid-19 : record de décès en 24 heures en Inde, malgré l’aide internationale",https://www.liberation.fr/societe/sante/covid-19-laide-medicale-francaise-arrive-en-inde-20210501_SOQ6VP5GLFENBNU6TISVNKWN3Y/,"Sun, 02 May 2021 11:36:00 +0000","Vaccination, reconfinement, bilan épidémique, mutation du virus… Retrouvez les dernières informations sur la crise sanitaire liée à la pandémie de Covid-19."
Le Point - En continu,covid,"Covid-19: Véran défend l'ouverture de la vaccination, les indicateurs s'améliorent",https://www.lepoint.fr/societe/covid-19-veran-defend-l-ouverture-de-la-vaccination-les-indicateurs-s-ameliorent-04-05-2021-2424877_23.php,"Tue, 04 May 2021 20:46:00 +0200","Une vaccination ouverte a tous sans le dire ? Le ministre de la Sante, Olivier Veran, a justifie mardi, au nom du ""bon sens"", l'ouverture aux..."
Le Point - En continu,covid,Covid-19 : bientôt une appli pour se protéger en fonction de la météo,https://www.lepoint.fr/sante/covid-19-bientot-une-appli-pour-se-proteger-en-fonction-de-la-meteo-04-05-2021-2425061_40.php,"Tue, 04 May 2021 19:53:00 +0200","L'application MyPredict previendra ses utilisateurs quand les conditions meteorologiques seront favorables a la propagation du virus, detaille BFMTV."
Le Point - En continu,covid,"Covid-19: les droits des résidents d'Ehpad ""grandement entravés"", juge la Défenseure des droits",https://www.lepoint.fr/societe/covid-19-les-droits-des-residents-d-ehpad-grandement-entraves-juge-la-defenseure-des-droits-04-05-2021-2425052_23.php,"Tue, 04 May 2021 18:55:00 +0200","Le droit a une ""vie privee et familiale"" a ete plus entrave au cours de la crise sanitaire pour les residents d'Ehpad que pour le reste de la..."
Le Point - En continu,covid,Covid-19 : les droits des résidents d’Ehpad « grandement entravés » ?,https://www.lepoint.fr/societe/covid-19-les-droits-des-residents-d-ehpad-grandement-entraves-04-05-2021-2424795_23.php,"Tue, 04 May 2021 09:15:00 +0200","Depistage sans consentement, maintien de restrictions de sorties... La Defenseure des droits tire la sonnette d'alarme face au manque de liberte des seniors."
Le Point - En continu,covid,Covid-19 : l’Inde franchit la barre des 20 millions de cas,https://www.lepoint.fr/sante/covid-19-l-inde-franchit-la-barre-des-20-millions-de-cas-04-05-2021-2424782_40.php,"Tue, 04 May 2021 07:02:00 +0200","Le pays aux hopitaux satures, toujours en proie a la pandemie de Covid-19, deplore plus de 222 000 morts depuis le debut de la crise sanitaire."
Le Point - En continu,covid,Covid-19 : près de la moitié des Français ne sont pas partis en vacances depuis mars 2020,https://www.lepoint.fr/societe/covid-pres-de-la-moitie-des-francais-ne-sont-pas-parties-en-vacances-depuis-mars-2020--04-05-2021-2424764_23.php,"Tue, 04 May 2021 06:19:00 +0200","Comme le rapporte << Sud-Ouest >>, 44 % des Francais ne sont pas partis en vacances depuis le premier confinement et 61 % estiment << vivre enfermes >>."
Le Point - En continu,covid,"Covid-19: retour en présentiel des collégiens et lycéens, début du déconfinement",https://www.lepoint.fr/societe/covid-19-retour-en-presentiel-des-collegiens-et-lyceens-debut-du-deconfinement-03-05-2021-2424609_23.php,"Mon, 03 May 2021 20:41:00 +0200","Une semaine apres la rentree des ecoliers, collegiens et lyceens ont retrouve eux aussi leurs salles de classe lundi, une journee marquee par la fin..."
Le Point - En continu,covid,"Covid-19 : plus de 5 600 malades en réanimation, un chiffre en hausse",https://www.lepoint.fr/sante/covid-19-plus-de-5-600-malades-en-reanimation-un-chiffre-en-hausse-03-05-2021-2424737_40.php,"Mon, 03 May 2021 19:01:00 +0200","Le total des patients Covid a l'hopital est egalement en legere hausse, a 28 950 avec 1 495 nouvelles hospitalisations dans les dernieres 24 heures."
Le Point - En continu,covid,Covid-19 : le Danemark renonce au vaccin Johnson & Johnson,https://www.lepoint.fr/sante/covid-19-le-danemark-renonce-au-vaccin-johnson-johnson-03-05-2021-2424701_40.php,"Mon, 03 May 2021 17:25:00 +0200","Le pays, qui a egalement abandonne le vaccin AstraZeneca, evoque de possibles effets secondaires graves, malgre le feu vert de l'AEM et de l'OMS."
Le Point - En continu,covid,Covid-19 : l’UE veut organiser le retour des touristes étrangers,https://www.lepoint.fr/monde/covid-19-l-ue-veut-organiser-le-retour-des-touristes-etrangers-03-05-2021-2424675_24.php,"Mon, 03 May 2021 14:53:00 +0200","Alors que certains pays comptent sur la periode estivale pour se relancer, la Commission espere parvenir a des mesures generalisees a toute l'Union."
Le Point - En continu,covid,"Faire pipi dehors en temps de Covid, un casse-tête à Paris",https://www.lepoint.fr/societe/faire-pipi-dehors-en-temps-de-covid-un-casse-tete-a-paris-03-05-2021-2424669_23.php,"Mon, 03 May 2021 14:01:00 +0200","""Il a fallu patienter 20 ou 30 minutes"". Depuis que les cafes et les restaurants ont ferme a Paris, Covid oblige, l'attente est souvent longue devant..."
Le Point - En continu,covid,Le Covid-19 fait les affaires des enseignes hard-discount,https://www.lepoint.fr/economie/le-covid-19-fait-les-affaires-des-enseignes-hard-discount-03-05-2021-2424598_28.php,"Mon, 03 May 2021 08:29:00 +0200","A l'image de Lidl et d'Aldi, le hard-discount a largement beneficie des effets de la pandemie, avec des chiffres d'affaires en nette hausse, explique << Le Monde >>."
Le Point - En continu,covid,"Covid-19 : collégiens et lycéens de retour, début du déconfinement",https://www.lepoint.fr/societe/covid-19-collegiens-et-lyceens-de-retour-debut-du-deconfinement-03-05-2021-2424604_23.php,"Mon, 03 May 2021 05:24:00 +0200","Avec le retour en presentiel des collegiens et des lyceens ainsi que la fin des restrictions de deplacement, ce lundi 3 mai marque une etape importante du deconfinement."
Le Point - En continu,covid,"Covid-19 : la nouvelle attestation disponible, la limite en journée levée",https://www.lepoint.fr/societe/covid-19-la-nouvelle-attestation-disponible-la-limite-en-journee-levee-02-05-2021-2424593_23.php,"Sun, 02 May 2021 21:43:00 +0200","Avec la levee, lundi, de la limite des 10 kilometres, l'attestation de deplacement ne sera plus necessaire entre 6 heures et 19 heures en France."
La Tribune,covid,"Covid-19 en 24h : pass sanitaire, projets de recrutement, impôts argentins...",https://www.latribune.fr/economie/france/covid-19-en-24h-pass-sanitaire-projets-de-recrutement-impots-argentins-883920.html,"Tue, 04 May 2021 18:15:00 +0200","Alors qu'Emmanuel Macron a dévoilé les grandes étapes du déconfinement la semaine dernière, la sortie de crise se profile doucement en France. Le pass sanitaire, sous conditions, pourrait faciliter le « retour à la vie normale » selon le Conseil Scientifique, et les projets de recrutement pour 2021 sont « encourageants »... Voici le graphique et les informations éclairantes de ces dernières 24 heures à suivre sur l'actualité Covid, en France et dans le monde."
L'actualité par l'Humanite.fr,covid,"Covid-19. Au Cambodge, les meurt-de-faim soignés au gourdin",https://www.humanite.fr/covid-19-au-cambodge-les-meurt-de-faim-soignes-au-gourdin-705863#xtor=RSS-1,"Tue, 04 May 2021 17:20:59 +0000",<p>Vingt jours de confinement auront suffi à affamer ouvriers et travailleurs du secteur informel. Le premier ministre profite de la pandémie pour renforcer son pouvoir. Une personne enfreignant les règles encourt jusqu’à vingt ans de prison.</p>
L'actualité par l'Humanite.fr,covid,Covid-19. Les maires sonnent l’alerte sur les finances des communes,https://www.humanite.fr/covid-19-les-maires-sonnent-lalerte-sur-les-finances-des-communes-705763#xtor=RSS-1,"Tue, 04 May 2021 10:55:06 +0000","<p>Selon une étude de l’Association des maires de France, les dépenses, conjuguées aux pertes de recettes, atteignent « environ 6 milliards d’euros ».</p>"
Les 50 derniers articles du journal La Croix,covid,Les essentiels sur la crise du Covid-19,https://www.la-croix.com/JournalV2/essentiels-crise-Covid-19-2021-05-05-1101154146,"Wed, 05 May 2021 06:00:00 GMT",
Les 50 derniers articles du journal La Croix,covid,"Covid-19 : « pass sanitaire », fenêtres ouvertes, forfait psy fin mai, Allemagne… Le récap’ du 4 mai",https://www.la-croix.com/Sciences-et-ethique/Covid-19-pass-sanitaire-fenetres-ouvertes-forfait-psy-fin-mai-Allemagne-Le-recap-4-mai-2021-05-04-1201154104,"Tue, 04 May 2021 16:46:40 GMT","Le conseil scientifique recommande en France l’utilisation d’un « pass sanitaire » pour permettre un « retour à la vie normale en minimisant les risques de contamination par le virus SARS-CoV-2 ». Au Danemark, la réouverture se poursuit notamment grâce à l’utilisation d’un « coronapas »."
LEXPRESS.fr - Rss A la Une,covid,"Covid-19: Véran défend l'ouverture de la vaccination, les indicateurs s'améliorent",https://www.lexpress.fr/actualites/1/societe/covid-19-veran-defend-l-ouverture-de-la-vaccination-les-indicateurs-s-ameliorent_2150146.html,"Tue, 04 May 2021 16:24:30 +0200","Paris - Une vaccination ouverte à tous sans le dire ? Le ministre de la Santé, Olivier Véran, a justifié mardi, au nom du &quot;bon sens&quot;, l&#039;ouverture aux injections pour tous les adultes sur simple déclaration d&#039;une maladie chronique, au moment où les indicateurs de l&#039;épidémie de Covid-19 s&#039;améliorent."
LEXPRESS.fr - Rss A la Une,covid,"Covid-19: les droits des résidents d'Ehpad ""grandement entravés"", juge la Défenseure des droits",https://www.lexpress.fr/actualites/1/societe/covid-19-les-droits-des-residents-d-ehpad-grandement-entraves-juge-la-defenseure-des-droits_2150168.html,"Tue, 04 May 2021 18:54:15 +0200","Paris - Le droit à une &quot;vie privée et familiale&quot; a été plus entravé au cours de la crise sanitaire pour les résidents d&#039;Ehpad que pour le reste de la population, dénonce mardi la Défenseure des droits dans un rapport qui formule une soixantaine de recommandations pour garantir leur &quot;liberté&quot;."
LEXPRESS.fr - Rss A la Une,covid,Covid-19 : quatre questions sur le vaccin chinois Sinovac examiné par l'Union européenne,https://www.lexpress.fr/actualite/societe/sante/covid-19-quatre-questions-sur-le-vaccin-chinois-sinovac-examine-par-l-union-europeenne_2150165.html,"Tue, 04 May 2021 17:49:00 +0200",L&#039;Agence européenne du médicament a annoncé le lancement d&#039;un examen continu du vaccin chinois.
LEXPRESS.fr - Rss A la Une,covid,"Détecter le virus par le souffle : CovidAir, un nouveau système prometteur",https://www.lexpress.fr/actualite/sciences/detecter-le-virus-par-le-souffle-covidair-un-nouveau-systeme-prometteur_2150135.html,"Tue, 04 May 2021 11:00:00 +0200","Comme un éthylotest, une nouvelle méthode pour détecter le Covid-19 grâce aux molécules présentes dans l&#039;air expiré est actuellement testée à Lyon."
L'Obs - A la une,covid,"« Cluster », « quatorzaine »… : l’édition 2022 du Petit Larousse contaminée par le Covid",https://www.nouvelobs.com/societe/20210504.OBS43636/cluster-quatorzaine-l-edition-2022-du-petit-larousse-contaminee-par-le-covid.html,"Tue, 04 May 2021 17:27:59 +0200","170 nouveaux mots font leur entrée dans le Petit Larousse 2022. Très influencée par la pandémie, cette édition intègre aussi son lot d’anglicismes ou des mots plus légers comme «&nbsp;émoji&nbsp;» et «&nbsp;nounounière&nbsp;»."
Le fil info Actu de Paris-Match,covid,Covid : le chaos indien,https://www.parismatch.com/Actu/Sante/Covid-le-chaos-indien-1736514,"Tue, 04 May 2021 07:00:00 +0200","La bonbonne d’oxygène, une denrée devenue en quelques semaines le bien le plus recherché du pays. La pénurie gagne même les grands centres hosp..."
Le fil info Actu de Paris-Match,covid,"Covid-19 et baccalauréat : Blanquer ""ouvert"" à des ""aménagements"" supplémentaires",https://www.parismatch.com/Actu/Politique/Covid-19-et-baccalaureat-Blanquer-ouvert-a-des-amenagements-supplementaires-1736592,"Mon, 03 May 2021 20:10:45 +0200","Le ministre de l'Education a indiqué qu'il restait ""ouvert"" à de nouveaux ""aménagements"" pour la session 2021 du baccalauréat."
Liste,covid,Attention à ces publications trompeuses sur les vaccins anti-Covid et le don du sang,https://factuel.afp.com/attention-ces-publications-trompeuses-sur-les-vaccins-anti-covid-et-le-don-du-sang,"Tue, 04 May 2021 16:25:00 +0200","Des publications virales sur Facebook soutiennent que la Croix-Rouge japonaise a demandé aux personnes vaccinées contre le Covid-19 de ne plus donner leur sang et affirment par ailleurs que la Chine a appelé à ""suspendre la vaccination Pfizer"", laissant entendre que ces injections seraient néfastes pour la santé. En réalité, la Croix-Rouge nipponne a seulement suspendu quelques semaines ces dons du sang et les acceptera à nouveau à partir de la mi-mai, selon les documents officiels consultés par l'AFP. Pékin n'a par ailleurs pas demandé la suspension d'un vaccin qui n'est pas autorisé sur son territoire."
Liste,covid,"Cette vidéo de lits vides au Brésil a été tournée dans un service hospitalier épargné ""momentanément"" par le Covid-19",https://factuel.afp.com/cette-video-de-lits-vides-au-bresil-ete-tournee-dans-un-service-hospitalier-epargne-momentanement,"Tue, 04 May 2021 10:10:00 +0200","Une vidéo montrant des personnels de santé chantant devant des lits d'hôpitaux vides, partagée des dizaines de milliers de fois depuis la mi-avril, prétend révéler la ""vérité"" cachée derrière les conséquences de l'épidémie de Covid-19 au Brésil. Cette affirmation est trompeuse. L'extrait montre une aile de l'hôpital de la ville de Joao Pessao, qui avait bien en charge 70 patients contaminés par le virus au moment du tournage, dans d'autres services. Le taux d'occupation des lits de soins intensifs était alors de 93% dans cette ville du nord-est du pays."
Courrier international - Actualités France et Monde,covid,Le Pays basque espagnol en “alerte rouge” face au Covid-19,https://www.courrierinternational.com/article/sante-le-pays-basque-espagnol-en-alerte-rouge-face-au-covid-19,"Tue, 04 May 2021 17:39:10 +0200","Lundi 3 mai, la région autonome comptabilisait deux fois plus de cas de Covid-19 que la moyenne nationale espagnole. D’après <em>El País,</em> plusieurs facteurs expliquent cette dégradation sanitaire, dont la proximité avec la frontière française."
Courrier international - Actualités France et Monde,covid,"Malgré le Covid-19, Poutine autorise les Russes à aller au musée ou dans leur datcha",https://www.courrierinternational.com/article/parenthese-malgre-le-covid-19-poutine-autorise-les-russes-aller-au-musee-ou-dans-leur-datcha,"Mon, 03 May 2021 15:55:33 +0200","La semaine du 3 mai a été décrétée entièrement fériée. Contrairement à la situation en mai 2020, la liberté de mouvement est entière cette année, et les Russes vont pouvoir en profiter, qu’ils restent en ville ou partent à la campagne. Les nouvelles du front sanitaire ne portent pourtant pas à l’optimisme."
Courrier international - Actualités France et Monde,covid,Les policiers américains rechignent à se faire vacciner contre le Covid-19,https://www.courrierinternational.com/article/etats-unis-les-policiers-americains-rechignent-se-faire-vacciner-contre-le-covid-19,"Mon, 03 May 2021 12:50:53 +0200","Bien que prioritaires pour se faire vacciner, le pourcentage de policiers ayant reçu au moins une dose de vaccin est plus faible que celui de la population générale."
Courrier international - Actualités France et Monde,covid,Covid-19 : que risque-t-on vraiment lorsque l’on prend l’avion ?,https://www.courrierinternational.com/article/modelisation-covid-19-que-risque-t-vraiment-lorsque-lon-prend-lavion,"Sat, 01 May 2021 14:47:36 +0200","Alors que les vols et le tourisme reprennent aux États-Unis, <em>The New York Times </em>a représenté ce qui se produit lorsqu’une personne portant un masque éternue à bord d’un Boeing."
Courrier international - Actualités France et Monde,covid,Le Covid-19 a bouleversé le travail des diplomates,https://www.courrierinternational.com/article/numerique-le-covid-19-bouleverse-le-travail-des-diplomates,"Fri, 30 Apr 2021 18:14:26 +0200","Forcés de travailler à distance en raison de la pandémie, les diplomates ont ont dû adopter des outils technologiques pour mener à bien rencontres et sommets. Pour cet hebdomadaire britannique, ces nouvelles pratiques devraient s’installer durablement, à côté des anciens usages, et transformer les négociations internationales."
Courrier international - Actualités France et Monde,covid,Le Covid-19 a fait plus de 400 000 morts au Brésil,https://www.courrierinternational.com/article/pandemie-le-covid-19-fait-plus-de-400-000-morts-au-bresil,"Fri, 30 Apr 2021 13:58:43 +0200","Le géant sud-américain continue d’enregistrer plus de 2 000 morts par jour. Selon la presse brésilienne, le Covid-19 est à l’origine d’un décès sur cinq dans le pays depuis un an."
Courrier international - Actualités France et Monde,covid,Le Kazakhstan produit et utilise désormais son propre vaccin contre le Covid-19,https://www.courrierinternational.com/revue-de-presse/qazvac-le-kazakhstan-produit-et-utilise-desormais-son-propre-vaccin-contre-le-covid,"Fri, 30 Apr 2021 11:34:10 +0200","Le Kazakhstan, qui utilisait jusqu’à présent le vaccin russe Spoutnik V, a commencé à distribuer son propre vaccin contre le Covid-19, baptisé QazVac. Le pays d’Asie centrale prévoit de produire entre 500 000 et 600 000 doses par mois."
Courrier international - Actualités France et Monde,covid,Un temple indien crée un “drive-in” d’oxygène pour les patients Covid-19,https://www.courrierinternational.com/article/video-un-temple-indien-cree-un-drive-doxygene-pour-les-patients-covid-19,"Fri, 30 Apr 2021 09:31:46 +0200","Un temple sikh a mis en place un service gratuit qui permet aux patients atteints de formes graves du Covid-19 de recevoir une aide respiratoire dans leur voiture. En Inde, où les hôpitaux sont saturés, les familles démunies racontent n’avoir <em>“nulle part où aller”</em>."
FranceSoir - Articles de la rédaction,covid,Covid-19 : des militaires chinois auraient collaboré avec le laboratoire P4 soupçonné d'être à l'origine du virus,https://www.francesoir.fr/politique-monde/covid-19-des-militaires-chinois-collabore-avec-le-laboratoire-P4-soupconne-etre-origine-virus,"Tue, 04 May 2021 17:39:13 +0200","Le 3 mai 2021, The Epoch Time écrivait : « Le régime chinois a déclaré que son institut controversé de virologie n’avait aucune relation avec l’armée, cependant l’institut a travaillé avec des dirigeants militaires sur un projet parrainé par le gouvernement pendant près d’une décennie. »
D’après l’...  - Lire la suite sur FranceSoir.fr 

  
          
            
                  <img alt="""" height=""444"" src=""https://www.francesoir.fr/sites/francesoir/files/laboratoir_p4_field_mise_en_avant_principale_1_0.jpg"" width=""1111"" />
                        
    
        
            
                  FranceSoir - <a href=""https://www.francesoir.fr/politique-monde/covid-19-des-militaires-chinois-collabore-avec-le-laboratoire-P4-soupconne-etre-origine-virus"">Covid-19 : des militaires chinois auraient collaboré avec le laboratoire P4 soupçonné d&#039;être à l&#039;origine du virus</a>"
FranceSoir - Articles de la rédaction,covid,"Covid-19: Véran défend l'ouverture de la vaccination, les indicateurs s'améliorent",https://www.francesoir.fr/actualites-france/covid-19-veran-defend-louverture-de-la-vaccination-les-indicateurs-sameliorent-0,"Tue, 04 May 2021 16:24:30 +0200","Une vaccination ouverte à tous sans le dire ? Le ministre de la Santé, Olivier Véran, a justifié mardi, au nom du ""bon sens"", l'ouverture aux injections pour tous les adultes sur simple déclaration d'une maladie chronique, au moment où les indicateurs de l'épidémie de Covid-19 s'améliorent.
""On a...  - Lire la suite sur FranceSoir.fr 

  
          
            
                  <img alt="""" height=""801"" src=""https://www.francesoir.fr/sites/francesoir/files/images/2019/dd5a0c78d35a4264338b164c1fc7dcfae8c9856c_field_mise_en_avant_principale.jpg"" width=""1111"" />
                        
    
        
            
                  © BERTRAND GUAY / AFP - <a href=""https://www.francesoir.fr/actualites-france/covid-19-veran-defend-louverture-de-la-vaccination-les-indicateurs-sameliorent-0"">Covid-19: Véran défend l&#039;ouverture de la vaccination, les indicateurs s&#039;améliorent</a>"
FranceSoir - Articles de la rédaction,covid,"Covid-19: Véran défend l'ouverture de la vaccination, les indicateurs s'améliorent",https://www.francesoir.fr/actualites-france/covid-19-veran-defend-louverture-de-la-vaccination-les-indicateurs-sameliorent,"Tue, 04 May 2021 12:34:31 +0200","Une vaccination ouverte à tous sans le dire ? Le ministre de la Santé, Olivier Véran, a justifié mardi, au nom du ""bon sens"", l'ouverture aux injections pour tous les adultes sur simple déclaration d'une maladie chronique, au moment où les indicateurs de l'épidémie de Covid-19 s'améliorent.
""On a...  - Lire la suite sur FranceSoir.fr 

  
          
            
                  <img alt="""" height=""785"" src=""https://www.francesoir.fr/sites/francesoir/files/images/2019/bff1b5f4e5299e1c7b6343c57635ff572593e648_field_mise_en_avant_principale.jpg"" width=""1111"" />
                        
    
        
            
                  © Christophe ARCHAMBAULT / AFP/Archives - <a href=""https://www.francesoir.fr/actualites-france/covid-19-veran-defend-louverture-de-la-vaccination-les-indicateurs-sameliorent"">Covid-19: Véran défend l&#039;ouverture de la vaccination, les indicateurs s&#039;améliorent</a>"
FranceSoir - Articles de la rédaction,covid,"Covid-19: les droits des résidents d'Ehpad ""grandement entravés"", juge la Défenseure des droits",https://www.francesoir.fr/actualites-france/covid-19-les-droits-des-residents-dehpad-grandement-entraves-juge-la-defenseure,"Mon, 03 May 2021 18:57:28 +0200","Le droit à une ""vie privée et familiale"" a été plus entravé au cours de la crise sanitaire pour les résidents d'Ehpad que pour le reste de la population, dénonce mardi la Défenseure des droits dans un rapport qui formule une soixantaine de recommandations pour garantir leur ""liberté"".
Ces six...  - Lire la suite sur FranceSoir.fr 

  
          
            
                  <img alt="""" height=""740"" src=""https://www.francesoir.fr/sites/francesoir/files/images/2019/2226c42bc449aaa501b1376e917140bb218803ac_field_mise_en_avant_principale_1.jpg"" width=""1111"" />
                        
    
        
            
                  © LOIC VENANCE / AFP/Archives - <a href=""https://www.francesoir.fr/actualites-france/covid-19-les-droits-des-residents-dehpad-grandement-entraves-juge-la-defenseure"">Covid-19: les droits des résidents d&#039;Ehpad ""grandement entravés"", juge la Défenseure des droits</a>"
FranceSoir - Articles de la rédaction,covid,"Covid-19: retour en présentiel des collégiens et lycéens, début du déconfinement",https://www.francesoir.fr/actualites-france/covid-19-retour-en-presentiel-des-collegiens-et-lyceens-debut-du-deconfinement,"Mon, 03 May 2021 00:24:13 +0200","Une semaine après la rentrée des écoliers, collégiens et lycéens ont retrouvé eux aussi leurs salles de classe lundi, une journée marquée par la fin des restrictions de déplacement, première étape dans le déconfinement progressif du pays engagé par le gouvernement.
Après deux semaines d'...  - Lire la suite sur FranceSoir.fr 

  
          
            
                  <img alt="""" height=""765"" src=""https://www.francesoir.fr/sites/francesoir/files/images/2019/5dd6b80f31147047747f8218aefb9659c6cf861d_field_mise_en_avant_principale.jpg"" width=""1111"" />
                        
    
        
            
                  © Thomas SAMSON
 / AFP - <a href=""https://www.francesoir.fr/actualites-france/covid-19-retour-en-presentiel-des-collegiens-et-lyceens-debut-du-deconfinement"">Covid-19: retour en présentiel des collégiens et lycéens, début du déconfinement</a>"
FranceSoir - Articles de la rédaction,covid,Brésil : le ministre de la Santé considère la chloroquine et l'ivermectine dans le protocole médicamenteux contre Covid-19,https://www.francesoir.fr/societe-sante-politique-monde/bresil-le-ministre-de-la-sante-considere-la-chloroquine-et,"Sun, 02 May 2021 21:11:42 +0200","Le Diario Do Nordeste, journal au Brésil fait état que que :
« Le ministre de la Santé, Marcelo Queiroga, a annoncé qu’il lancera prochainement un protocole de médicaments à utiliser dans le traitement contre Covid-19. »

Ce guide, qui devrait guider les agents de santé, a, comme médicaments...  - Lire la suite sur FranceSoir.fr 

  
          
            
                  <img alt="""" height=""444"" src=""https://www.francesoir.fr/sites/francesoir/files/bresil00_field_mise_en_avant_principale_1_0.jpg"" width=""1111"" />
                        
    
        
            
                  FranceSoir - <a href=""https://www.francesoir.fr/societe-sante-politique-monde/bresil-le-ministre-de-la-sante-considere-la-chloroquine-et"">Brésil : le ministre de la Santé considère la chloroquine et l&#039;ivermectine dans le protocole médicamenteux contre Covid-19</a>"
FranceSoir - Articles de la rédaction,covid,Covid-19: début du déconfinement lundi mais les Français doivent rester vigilants,https://www.francesoir.fr/actualites-france/covid-19-debut-du-deconfinement-lundi-mais-les-francais-doivent-rester-vigilants,"Sun, 02 May 2021 12:17:54 +0200","Fin des restrictions de déplacement et retour partiel des collégiens et lycéens en classe: les contraintes liées à l'épidémie de Covid-19 commencent à se desserrer lundi, sur fond de lente décrue des hospitalisations, mais le corps médical appelle les Français à ne pas relâcher leur comportement....  - Lire la suite sur FranceSoir.fr 

  
          
            
                  <img alt="""" height=""742"" src=""https://www.francesoir.fr/sites/francesoir/files/images/2019/5c4ea5e29851c5b47a68599aaa385a7843656341_field_mise_en_avant_principale.jpg"" width=""1111"" />
                        
    
        
            
                  © Valery HACHE / AFP - <a href=""https://www.francesoir.fr/actualites-france/covid-19-debut-du-deconfinement-lundi-mais-les-francais-doivent-rester-vigilants"">Covid-19: début du déconfinement lundi mais les Français doivent rester vigilants</a>"
FranceSoir - Articles de la rédaction,covid,"Covid: Attal appelle à la ""solidarité"" pour vacciner les personnes prioritaires",https://www.francesoir.fr/actualites-france/covid-attal-appelle-la-solidarite-pour-vacciner-les-personnes-prioritaires,"Sun, 02 May 2021 12:16:26 +0200","Le porte-parole du gouvernement, Gabriel Attal, a appelé dimanche à la ""solidarité"" pour que les publics prioritaires soient vaccinés les premiers contre le Covid-19, fustigeant des collectivités ayant élargi la vaccination.
""La France est limitée par le nombre de doses qu'elle reçoit"" et la ""...  - Lire la suite sur FranceSoir.fr 

  
          
            
                  <img alt="""" height=""740"" src=""https://www.francesoir.fr/sites/francesoir/files/images/2019/a7872c1d9532d90d7c1eca0e378809da9ee7997f_field_mise_en_avant_principale_1.jpg"" width=""1111"" />
                        
    
        
            
                  © Ludovic MARIN / AFP/Archives - <a href=""https://www.francesoir.fr/actualites-france/covid-attal-appelle-la-solidarite-pour-vacciner-les-personnes-prioritaires"">Covid: Attal appelle à la ""solidarité"" pour vacciner les personnes prioritaires</a>"
FranceSoir - Articles de la rédaction,covid,"Faire pipi dehors en temps de Covid, un casse-tête à Paris",https://www.francesoir.fr/actualites-france/faire-pipi-dehors-en-temps-de-covid-un-casse-tete-paris,"Sat, 01 May 2021 23:34:46 +0200","""Il a fallu patienter 20 ou 30 minutes"". Depuis que les cafés et les restaurants ont fermé à Paris, Covid oblige, l'attente est souvent longue devant les toilettes publiques de la capitale, derniers repaires pour éviter de faire pipi dans les buissons. 
""C'est super compliqué, surtout quand on est...  - Lire la suite sur FranceSoir.fr 

  
          
            
                  <img alt="""" height=""740"" src=""https://www.francesoir.fr/sites/francesoir/files/images/2019/036d45893671ec6f995a066e6689e4f7a21f533e_field_mise_en_avant_principale.jpg"" width=""1111"" />
                        
    
        
            
                  © JACQUES DEMARTHON / AFP/Archives - <a href=""https://www.francesoir.fr/actualites-france/faire-pipi-dehors-en-temps-de-covid-un-casse-tete-paris"">Faire pipi dehors en temps de Covid, un casse-tête à Paris</a>"
FranceSoir - Articles de la rédaction,covid,Covid-19: cinquième jour de décrue dans les services de réanimation,https://www.francesoir.fr/actualites-france/covid-19-cinquieme-jour-de-decrue-dans-les-services-de-reanimation,"Sat, 01 May 2021 18:41:18 +0200","Le nombre de malades du Covid-19 dans les services de réanimation a poursuivi sa décrue samedi, pour le cinquième jour consécutif, avec moins de 5.600 patients enregistrés, selon les chiffres de Santé publique France.
Les services de soins critiques (qui rassemblent réanimation, soins intensifs et...  - Lire la suite sur FranceSoir.fr 

  
          
            
                  <img alt="""" height=""740"" src=""https://www.francesoir.fr/sites/francesoir/files/images/2019/85e0d45a7347a046b8e686a8682d38f8caecc579_field_mise_en_avant_principale_1.jpg"" width=""1111"" />
                        
    
        
            
                  © SEBASTIEN BOZON / AFP - <a href=""https://www.francesoir.fr/actualites-france/covid-19-cinquieme-jour-de-decrue-dans-les-services-de-reanimation"">Covid-19: cinquième jour de décrue dans les services de réanimation</a>"
FranceSoir - Articles de la rédaction,covid,Courbes meurtrières et modélisations de l’enfer : les chiffres tuent plus que le Covid,https://www.francesoir.fr/opinions-tribunes/courbes-meurtrieres-et-modelisations-de-lenfer-les-chiffres-tuent-plus-que-le-covid,"Sat, 01 May 2021 16:00:09 +0200","À tout seigneur tout honneur, et il serait bien insolent de nier la suzeraineté du britannique Neil Ferguson dans l’art de la prédiction qui tue. Coutumier du fait, l’épidémiologiste s’illustre dès 2005 en prédisant jusqu'à 150 millions morts de la grippe aviaire dans le monde. Mauvais calcul, 282...  - Lire la suite sur FranceSoir.fr 

  
          
            
                  <img alt="""" height=""444"" src=""https://www.francesoir.fr/sites/francesoir/files/courbes_0_field_mise_en_avant_principale_1_0_0.jpg"" width=""1111"" />
                        
    
        
            
                  FranceSoir/Stock.Adobe - <a href=""https://www.francesoir.fr/opinions-tribunes/courbes-meurtrieres-et-modelisations-de-lenfer-les-chiffres-tuent-plus-que-le-covid"">Courbes meurtrières et modélisations de l’enfer : les chiffres tuent plus que le Covid</a>"
FranceSoir - Articles de la rédaction,covid,1er-Mai syndical: des dizaines de milliers de manifestants retrouvent la rue malgré le Covid-19,https://www.francesoir.fr/actualites-france/un-1er-mai-syndical-encore-sous-covid-19-mais-nouveau-dans-la-rue,"Sat, 01 May 2021 01:00:58 +0200","Défense de l'emploi et des libertés: les syndicats ont retrouvé la rue pour ce 1er-Mai, malgré le Covid-19, organisant des manifestations partout en France dont certaines émaillées d'incidents comme à Paris.
Les cortèges ont rassemblé samedi plus de 170.000 manifestants, selon la CGT, dont 25.000 à...  - Lire la suite sur FranceSoir.fr 

  
          
            
                  <img alt="""" height=""740"" src=""https://www.francesoir.fr/sites/francesoir/files/images/2019/2a6e0bb42fa93ff135ffa72e05ed015c41a4da18_field_mise_en_avant_principale.jpg"" width=""1111"" />
                        
    
        
            
                  © Martin BUREAU / AFP - <a href=""https://www.francesoir.fr/actualites-france/un-1er-mai-syndical-encore-sous-covid-19-mais-nouveau-dans-la-rue"">1er-Mai syndical: des dizaines de milliers de manifestants retrouvent la rue malgré le Covid-19</a>"
FranceSoir - Articles de la rédaction,covid,Covid-19: le gouvernement français veut vacciner plus pour rouvrir mieux,https://www.francesoir.fr/actualites-france/covid-19-le-gouvernement-veut-vacciner-plus-pour-rouvrir-mieux,"Fri, 30 Apr 2021 12:38:35 +0200","Tous les Français de plus de 18 ans pourront se faire vacciner contre le Covid-19 à partir du 15 juin, a annoncé Emmanuel Macron vendredi, après avoir dévoilé la veille le calendrier de la levée progressive des mesures de restriction.
""Vous avez 18 ans ou plus: rendez-vous le 15 juin pour vous...  - Lire la suite sur FranceSoir.fr 

  
          
            
                  <img alt="""" height=""740"" src=""https://www.francesoir.fr/sites/francesoir/files/images/2019/904979a3ed4af1081a26d72ffbf9d509d358b0f8_field_mise_en_avant_principale.jpg"" width=""1111"" />
                        
    
        
            
                  © Pascal GUYOT / AFP/Archives - <a href=""https://www.francesoir.fr/actualites-france/covid-19-le-gouvernement-veut-vacciner-plus-pour-rouvrir-mieux"">Covid-19: le gouvernement français veut vacciner plus pour rouvrir mieux</a>"
FranceSoir - Articles de la rédaction,covid,Inde : ivermectine et hydroxychloroquine dans les recommandations révisées pour les cas Covid légers/asymptomatiques,https://www.francesoir.fr/societe-sante/inde-ivermectine-et-hydroxychloroquine-dans-les-lignes-directrices,"Fri, 30 Apr 2021 11:44:05 +0200","Dans un contexte sanitaire délicat, avec l’augmentation importante du nombre de cas de Covid-19 dans certains États en Inde, le ministère de la Santé indien a mis à jour ses lignes directrices le 28 avril 2021, pour le traitement des cas légers ou asymptomatiques. Nous reproduisons ci-après le...  - Lire la suite sur FranceSoir.fr 

  
          
            
                  <img alt="""" height=""427"" src=""https://www.francesoir.fr/sites/francesoir/files/inde_hcq_ivermectine_0_field_mise_en_avant_principale_1_0.png"" width=""1067"" />
                        
    
        
            
                  FS - <a href=""https://www.francesoir.fr/societe-sante/inde-ivermectine-et-hydroxychloroquine-dans-les-lignes-directrices"">Inde : ivermectine et hydroxychloroquine dans les recommandations révisées pour les cas Covid légers/asymptomatiques</a>"
