Le Monde diplomatique,numerique,Joyeuse colonisation numérique,https://www.monde-diplomatique.fr/2015/11/BENILDE/54179,2021-04-19T14:18:57Z,"La surveillance par les services secrets américains des données personnelles des Européens attente au « contenu essentiel du droit fondamental au respect de la vie privée ». Ce jugement de la Cour de justice de l'Union européenne rendu le 6 octobre dernier marque un tournant : sous la pression des (...)
 / <a href=""https://www.monde-diplomatique.fr/index/pays/allemagne"" rel=""tag"">Allemagne</a>, <a href=""https://www.monde-diplomatique.fr/index/pays/etatsunis"" rel=""tag"">États-Unis</a>, <a href=""https://www.monde-diplomatique.fr/index/sujet/capitalisme"" rel=""tag"">Capitalisme</a>, <a href=""https://www.monde-diplomatique.fr/index/sujet/commerceinternational"" rel=""tag"">Commerce international</a>, <a href=""https://www.monde-diplomatique.fr/index/sujet/droit"" rel=""tag"">Droit</a>, <a href=""https://www.monde-diplomatique.fr/index/sujet/fiscalite"" rel=""tag"">Fiscalité</a>, <a href=""https://www.monde-diplomatique.fr/index/sujet/industrieculturelle"" rel=""tag"">Industrie culturelle</a>, <a href=""https://www.monde-diplomatique.fr/index/sujet/internet"" rel=""tag"">Internet</a>, <a href=""https://www.monde-diplomatique.fr/index/sujet/medias"" rel=""tag"">Médias</a>, <a href=""https://www.monde-diplomatique.fr/index/sujet/mouvementsocial"" rel=""tag"">Mouvement de contestation</a>, <a href=""https://www.monde-diplomatique.fr/index/sujet/multinationale"" rel=""tag"">Multinationales</a>, <a href=""https://www.monde-diplomatique.fr/index/sujet/technologie"" rel=""tag"">Technologie</a>, <a href=""https://www.monde-diplomatique.fr/index/sujet/groupedepression"" rel=""tag"">Groupe de pression</a> - <a href=""https://www.monde-diplomatique.fr/2015/11/"" rel=""directory"">2015/11</a>"
20Minutes - Une,securite,Sécurité : Le nombre de policiers et gendarmes a-t-il baissé depuis le début du quinquennat ?,https://www.20minutes.fr/societe/3027199-20210422-securite-nombre-policiers-gendarmes-baisse-depuis-debut-quinquennat#xtor=RSS-149,"Thu, 22 Apr 2021 20:11:21 +0200","S’appuyant sur les données de Bercy, la députée socialiste Valérie Rabault explique que le nombre de policiers et gendarmes est en diminution depuis 2017, contrairement à ce qu’affirme le chef de l&rsquo"
20Minutes - Une,en-ligne,Vente en ligne : Bruno Le Maire met en garde les influenceurs sur leurs responsabilités,https://www.20minutes.fr/economie/3026999-20210422-vente-ligne-bruno-maire-met-garde-influenceurs-responsabilites#xtor=RSS-149,"Thu, 22 Apr 2021 15:43:22 +0200","« Prenez vos responsabilités, faites attention à ce que vous recommandez, faites attention à vos promos flash », a averti le ministre de l’Economie"
20Minutes - Une,5g,5G : Un déploiement prévu à la Réunion et à Mayotte début 2022,https://www.20minutes.fr/high-tech/3027043-20210422-5g-deploiement-prevu-reunion-mayotte-debut-2022#xtor=RSS-149,"Thu, 22 Apr 2021 16:18:19 +0200",Le gouvernement souhaite intégrer les opérateurs locaux en adoptant des conditions d'attribution adaptées
20Minutes - Une,donnee,Des hackers réclament une lourde rançon à Apple après un vol de données,https://www.20minutes.fr/high-tech/3027039-20210422-hackers-reclament-lourde-rancon-apple-apres-vol-donnees#xtor=RSS-149,"Thu, 22 Apr 2021 16:21:32 +0200","Le sous-traitant d’Apple refusant de payer la rançon, les hackers se sont directement tournés vers l’entreprise et lui réclament 50 millions de dollars"
20Minutes - Une,hack,Des hackers réclament une lourde rançon à Apple après un vol de données,https://www.20minutes.fr/high-tech/3027039-20210422-hackers-reclament-lourde-rancon-apple-apres-vol-donnees#xtor=RSS-149,"Thu, 22 Apr 2021 16:21:32 +0200","Le sous-traitant d’Apple refusant de payer la rançon, les hackers se sont directement tournés vers l’entreprise et lui réclament 50 millions de dollars"
20Minutes - Une,apple,Des hackers réclament une lourde rançon à Apple après un vol de données,https://www.20minutes.fr/high-tech/3027039-20210422-hackers-reclament-lourde-rancon-apple-apres-vol-donnees#xtor=RSS-149,"Thu, 22 Apr 2021 16:21:32 +0200","Le sous-traitant d’Apple refusant de payer la rançon, les hackers se sont directement tournés vers l’entreprise et lui réclament 50 millions de dollars"
20Minutes - Une,securite,Loi sécurité globale : Jean Castex saisit le Conseil constitutionnel pour lever « tout doute »,https://www.20minutes.fr/societe/3027035-20210422-loi-securite-globale-jean-castex-saisit-conseil-constitutionnel-lever-tout-doute#xtor=RSS-149,"Thu, 22 Apr 2021 16:25:38 +0200",Des syndicats d’avocats et de journalistes espèrent une censure du texte par le Conseil constitutionnel
Franceinfo - Les Titres,securite,"Loi sur la ""sécurité globale"" : Jean Castex saisit le Conseil constitutionnel sur l'article 24",https://www.francetvinfo.fr/politique/proposition-de-loi-sur-la-securite-globale/loi-sur-la-securite-globale-jean-castex-saisit-le-conseil-constitutionnel-sur-l-article-24_4382269.html#xtor=RSS-3-[lestitres],"Thu, 22 Apr 2021 19:36:20 +0200","L'article est honni à gauche, dénoncé par les organisations de journalistes mais largement soutenu par les syndicats policiers."
Franceinfo - Les Titres,telephone,"Tabassage de Michel Zecler : ""Envoyé spécial"" révèle un montage se moquant de la mort de George Floyd dans le téléphone de l'un des policiers mis en examen",https://www.francetvinfo.fr/faits-divers/police/violences-policieres/tabassage-de-michel-zecler-envoye-special-revele-un-montage-se-moquant-de-la-mort-de-george-floyd-dans-le-telephone-de-l-un-des-policiers-mis-en-examen_4380919.html#xtor=RSS-3-[lestitres],"Thu, 22 Apr 2021 14:46:01 +0200","Cinq mois après la violente agression de cet homme par des policiers à Paris, l'émission ""Envoyé spécial"", sur France&nbsp;2, est parvenue à obtenir des messages échangés par&nbsp;l'un des suspects.&nbsp;""Dans la police,&nbsp;nos idées changent, parce qu'on est amené à interpeller toujours le même type de population"", a-t-il&nbsp;justifié&nbsp;auprès de l'équipe de journalistes."
Franceinfo - Les Titres,en-ligne,"VRAI OU FAKE. Vinted, Airbnb... Les revenus tirés de ces plateformes en ligne doivent-ils être déclarés aux impôts ?",https://www.francetvinfo.fr/economie/impots/vrai-ou-fake-vinted-airbnb-les-revenus-tires-de-ces-plateformes-en-ligne-doivent-ils-etre-declares-aux-impots_4378385.html#xtor=RSS-3-[lestitres],"Thu, 22 Apr 2021 06:58:32 +0200","Vendre ses vêtements en ligne ou louer son appartement sur une plateforme... Est-ce imposable, comme le craignent des internautes ? Oui, dans certains cas, confirme à franceinfo une avocate fiscaliste."
Libération,facebook,Pourquoi CheckNews ne fait plus de fact-checking avec Facebook,https://www.liberation.fr/checknews/pourquoi-checknews-ne-fait-plus-de-fact-checking-avec-facebook-20210307_JAHVHU2NJRA5HAV7NTCUCWX3DE/,"Sun, 07 Mar 2021 09:46:45 +0000","Après un peu plus de trois ans de collaboration, «Libération» a mis un terme à son contrat de fact-checking avec Facebook fin 2020. Un choix cohérent avec notre stratégie éditoriale."
Libération,ordinateur,"Non, l'homme qui aurait «fouillé l'ordinateur de Nancy Pelosi» au Capitole n'a pas été retrouvé mort",https://www.liberation.fr/checknews/2021/01/14/non-l-homme-qui-aurait-fouille-l-ordinateur-de-nancy-pelosi-au-capitole-n-a-pas-ete-retrouve-mort_1817264/,"Thu, 14 Jan 2021 13:30:14 +0000","Le site Sputnik a confondu le suicide d'un homme qui s'était introduit au Capitole avec l'invasion du bureau de Nancy Pelosi, le 6 janvier, donnant lieu à des interprétations conspirationnistes."
Libération,securite,"Non, le directeur de l’Agence nationale de sécurité du médicament n'a pas démissionné à cause de scandales",https://www.liberation.fr/checknews/2020/12/02/non-le-directeur-de-l-agence-nationale-de-securite-du-medicament-n-a-pas-demissionne-a-cause-de-scan_1807291/,"Wed, 02 Dec 2020 07:35:07 +0000","Le départ de Dominique Martin a fait l'objet de nombreuses spéculations, poussant l'institution à publier une «mise au point»."
Libération,donnee,Soins palliatifs : pourquoi une nouvelle dérogation a-t-elle été donnée pour prescrire du Rivotril en Ehpad et en ville ?,https://www.liberation.fr/checknews/2020/11/07/soins-palliatifs-pourquoi-une-nouvelle-derogation-a-t-elle-ete-donnee-pour-prescrire-du-rivotril-en-_1804293/,"Sat, 07 Nov 2020 08:06:38 +0000","Comme au premier confinement, un décret permet aux médecins de ville de prescrire du Rivotril, un puissant sédatif utilisé en soins palliatifs, pour remplacer le midazolam."
Libération,censure,"Non, le «Financial Times» n'a pas censuré une tribune de Macron parce qu'elle contenait des «fake news»",https://www.liberation.fr/checknews/2020/11/07/non-le-financial-times-n-a-pas-censure-une-tribune-de-macron_1804831/,"Sat, 07 Nov 2020 07:36:44 +0000",Un article britannique relatant une passe d'armes entre le chef de l'Etat et la correspondante à Bruxelles du Financial Times a été compris de travers.
Libération,mobile,Affaire Zecler : un montage raillant la mort de George Floyd retrouvé dans le mobile d’un policier mis en examen,https://www.liberation.fr/societe/police-justice/affaire-zecler-un-montage-raillant-la-mort-de-george-floyd-retrouve-dans-le-mobile-dun-policier-mis-en-examen-20210422_5U2BJSIAKZCDRF2N4NAH32AICQ/,"Thu, 22 Apr 2021 15:16:20 +0000",L’émission «Envoyé spécial» révèle ce jeudi de nouveaux éléments sur le profil d’un des policiers mis en cause dans l’agression du producteur de musique en novembre.
Libération,numerique,"Laurie Marrauld : «Le bluff numérique, ce sont tous les impacts qu’on ne voit pas quand on développe une technologie»",https://www.liberation.fr/forums/laurie-marrauld-le-bluff-numerique-ce-sont-tous-les-impacts-quon-ne-voit-pas-quand-on-developpe-une-technologie-20210421_YPZIYZQHARBGJM7JQWVXBGKIXY/,"Wed, 21 Apr 2021 12:50:57 +0000",Le débat organisé par «Libération» en partenariat avec Google – « Numérique et écologie : quelles connexions ?» – est disponible en vidéo.
Libération,tech,"Laurie Marrauld : «Le bluff numérique, ce sont tous les impacts qu’on ne voit pas quand on développe une technologie»",https://www.liberation.fr/forums/laurie-marrauld-le-bluff-numerique-ce-sont-tous-les-impacts-quon-ne-voit-pas-quand-on-developpe-une-technologie-20210421_YPZIYZQHARBGJM7JQWVXBGKIXY/,"Wed, 21 Apr 2021 12:50:57 +0000",Le débat organisé par «Libération» en partenariat avec Google – « Numérique et écologie : quelles connexions ?» – est disponible en vidéo.
Libération,virtuel,"La réalité virtuelle, avancée potentielle pour les astronautes",https://www.liberation.fr/sciences/espace/la-realite-virtuelle-avancee-potentielle-pour-les-astronautes-20210421_FUQDRLKF7JEFZBWRWX7U4CFKXI/,"Wed, 21 Apr 2021 11:17:10 +0000",La VR est au cœur de deux expériences menées par Thomas Pesquet lors de sa prochaine mission sur la Station spatiale internationale. Cette technologie immersive porte aussi de grandes promesses pour l’entraînement des astronautes sur Terre.
Libération,numerique,"Johanna Rolland : «Le numérique est politique, on doit le réaffirmer comme tel»",https://www.liberation.fr/forums/johanna-rolland-le-numerique-est-politique-on-doit-le-reaffirmer-comme-tel-20210420_FUHZV6LVFVBDBDOVCQRM73YV2A/,"Tue, 20 Apr 2021 13:58:24 +0000","Le débat organisé par «Libération» en partenariat avec Google, «A l’ère numérique, qui détient les clés de la ville ?», est disponible en vidéo."
Le Figaro - Les dernières actualités à la une,crypto,Le fondateur d’une plateforme de cryptomonnaie s’enfuit avec la caisse,https://www.lefigaro.fr/secteur/high-tech/le-fondateur-d-une-plateforme-de-cryptomonnaie-s-enfuit-avec-la-caisse-20210422,"Thu, 22 Apr 2021 21:17:15 +0200","La panique s’est emparée des utilisateurs lorsque, mercredi, le site a brusquement interrompu toutes les transactions pour une durée de quatre à cinq jours."
Le Point - En continu,twitter,#TouchePasAMesEnfants : quand Twitter s’emballe sur la vaccination infantile,https://www.lepoint.fr/societe/touchepasamesenfants-quand-twitter-s-emballe-sur-la-vaccination-infantile-22-04-2021-2423401_23.php,"Thu, 22 Apr 2021 19:00:00 +0200","Alors que la vaccination des enfants est loin d'avoir commence, le sujet donne lieu a un debat passionne et fait la part belle aux theories du complot."
Le Point - En continu,securite,Castex saisit le Conseil constitutionnel sur l'article 24 de la loi sécurité globale,https://www.lepoint.fr/societe/castex-saisit-le-conseil-constitutionnel-sur-l-article-24-de-la-loi-securite-globale-22-04-2021-2423393_23.php,"Thu, 22 Apr 2021 17:13:00 +0200","Pour lever ""tout doute"", le Premier ministre Jean Castex a saisi le Conseil constitutionnel concernant l'article 24 controverse de la loi pour une..."
Le Point - En continu,ecran,Les « Filles d’à côté » sont de retour sur le petit écran,https://www.lepoint.fr/series-tv/les-filles-d-a-cote-sont-de-retour-sur-le-petit-ecran-22-04-2021-2423392_2115.php,"Thu, 22 Apr 2021 17:11:00 +0200","La celebre sitcom AB Productions des annees 90 va renaitre de ses cendres. L'annonce a ete faite par le producteur du show original, Jean-Luc Azoulay, sur C8."
Le Point - En continu,securite,Sécurité routière: 223 voitures-radar privées d'ici fin 2021,https://www.lepoint.fr/societe/securite-routiere-223-voitures-radar-privees-d-ici-fin-2021--22-04-2021-2423380_23.php,"Thu, 22 Apr 2021 14:30:00 +0200","Une flotte de 223 voitures-radar confiees a des entreprises privees et utilisant un flash infra-rouge non-visible par les usagers, seront en service..."
Le Point - En continu,machine,La minute antique – Des machines en or,https://www.lepoint.fr/culture/la-minute-antique-des-machines-en-or-22-04-2021-2423346_3.php,"Thu, 22 Apr 2021 09:55:00 +0200","La domotique n'est pas une invention recente. Depuis l'Antiquite, les hommes revent que des automates leur simplifient la vie et travaillent a leur place."
Le Point - En continu,reseau,Contrôles routiers : le signalement des réseaux bientôt encadré,https://www.lepoint.fr/automobile/securite/controles-routiers-le-signalement-des-reseaux-bientot-encadre-22-04-2021-2423339_657.php,"Thu, 22 Apr 2021 09:00:00 +0200","Afin de mieux lutter contre l'alcoolemie, l'usage de stupefiants ou la delinquance, le signalement de certains controles routiers pourra etre interdit."
Le Point - En continu,securite,La menace sur la sécurité nationale justifie la conservation des données de connexion,https://www.lepoint.fr/politique/la-menace-sur-la-securite-nationale-justifie-la-conservation-des-donnees-de-connexion-21-04-2021-2423302_20.php,"Wed, 21 Apr 2021 19:24:00 +0200",Le Conseil d'Etat a justifie mercredi la poursuite de la conservation des donnees de connexion de la population par les operateurs telephoniques pour...
Le Point - En continu,donnee,La menace sur la sécurité nationale justifie la conservation des données de connexion,https://www.lepoint.fr/politique/la-menace-sur-la-securite-nationale-justifie-la-conservation-des-donnees-de-connexion-21-04-2021-2423302_20.php,"Wed, 21 Apr 2021 19:24:00 +0200",Le Conseil d'Etat a justifie mercredi la poursuite de la conservation des donnees de connexion de la population par les operateurs telephoniques pour...
Le Point - En continu,augmentee,Réalité augmentée : la nouvelle frontière d’Apple,https://www.lepoint.fr/technologie/realite-augmentee-la-nouvelle-frontiere-d-apple-21-04-2021-2423250_58.php,"Wed, 21 Apr 2021 12:08:00 +0200","Ordinateurs en couleur, processeur maison, en attendant des lunettes dediees... Zoom sur la toute derniere conference de la firme a la pomme."
Le Point - En continu,apple,Réalité augmentée : la nouvelle frontière d’Apple,https://www.lepoint.fr/technologie/realite-augmentee-la-nouvelle-frontiere-d-apple-21-04-2021-2423250_58.php,"Wed, 21 Apr 2021 12:08:00 +0200","Ordinateurs en couleur, processeur maison, en attendant des lunettes dediees... Zoom sur la toute derniere conference de la firme a la pomme."
Le Point - En continu,internet,"En Chine, le grand bond en avant du luxe sur Internet",https://www.lepoint.fr/monde/en-chine-le-grand-bond-en-avant-du-luxe-sur-internet-21-04-2021-2423246_24.php,"Wed, 21 Apr 2021 11:00:00 +0200","LETTRE D'ASIE. Sur fond de pandemie, les marques de luxe se convertissent au numerique pour profiter du rebond et des perspectives du marche chinois."
Le Point - En continu,instagram,Instagram lance une nouvelle option pour lutter contre le harcèlement,https://www.lepoint.fr/high-tech-internet/instagram-lance-une-nouvelle-option-pour-lutter-contre-le-harcelement-21-04-2021-2423217_47.php,"Wed, 21 Apr 2021 10:12:00 +0200","Le reseau social propose aux utilisateurs de sept pays, depuis ce mercredi, de masquer les gros mots et expressions injurieuses en filtrant les messages."
Le Point - En continu,puce,Audi Q4 e-tron : transport de puces,https://www.lepoint.fr/automobile/audi-q4-e-tron-transport-de-puces-21-04-2021-2423177_646.php,"Wed, 21 Apr 2021 07:00:00 +0200","Le groupe Volkswagen degaine plus vite que son ombre les nouveaux modeles electriques. Facile, ils partagent la meme plateforme et les memes technologies."
Le Point - En continu,instagram,Belgique : la saleté du Parlement raillée sur Instagram,https://www.lepoint.fr/monde/belgique-la-salete-du-parlement-raillee-sur-instagram-21-04-2021-2423162_24.php,"Wed, 21 Apr 2021 06:30:00 +0200","Souris mortes, toilettes bouchees... Un internaute publie des images peu glorieuses de l'etat du batiment federal, rapporte le quotidien << De Standaart >>."
Le Point - En continu,hack,Des hackeurs chinois ont attaqué les réseaux de groupes de défense américains,https://www.lepoint.fr/monde/des-hackers-chinois-ont-attaque-les-reseaux-de-groupes-de-defense-americains-21-04-2021-2423163_24.php,"Wed, 21 Apr 2021 06:16:00 +0200",Plusieurs activistes sont consideres comme proches du gouvernement chinois. D'autres structures en Europe et aux Etats-Unis ont egalement ete visees.
Le Point - En continu,reseau,Des hackeurs chinois ont attaqué les réseaux de groupes de défense américains,https://www.lepoint.fr/monde/des-hackers-chinois-ont-attaque-les-reseaux-de-groupes-de-defense-americains-21-04-2021-2423163_24.php,"Wed, 21 Apr 2021 06:16:00 +0200",Plusieurs activistes sont consideres comme proches du gouvernement chinois. D'autres structures en Europe et aux Etats-Unis ont egalement ete visees.
Le Point - En continu,virtuel,Xi Jinping va participer au sommet virtuel sur le climat organisé par Biden,https://www.lepoint.fr/monde/xi-jinping-va-participer-au-sommet-virtuel-sur-le-climat-organise-par-biden-21-04-2021-2423169_24.php,"Wed, 21 Apr 2021 06:06:00 +0200","Alors que les tensions sino-americaines restent fortes, le president chinois y prononcera << un discours important >> devant une quarantaine de dirigeants."
Mediapart,donnee,Données de connexion: la France contourne la justice européenne,https://www.mediapart.fr/journal/france/220421/donnees-de-connexion-la-france-contourne-la-justice-europeenne,"Thu, 22 Apr 2021 18:38:24 +0200","Le Conseil d’État était appelé à se prononcer sur l’application d’une jurisprudence de la Cour de justice de l’Union européenne ayant jugé illégale l’obligation de conservation généralisée imposée aux opérateurs. Tout en reconnaissant ces décisions, il en écarte leur application en raison de la «menace» pesant actuellement sur la sécurité nationale."
La Tribune,artificielle,Intelligence artificielle « éthique »: l'UE mise sur une régulation des risques,https://www.latribune.fr/technos-medias/intelligence-artificielle-ethique-l-ue-mise-sur-une-regulation-des-risques-883008.html,"Thu, 22 Apr 2021 17:08:00 +0200","Bruxelles a présenté mercredi sa proposition de règlement sur l'intelligence artificielle. Pour promouvoir un développement ""éthique"" de ces technologies dans l'UE, l'exécutif européen privilégie une évaluation au cas par cas des risques induits. La Commission préconise des amendes pouvant grimper jusqu'à 6% du chiffre d'affaires annuel mondial ou 30 millions d'euros au maximum."
La Tribune,intelligence,Intelligence artificielle « éthique »: l'UE mise sur une régulation des risques,https://www.latribune.fr/technos-medias/intelligence-artificielle-ethique-l-ue-mise-sur-une-regulation-des-risques-883008.html,"Thu, 22 Apr 2021 17:08:00 +0200","Bruxelles a présenté mercredi sa proposition de règlement sur l'intelligence artificielle. Pour promouvoir un développement ""éthique"" de ces technologies dans l'UE, l'exécutif européen privilégie une évaluation au cas par cas des risques induits. La Commission préconise des amendes pouvant grimper jusqu'à 6% du chiffre d'affaires annuel mondial ou 30 millions d'euros au maximum."
L'actualité par l'Humanite.fr,securite,Table ronde. Quel plan de reconquête pour la Sécurité sociale ?,https://www.humanite.fr/table-ronde-quel-plan-de-reconquete-pour-la-securite-sociale-704581#xtor=RSS-1,"Thu, 22 Apr 2021 19:01:01 +0000","<p>Rappel des faits La crise du Covid-19 est à nouveau l’occasion pour le gouvernement de se lancer à l’assaut de la Sécurité sociale. Au nom du « redressement des comptes publics », il s’attaque aux retraites.</p>"
L'actualité par l'Humanite.fr,securite,Appel pour faire du 22 mai une journée d’actions pour la sécu. Pour que vive la Sécurité sociale ! Plus que jamais !,https://www.humanite.fr/appel-pour-faire-du-22-mai-une-journee-dactions-pour-la-secu-pour-que-vive-la-securite-sociale-plus#xtor=RSS-1,"Thu, 22 Apr 2021 18:30:01 +0000","<p> <span class=""intervenant"">Texte collectif</span><br />
</p><p class=""TX"">Réunis, à Saint-Étienne, à l’occasion du 75e anniversaire de l’ordonnance du 4 octobre 1945 créant la Sécurité sociale, nous lancions un appel (1) pour défendre et re­conquérir la Sécurité sociale, notre bien commun. Nous décidions aussi d’ouvrir le chantier de son développement pour un nouveau progrès de société.</p>"
L'actualité par l'Humanite.fr,machine,Finance. Comment on a relancé la machine à bulles,https://www.humanite.fr/finance-comment-relance-la-machine-bulles-704632#xtor=RSS-1,"Thu, 22 Apr 2021 18:46:22 +0000","<p>Depuis plusieurs mois, les marchés boursiers connaissent une surchauffe spectaculaire qui ne profite qu’à une minorité d’individus et fait courir des risques à l’ensemble de l’économie.</p>"
L'actualité par l'Humanite.fr,securite,Loi « sécurité globale » : les arguments des députés pour saisir le Conseil constitutionnel,https://www.humanite.fr/loi-securite-globale-les-arguments-des-deputes-pour-saisir-le-conseil-constitutionnel-704553#xtor=RSS-1,"Thu, 22 Apr 2021 14:28:28 +0000","<p>87 parlementaires de plusieurs groupes ont déposé un recours contre la loi de « sécurité globale » devant le Conseil constitutionnel, le 20 avril. Il va devoir examiner leurs nombreux griefs pour décider de la constitutionnalité de ce texte. <strong>Présentation des points controversés.</strong></p>"
L'actualité par l'Humanite.fr,artificielle,Intelligence artificielle. L’Europe veut protéger les individus... mais pas les travailleurs ?,https://www.humanite.fr/intelligence-artificielle-leurope-veut-proteger-les-individus-mais-pas-les-travailleurs-704530#xtor=RSS-1,"Thu, 22 Apr 2021 09:23:45 +0000",<p>La Commission européenne a présenté un projet de régulation des usages de l’intelligence artificielle. Elle a identifié que l’IA présentait des risques en matière de libertés individuelles. Mais elle a oublié ses conséquences sur le travail...</p>
L'actualité par l'Humanite.fr,intelligence,Intelligence artificielle. L’Europe veut protéger les individus... mais pas les travailleurs ?,https://www.humanite.fr/intelligence-artificielle-leurope-veut-proteger-les-individus-mais-pas-les-travailleurs-704530#xtor=RSS-1,"Thu, 22 Apr 2021 09:23:45 +0000",<p>La Commission européenne a présenté un projet de régulation des usages de l’intelligence artificielle. Elle a identifié que l’IA présentait des risques en matière de libertés individuelles. Mais elle a oublié ses conséquences sur le travail...</p>
L'actualité par l'Humanite.fr,securite,Loi de « sécurité globale » : un recours déposé devant le Conseil constitutionnel,https://www.humanite.fr/loi-de-securite-globale-un-recours-depose-devant-le-conseil-constitutionnel-704457#xtor=RSS-1,"Thu, 22 Apr 2021 07:33:00 +0000","<p>Un recours a été déposé par 87 députés devant le Conseil constitutionnel contre la loi de « sécurité globale ». Les griefs sont nombreux, entre les entorses à la Déclaration des droits de l’homme et à la Loi fondamentale, le recours aux drones de surveillance, la durée et la proportionnalité des peines ou encore les atteintes à la liberté d’informer et à la liberté d’expression.</p>"
LEXPRESS.fr - Rss A la Une,securite,Castex saisit le Conseil constitutionnel sur l'article 24 de la loi sécurité globale,https://www.lexpress.fr/actualites/1/societe/castex-saisit-le-conseil-constitutionnel-sur-l-article-24-de-la-loi-securite-globale_2149383.html,"Thu, 22 Apr 2021 17:11:57 +0200","Paris - Pour lever &quot;tout doute&quot;, le Premier ministre Jean Castex a saisi le Conseil constitutionnel concernant l&#039;article 24 controversé de la loi pour une &quot;Sécurité globale&quot;, qui vise notamment à protéger les forces de l&#039;ordre contre toute volonté malveillante de les identifier."
LEXPRESS.fr - Rss A la Une,securite,"""Sécurité globale"" : Jean Castex saisit le Conseil constitutionnel pour lever ""tout doute""",https://www.lexpress.fr/actualite/politique/securite-globale-jean-castex-saisit-le-conseil-constitutionnel-pour-lever-tout-doute_2149373.html,"Thu, 22 Apr 2021 16:07:43 +0200",Le Premier ministre décide de s&#039;en remettre aux sages de la rue Montpensier sur cette loi adoptée par le Parlement le 15 avril.
LEXPRESS.fr - Rss A la Une,securite,Sécurité routière: 223 voitures-radar privées d'ici fin 2021,https://www.lexpress.fr/actualites/1/societe/securite-routiere-223-voitures-radar-privees-d-ici-fin-2021_2149367.html,"Thu, 22 Apr 2021 14:29:46 +0200","Paris - Une flotte de 223 voitures-radar confiées à des entreprises privées et utilisant un flash infra-rouge non-visible par les usagers, seront en service dans huit régions d&#039;ici fin 2021 pour traquer les excès de vitesse, a indiqué la Sécurité routière."
L'Obs - A la une,deep,"Confinés dans une grotte de l’Ariège depuis 40 jours, les volontaires du projet « Deep Time » s’apprêtent à sortir",https://www.nouvelobs.com/sciences/20210422.OBS43157/confines-dans-une-grotte-d-ariege-depuis-40-jours-les-quinze-volontaires-du-projet-deep-time-sortent-ce-samedi.html,"Thu, 22 Apr 2021 20:53:36 +0200","Durant 40 jours, ils ont vécu sous terre afin d’étudier les capacités d’adaptation au confinement extrême, sans aucun repère temporel."
Le fil info Actu de Paris-Match,smart,Mystère de Kristin Smart : son corps aurait été enterré dans le jardin d’un des suspects,https://www.parismatch.com/Actu/Faits-divers/Mystere-de-Kristin-Smart-son-corps-aurait-ete-enterre-dans-le-jardin-d-un-des-suspects-1734902,"Thu, 22 Apr 2021 14:37:00 +0200","Le corps de Kristin Smart – qui n’a jamais été retrouvée – aurait été un temps enterré dans le jardin du père du principal suspect, avant..."
Flux d'actualité Marianne.net,twitter,"""Touche pas à mes enfants"" : sur Twitter, offensive concertée des antivaccins",https://www.marianne.net/societe/sante/touche-pas-a-mes-enfants-sur-twitter-offensive-concertee-des-antivaccins#utm_source=RSS-MARIANNE&utm_medium=Flux-Rss&utm_campaign=RSS_general,"Thu, 22 Apr 2021 16:18:39 GMT","Dans la soirée du 21 avril, des milliers de comptes ont participé à pousser le mot clef « Touche pas à mes enfants » en tendance sur Twitter, pour s’opposer à la vaccination « des enfants de plus de 10 ans d’ici à la fin de l’été » que le gouvernement envisagerait selon le ""Canard Enchainé"". La mobilisation a été lancée par l’avocat Fabrice Di Vizio, nouvelle star des milieux complotistes."
Flux d'actualité Marianne.net,reconnaissance,"Reconnaissance du génocide arménien : ""Joe Biden ne peut pas infliger un camouflet à l'Arménie""",https://www.marianne.net/monde/geopolitique/reconnaissance-du-genocide-armenien-joe-biden-ne-peut-infliger-un-camouflet-a-larmenie#utm_source=RSS-MARIANNE&utm_medium=Flux-Rss&utm_campaign=RSS_general,"Thu, 22 Apr 2021 11:33:21 GMT","Philosophe et enseignant, Michel Marian s’efforce, dans son dernier ouvrage*, de résumer en 100 questions tout sauf classiques l’histoire, la culture et les enjeux géo-politiques autour d’un peuple et d’une civilisation située aux confins des empires. Il s’interroge sur l’avenir de ce petit pays caucasien, au lendemain d’une défaite infligée à la fin de l’an dernier au Karabakh, par l’Azerbaïdjan voisin."
Courrier international - Actualités France et Monde,artificielle,L’Europe veut limiter le côté obscur de l’intelligence artificielle,https://www.courrierinternational.com/article/algorithmes-leurope-veut-limiter-le-cote-obscur-de-lintelligence-artificielle,"Thu, 22 Apr 2021 16:50:59 +0200","Le projet de règlement sur l’intelligence artificielle présenté mercredi 21 avril par la Commission européenne fixe un cadre contraignant à l’utilisation des algorithmes. La reconnaissance faciale, l’évaluation ciblée des comportements ou la manipulation des personnes seront contrôlées. Une démarche inédite saluée par la presse internationale."
Courrier international - Actualités France et Monde,intelligence,L’Europe veut limiter le côté obscur de l’intelligence artificielle,https://www.courrierinternational.com/article/algorithmes-leurope-veut-limiter-le-cote-obscur-de-lintelligence-artificielle,"Thu, 22 Apr 2021 16:50:59 +0200","Le projet de règlement sur l’intelligence artificielle présenté mercredi 21 avril par la Commission européenne fixe un cadre contraignant à l’utilisation des algorithmes. La reconnaissance faciale, l’évaluation ciblée des comportements ou la manipulation des personnes seront contrôlées. Une démarche inédite saluée par la presse internationale."
Courrier international - Actualités France et Monde,deep,"Au Canada, des sextorqueurs sévissent sur Internet à l’aide de “deepfakes”",https://www.courrierinternational.com/article/le-mot-du-jour-au-canada-des-sextorqueurs-sevissent-sur-internet-laide-de-deepfakes,"Thu, 22 Apr 2021 16:02:05 +0200","Une nouvelle forme d’extorsion qui s’appuie sur l’“hypertrucage”<em> </em>(<em>deepfake</em>) a fait plusieurs victimes au Canada. Plus inquiétant, ce type de chantage, exercé par des cyberprédateurs, cible désormais aussi les jeunes."
Courrier international - Actualités France et Monde,internet,"Au Canada, des sextorqueurs sévissent sur Internet à l’aide de “deepfakes”",https://www.courrierinternational.com/article/le-mot-du-jour-au-canada-des-sextorqueurs-sevissent-sur-internet-laide-de-deepfakes,"Thu, 22 Apr 2021 16:02:05 +0200","Une nouvelle forme d’extorsion qui s’appuie sur l’“hypertrucage”<em> </em>(<em>deepfake</em>) a fait plusieurs victimes au Canada. Plus inquiétant, ce type de chantage, exercé par des cyberprédateurs, cible désormais aussi les jeunes."
Courrier international - Actualités France et Monde,deepfake,"Au Canada, des sextorqueurs sévissent sur Internet à l’aide de “deepfakes”",https://www.courrierinternational.com/article/le-mot-du-jour-au-canada-des-sextorqueurs-sevissent-sur-internet-laide-de-deepfakes,"Thu, 22 Apr 2021 16:02:05 +0200","Une nouvelle forme d’extorsion qui s’appuie sur l’“hypertrucage”<em> </em>(<em>deepfake</em>) a fait plusieurs victimes au Canada. Plus inquiétant, ce type de chantage, exercé par des cyberprédateurs, cible désormais aussi les jeunes."
Courrier international - Actualités France et Monde,numerique,"Madrid-Barcelone, un “clásico” qui porte l’économie numérique espagnole",https://www.courrierinternational.com/article/start-madrid-barcelone-un-clasico-qui-porte-leconomie-numerique-espagnole,"Thu, 22 Apr 2021 10:45:48 +0200","La capitale de l’Espagne et sa rivale catalane concentrent chacune plus de 1 200 start-up, et le duel fratricide que se mènent les deux villes pourrait, à terme, faire rayonner l’innovation espagnole en Europe, assure <em>El Mundo</em>."
Courrier international - Actualités France et Monde,numerique,La Thaïlande s’apprête à lancer un visa spécial “nomades numériques”,https://www.courrierinternational.com/article/destination-la-thailande-sapprete-lancer-un-visa-special-nomades-numeriques,"Wed, 21 Apr 2021 16:14:50 +0200","La Thaïlande est bien partie pour être le premier pays asiatique à créer un visa de quatre ans destiné aux travailleurs à distance, annonce le magazine <em>Nikkei Asia</em>."
Courrier international - Actualités France et Monde,artificielle,L’Europe a-t-elle loupé le coche de l’intelligence artificielle ?,https://www.courrierinternational.com/article/technologie-leurope-t-elle-loupe-le-coche-de-lintelligence-artificielle,"Wed, 21 Apr 2021 12:13:33 +0200","La Commission européenne doit présenter ce 21 avril un projet de réglementation de l’intelligence artificielle (IA), pour permettre le développement de cette technologie tout en rassurant les citoyens sur les questions éthiques. Il s’agira notamment d’encadrer la reconnaissance faciale et d’empêcher la surveillance généralisée. Si elle mise sur une voie plus “vertueuse”, l’Europe accuse malgré tout un fameux retard dans le domaine de l’IA vis-à-vis de la Chine et des États-Unis, explique ce journal belge."
Courrier international - Actualités France et Monde,intelligence,L’Europe a-t-elle loupé le coche de l’intelligence artificielle ?,https://www.courrierinternational.com/article/technologie-leurope-t-elle-loupe-le-coche-de-lintelligence-artificielle,"Wed, 21 Apr 2021 12:13:33 +0200","La Commission européenne doit présenter ce 21 avril un projet de réglementation de l’intelligence artificielle (IA), pour permettre le développement de cette technologie tout en rassurant les citoyens sur les questions éthiques. Il s’agira notamment d’encadrer la reconnaissance faciale et d’empêcher la surveillance généralisée. Si elle mise sur une voie plus “vertueuse”, l’Europe accuse malgré tout un fameux retard dans le domaine de l’IA vis-à-vis de la Chine et des États-Unis, explique ce journal belge."
Courrier international - Actualités France et Monde,gafa,Les Gafa menacent désormais les démocraties,https://www.courrierinternational.com/article/la-lettre-de-leduc-les-gafa-menacent-desormais-les-democraties,"Wed, 21 Apr 2021 09:57:51 +0200","Chaque semaine, Benjamin Daubeuf, enseignant en histoire-géographie au lycée Val-de-Seine de Grand-Quevilly, commente un article de <em>Courrier international</em> en rapport avec les programmes d’histoire-géographie de terminale et de première, spécialité histoire-géographie, géopolitique et sciences politiques (HGGSP). Cette semaine : comment les géants du numérique ont opéré un coup d’État numérique."
Courrier international - Actualités France et Monde,puce,L’économie mondiale en manque de puces,https://www.courrierinternational.com/article/la-une-de-lhebdo-leconomie-mondiale-en-manque-de-puces,"Wed, 21 Apr 2021 09:47:11 +0200","Chaque semaine, <em>Courrier international</em> explique ses choix éditoriaux et les débats qu’ils suscitent parfois au sein de la rédaction. Dans ce numéro, nous décryptons la pénurie mondiale de puces électroniques qui menace plusieurs secteurs de l’économie. Et surtout, nous vous faisons découvrir l’entreprise qui a tout fait basculer : TSMC, le géant taïwanais, au cœur d’une bataille désormais aussi économique que géopolitique."
Courrier international - Actualités France et Monde,puce,La pénurie mondiale de puces n’est pas près de se résorber,https://www.courrierinternational.com/article/electronique-la-penurie-mondiale-de-puces-nest-pas-pres-de-se-resorber,"Wed, 21 Apr 2021 09:45:55 +0200","Pandémie, sécheresse, tempêtes de neige, guerre commerciale… De multiples facteurs expliquent pourquoi les fabricants de semi-conducteurs n’arrivent plus à fournir leurs clients."
Courrier international - Actualités France et Monde,numerique,"En Birmanie, une radio pirate lutte contre la répression numérique",https://www.courrierinternational.com/article/contestation-en-birmanie-une-radio-pirate-lutte-contre-la-repression-numerique,"Tue, 20 Apr 2021 14:30:23 +0200","Près de trois mois après le coup d’État mené par la junte militaire contre le gouvernement civil en Birmanie, les militants prodémocratie sont toujours mobilisés. Pour contourner le contrôle des réseaux sociaux, de jeunes dissidents ont lancé Federal FM, une radio pirate."
Courrier international - Actualités France et Monde,puce,Une sécheresse historique à Taïwan menace d’aggraver la pénurie de puces,https://www.courrierinternational.com/article/electronique-une-secheresse-historique-taiwan-menace-daggraver-la-penurie-de-puces,"Tue, 20 Apr 2021 14:09:01 +0200",Taïwan connaît sa pire sécheresse depuis cinquante ans. Une catastrophe pour le pays qui produit les deux tiers des puces électroniques utilisées dans le monde et dont la production nécessite de grandes quantités d’eau.
Courrier international - Actualités France et Monde,amazon,“Them” sur Amazon : l’horreur est-elle un genre approprié pour parler des violences racistes ?,https://www.courrierinternational.com/revue-de-presse/serie-them-sur-amazon-lhorreur-est-elle-un-genre-approprie-pour-parler-des-violences,"Tue, 20 Apr 2021 06:07:43 +0200","En prenant pour cadre l’Amérique raciste des années 1950, cette série en ligne depuis le 9 avril explore une histoire encore récente et douloureuse. Son mélange de réalisme et de fantastique n’est pas sans précédent, mais la presse américaine interroge les représentations de la violence auxquelles aboutit ce parti pris."
Courrier international - Actualités France et Monde,amazon,“Le Seigneur des anneaux” d’Amazon s’annonce comme la série la plus chère de l’histoire,https://www.courrierinternational.com/revue-de-presse/television-le-seigneur-des-anneaux-damazon-sannonce-comme-la-serie-la-plus-chere-de,"Mon, 19 Apr 2021 17:55:16 +0200","Sur le marché du streaming, le géant ne lésine pas sur les dépenses pour son adaptation en série de l’univers de Tolkien. En plus d’un budget record, la firme compte sur un solide soutien du gouvernement néo-zélandais – lequel espère bénéficier de retombées, comme à l’époque de la trilogie cinématographique de Peter Jackson."
Courrier international - Actualités France et Monde,drone,"Un premier vol historique pour Ingenuity, le drone hélicoptère de la Nasa",https://www.courrierinternational.com/article/vu-des-etats-unis-un-premier-vol-historique-pour-ingenuity-le-drone-helicoptere-de-la-nasa,"Mon, 19 Apr 2021 15:58:23 +0200","Ingenuity est devenu la première machine à voler sur la planète Mars. Une réussite pour la Nasa, qui reste pionnière dans le domaine de l’aérospatial."
Courrier international - Actualités France et Monde,artificielle,"Elon Musk décroche la lune, les mauvais flics et l’intelligence artificielle, la pâtée du dogecoin",https://www.courrierinternational.com/article/la-lettre-tech-elon-musk-decroche-la-lune-les-mauvais-flics-et-lintelligence-artificielle-la,"Mon, 19 Apr 2021 15:51:41 +0200","Elon Musk, le patron de SpaceX, est un pitre impossible. Mais on lui donne la lune quand même. La Nasa vient d’accorder au pionnier des opérateurs spatiaux privés un contrat de 2,9 milliards de dollars pour concevoir le module qui permettra, peut-être dans moins de cinq ans, de déposer sur la Lune les premiers astronautes américains depuis l’ère d’Apollo. Le programme Artemis, annoncé sous la présidence Trump, a été reconduit par le gouvernement de Joe Biden et prévoit l’établissement d’une base d’escale lunaire nécessaire à la poursuite du voyage vers Mars. De plus, raconte le <strong>...</strong>"
Courrier international - Actualités France et Monde,intelligence,"Elon Musk décroche la lune, les mauvais flics et l’intelligence artificielle, la pâtée du dogecoin",https://www.courrierinternational.com/article/la-lettre-tech-elon-musk-decroche-la-lune-les-mauvais-flics-et-lintelligence-artificielle-la,"Mon, 19 Apr 2021 15:51:41 +0200","Elon Musk, le patron de SpaceX, est un pitre impossible. Mais on lui donne la lune quand même. La Nasa vient d’accorder au pionnier des opérateurs spatiaux privés un contrat de 2,9 milliards de dollars pour concevoir le module qui permettra, peut-être dans moins de cinq ans, de déposer sur la Lune les premiers astronautes américains depuis l’ère d’Apollo. Le programme Artemis, annoncé sous la présidence Trump, a été reconduit par le gouvernement de Joe Biden et prévoit l’établissement d’une base d’escale lunaire nécessaire à la poursuite du voyage vers Mars. De plus, raconte le <strong>...</strong>"
Courrier international - Actualités France et Monde,google,"Chez Google, l’illusion de la grande famille",https://www.courrierinternational.com/article/temoignage-chez-google-lillusion-de-la-grande-famille,"Mon, 19 Apr 2021 06:28:37 +0200","Emi Nietfeld était ingénieure chez Google entre 2015 et 2019. D’abord émerveillée par le fort esprit de communauté créé chez le géant américain d’internet, elle déchante lorsqu’elle est victime de harcèlement sexuel. Elle a le sentiment de ne pas être entendue ni soutenue. Une désillusion qu’elle raconte dans le <em>New York Times</em>."
LEXPRESS.fr - RSS Tout L'Entreprise,intelligence,A paraître demain : nos sept formes d'intelligence.,https://blogs.lentreprise.com/le-management-dans-tous-ses-etats/2020/01/20/a-paraitre-demain-nos-sept-formes-dintelligence/,"Mon, 20 Jan 2020 07:51:43 +0100","De juillet 2017 à septembre 2018, j&#039;avais rédigé sur ce blog une série de vingt cinq articles sur les intelligences managériales. Mon éditeur &quot; Jouvence &quot;, m&#039;a sollicité pour en faire un guide pratique destiné non seulement aux managers , mais à tous les publics. [...]"
LEXPRESS.fr - RSS Tout L'Entreprise,reseau,Carnet d'adresses: les réseaux de femmes entrepreneures qui comptent,https://lentreprise.lexpress.fr/outils-classements/annuaires/carnet-d-adresses-des-reseaux-de-femmes-entrepreneures_1523138.html,"Wed, 07 Mar 2012 18:59:00 +0100","Que ce soit pour rompre sa solitude de femme dirigeante ou pour trouver de nouveaux contacts, voici une sélection &quot;non exhaustive&quot; d&#039;adresses de réseaux 100% féminins."
FranceSoir - Articles de la rédaction,securite,Castex saisit le Conseil constitutionnel sur l'article 24 de la loi sécurité globale,https://www.francesoir.fr/actualites-france/castex-saisit-le-conseil-constitutionnel-sur-larticle-24-de-la-loi-securite,"Thu, 22 Apr 2021 14:24:28 +0200","Pour lever ""tout doute"", le Premier ministre Jean Castex a saisi le Conseil constitutionnel concernant l'article 24 controversé de la loi pour une ""Sécurité globale"", qui vise notamment à protéger les forces de l'ordre contre toute volonté malveillante de les identifier.
""Soucieux que tout doute...  - Lire la suite sur FranceSoir.fr 

  
          
            
                  <img alt="""" height=""740"" src=""https://www.francesoir.fr/sites/francesoir/files/images/2019/9c1a7fb10cc482f74a9293b8a8efbbb0d1ab924a_field_mise_en_avant_principale_1.jpg"" width=""1111"" />
                        
    
        
            
                  © Alain JOCARD / AFP/Archives - <a href=""https://www.francesoir.fr/actualites-france/castex-saisit-le-conseil-constitutionnel-sur-larticle-24-de-la-loi-securite"">Castex saisit le Conseil constitutionnel sur l&#039;article 24 de la loi sécurité globale</a>"
FranceSoir - Articles de la rédaction,securite,Sécurité routière: 223 voitures-radar privées d'ici fin 2021,https://www.francesoir.fr/actualites-france/securite-routiere-223-voitures-radar-privees-dici-fin-2021,"Thu, 22 Apr 2021 13:28:11 +0200","Une flotte de 223 voitures-radar confiées à des entreprises privées et utilisant un flash infra-rouge non-visible par les usagers, seront en service dans huit régions d'ici fin 2021 pour traquer les excès de vitesse, a indiqué la Sécurité routière.
Prévue par un Comité interministériel de la...  - Lire la suite sur FranceSoir.fr 

  
          
            
                  <img alt="""" height=""740"" src=""https://www.francesoir.fr/sites/francesoir/files/images/2019/1f7e9076b3a12e9a9f9f7a8f07d1f36b84db16d6_field_mise_en_avant_principale_1.jpg"" width=""1111"" />
                        
    
        
            
                  © CHARLY TRIBALLEAU / AFP/Archives - <a href=""https://www.francesoir.fr/actualites-france/securite-routiere-223-voitures-radar-privees-dici-fin-2021"">Sécurité routière: 223 voitures-radar privées d&#039;ici fin 2021</a>"
FranceSoir - Articles de la rédaction,securite,La menace sur la sécurité nationale justifie la conservation des données de connexion,https://www.francesoir.fr/actualites-france/la-menace-sur-la-securite-nationale-justifie-la-conservation-des-donnees-de,"Wed, 21 Apr 2021 14:05:09 +0200","Le Conseil d'Etat a justifié mercredi la poursuite de la conservation des données de connexion de la population par les opérateurs téléphoniques pour les enquêtes relevant de la criminalité organisée et du terrorisme, en raison de ""la menace existante pour la sécurité nationale"".
La plus haute...  - Lire la suite sur FranceSoir.fr 

  
          
            
                  <img alt="""" height=""740"" src=""https://www.francesoir.fr/sites/francesoir/files/images/2019/17d20d48dd7c35c2a22cd35c79d7522fecda4d4e_field_mise_en_avant_principale_17.jpg"" width=""1111"" />
                        
    
        
            
                  © Kirill KUDRYAVTSEV / AFP/Archives - <a href=""https://www.francesoir.fr/actualites-france/la-menace-sur-la-securite-nationale-justifie-la-conservation-des-donnees-de"">La menace sur la sécurité nationale justifie la conservation des données de connexion </a>"
FranceSoir - Articles de la rédaction,donnee,La menace sur la sécurité nationale justifie la conservation des données de connexion,https://www.francesoir.fr/actualites-france/la-menace-sur-la-securite-nationale-justifie-la-conservation-des-donnees-de,"Wed, 21 Apr 2021 14:05:09 +0200","Le Conseil d'Etat a justifié mercredi la poursuite de la conservation des données de connexion de la population par les opérateurs téléphoniques pour les enquêtes relevant de la criminalité organisée et du terrorisme, en raison de ""la menace existante pour la sécurité nationale"".
La plus haute...  - Lire la suite sur FranceSoir.fr 

  
          
            
                  <img alt="""" height=""740"" src=""https://www.francesoir.fr/sites/francesoir/files/images/2019/17d20d48dd7c35c2a22cd35c79d7522fecda4d4e_field_mise_en_avant_principale_17.jpg"" width=""1111"" />
                        
    
        
            
                  © Kirill KUDRYAVTSEV / AFP/Archives - <a href=""https://www.francesoir.fr/actualites-france/la-menace-sur-la-securite-nationale-justifie-la-conservation-des-donnees-de"">La menace sur la sécurité nationale justifie la conservation des données de connexion </a>"
FranceSoir - Articles de la rédaction,5g,"5G: ""pas de risques nouveaux"" pour la santé selon les données disponibles, estime l'Anses",https://www.francesoir.fr/actualites-france/5g-pas-de-risques-nouveaux-pour-la-sante-selon-les-donnees-disponibles-estime,"Tue, 20 Apr 2021 11:30:08 +0200","La nouvelle génération de réseaux mobiles 5G en cours de déploiement ne présente ""pas de risques nouveaux"" pour la santé, au vu des données actuellement disponibles, a estimé mardi l'Agence nationale de sécurité sanitaire (Anses), dans un avis très attendu sur cette technologie controversée.
L'...  - Lire la suite sur FranceSoir.fr 

  
          
            
                  <img alt="""" height=""727"" src=""https://www.francesoir.fr/sites/francesoir/files/images/2019/ba0d0fe866459b25647d1a81e722e83340967901_field_mise_en_avant_principale_3.jpg"" width=""1111"" />
                        
    
        
            
                  © ERIC PIERMONT / AFP/Archives - <a href=""https://www.francesoir.fr/actualites-france/5g-pas-de-risques-nouveaux-pour-la-sante-selon-les-donnees-disponibles-estime"">5G: ""pas de risques nouveaux"" pour la santé selon les données disponibles, estime l&#039;Anses</a>"
FranceSoir - Articles de la rédaction,donnee,"5G: ""pas de risques nouveaux"" pour la santé selon les données disponibles, estime l'Anses",https://www.francesoir.fr/actualites-france/5g-pas-de-risques-nouveaux-pour-la-sante-selon-les-donnees-disponibles-estime,"Tue, 20 Apr 2021 11:30:08 +0200","La nouvelle génération de réseaux mobiles 5G en cours de déploiement ne présente ""pas de risques nouveaux"" pour la santé, au vu des données actuellement disponibles, a estimé mardi l'Agence nationale de sécurité sanitaire (Anses), dans un avis très attendu sur cette technologie controversée.
L'...  - Lire la suite sur FranceSoir.fr 

  
          
            
                  <img alt="""" height=""727"" src=""https://www.francesoir.fr/sites/francesoir/files/images/2019/ba0d0fe866459b25647d1a81e722e83340967901_field_mise_en_avant_principale_3.jpg"" width=""1111"" />
                        
    
        
            
                  © ERIC PIERMONT / AFP/Archives - <a href=""https://www.francesoir.fr/actualites-france/5g-pas-de-risques-nouveaux-pour-la-sante-selon-les-donnees-disponibles-estime"">5G: ""pas de risques nouveaux"" pour la santé selon les données disponibles, estime l&#039;Anses</a>"
FranceSoir - Articles de la rédaction,instagram,Protection des mineurs: forte opposition contre le projet d'Instagram pour les moins de 13 ans,https://www.francesoir.fr/culture-medias/protection-des-mineurs-forte-opposition-contre-le-projet-dinstagram-pour-les-moins-de,"Mon, 19 Apr 2021 16:11:19 +0200","L'âge minimum pour avoir un compte Instagram est de 13 ans. Cependant, pour que les enfants puissent bénéficier d’une utilisation du réseau tout en préservant leur sécurité, le réseau social, propriété de Facebook, envisage de lancer une version pour les mineurs. L’association “Campaign for a...  - Lire la suite sur FranceSoir.fr 

  
          
            
                  <img alt="""" height=""444"" src=""https://www.francesoir.fr/sites/francesoir/files/mckaela-taylor-grhjiueab_0-unsplash_field_mise_en_avant_principale_1_0.jpg"" width=""1110"" />
                        
    
        
            
                  Unsplash - <a href=""https://www.francesoir.fr/culture-medias/protection-des-mineurs-forte-opposition-contre-le-projet-dinstagram-pour-les-moins-de"">Protection des mineurs: forte opposition contre le projet d&#039;Instagram pour les moins de 13 ans</a>"
FranceSoir - Articles de la rédaction,securite,Sécurité routière: le nombre de morts en baisse de 28% en mars,https://www.francesoir.fr/actualites-france/securite-routiere-le-nombre-de-morts-en-baisse-de-28-en-mars-par-rapport-2019,"Mon, 19 Apr 2021 10:57:43 +0200","Le nombre de personnes tuées sur les routes de France métropolitaine en mars a connu une baisse de 28% par rapport à mars 2019, nouvelle année de référence, avec 183 décès, a annoncé lundi la Sécurité routière.
Cette baisse de la mortalité s'explique en grande partie par le couvre-feu, la...  - Lire la suite sur FranceSoir.fr 

  
          
            
                  <img alt="""" height=""740"" src=""https://www.francesoir.fr/sites/francesoir/files/images/2019/b37c9045f4831666931e864cc31a67af16f43573_field_mise_en_avant_principale_3.jpg"" width=""1111"" />
                        
    
        
            
                  © STEPHANE DE SAKUTIN / AFP/Archives - <a href=""https://www.francesoir.fr/actualites-france/securite-routiere-le-nombre-de-morts-en-baisse-de-28-en-mars-par-rapport-2019"">Sécurité routière: le nombre de morts en baisse de 28% en mars</a>"
FranceSoir - Articles de la rédaction,en-ligne,"Vente en ligne: source d’arnaques, le ""dropshipping""  va être mieux régulé",https://www.francesoir.fr/lifestyle-shopping/vente-en-ligne-source-darnaques-le-dropshipping-va-etre-mieux-regule,"Mon, 19 Apr 2021 10:35:24 +0200","Vous êtes peut-être déjà tombé sur le compte d’un influenceur qui vous propose d’acheter un produit qui a l'air d'être une occasion à ne pas manquer. Son message ressemble souvent à cela: « Coucou les amis! Aujourd’hui je vais vous présenter ce magnifique produit ! » Cela vous dit quelque chose?...  - Lire la suite sur FranceSoir.fr 

  
          
            
                  <img alt="""" height=""444"" src=""https://www.francesoir.fr/sites/francesoir/files/ecommerce-2607114_1920_field_mise_en_avant_principale_1_0.jpg"" width=""1110"" />
                        
    
        
            
                  StockSnap / Pixabay - <a href=""https://www.francesoir.fr/lifestyle-shopping/vente-en-ligne-source-darnaques-le-dropshipping-va-etre-mieux-regule"">Vente en ligne: source d’arnaques, le ""dropshipping""  va être mieux régulé</a>"
FranceSoir - Articles de la rédaction,securite,"A Montpellier, Macron vient parler sécurité mais est interpellé sur la mixité",https://www.francesoir.fr/actualites-france/macron-montpellier-pour-defendre-sa-strategie-securitaire,"Mon, 19 Apr 2021 04:00:13 +0200","Tournée des ""points chauds"" en voiture banalisée, visite sur un ancien ""point de deal"", rencontre avec des policiers, bain de foule improvisés... Dans une visite à tiroirs digne des débuts du quinquennat, Emmanuel Macron est venu à Montpellier montrer son engagement pour une ""sécurité du quotidien...  - Lire la suite sur FranceSoir.fr 

  
          
            
                  <img alt="""" height=""740"" src=""https://www.francesoir.fr/sites/francesoir/files/images/2019/7650171ddc05bca4c5d2f00d552fdcd84a1ef49d_field_mise_en_avant_principale.jpg"" width=""1111"" />
                        
    
        
            
                  © Christophe SIMON / AFP/Archives - <a href=""https://www.francesoir.fr/actualites-france/macron-montpellier-pour-defendre-sa-strategie-securitaire"">A Montpellier, Macron vient parler sécurité mais est interpellé sur la mixité</a>"
FranceSoir - Articles de la rédaction,securite,"""Plus de bleu sur le terrain"": Macron repart à l'offensive sur la sécurité",https://www.francesoir.fr/actualites-france/plus-de-bleu-sur-le-terrain-macron-repart-loffensive-sur-la-securite,"Sun, 18 Apr 2021 21:29:15 +0200","""Plus de bleu sur le terrain"": Emmanuel Macron lance une nouvelle offensive sur la sécurité, l'un des sujets phares de la présidentielle de 2022, en promettant de tenir son objectif de 10.000 policiers et gendarmes supplémentaires et en faisant de la lutte contre les trafics de drogue ""la mère des...  - Lire la suite sur FranceSoir.fr 

  
          
            
                  <img alt="""" height=""740"" src=""https://www.francesoir.fr/sites/francesoir/files/images/2019/0da9e7e048c53ac76b8bd0e0a693088b2eb865f0_field_mise_en_avant_principale_1.jpg"" width=""1111"" />
                        
    
        
            
                  © ERIC GAILLARD / POOL/AFP/Archives - <a href=""https://www.francesoir.fr/actualites-france/plus-de-bleu-sur-le-terrain-macron-repart-loffensive-sur-la-securite"">""Plus de bleu sur le terrain"": Macron repart à l&#039;offensive sur la sécurité</a>"
FranceSoir - Articles de la rédaction,application,Pass sanitaire: l'application TousAntiCovid va certifier tests et vaccination,https://www.francesoir.fr/actualites-france/pass-sanitaire-lapplication-tousanticovid-va-certifier-tests-et-vaccination,"Sun, 18 Apr 2021 20:25:10 +0200","L'application française de traçage des malades du Covid-19 TousAntiCovid va intégrer un carnet permettant de prouver le résultat positif ou négatif d'un test de détection du virus, puis certifier l'état vaccinal, a annoncé dimanche le gouvernement dans une invitation à la presse.
""TousAntiCovid-...  - Lire la suite sur FranceSoir.fr 

  
          
            
                  <img alt="""" height=""739"" src=""https://www.francesoir.fr/sites/francesoir/files/images/2019/f333a0095950f390f03cf8fcc00e511f0c6eeb99_field_mise_en_avant_principale_1.jpg"" width=""1111"" />
                        
    
        
            
                  © LIONEL BONAVENTURE / AFP/Archives - <a href=""https://www.francesoir.fr/actualites-france/pass-sanitaire-lapplication-tousanticovid-va-certifier-tests-et-vaccination"">Pass sanitaire: l&#039;application TousAntiCovid va certifier tests et vaccination</a>"
FranceSoir - Articles de la rédaction,code,"Mikaël Petrossian, la 3e génération du caviar qui bouscule les codes",https://www.francesoir.fr/actualites-france/mikael-petrossian-la-3e-generation-du-caviar-qui-bouscule-les-codes,"Sat, 17 Apr 2021 18:14:45 +0200","Il a mis entre parenthèses le restaurant gastronomique pour servir des plats russo-arméniens de sa grand-mère dans l'établissement familial: Mikaël Petrossian, troisième génération de la dynastie du caviar, s'adapte à la pandémie en bousculant les codes.
""Il a fallu changer notre manière de...  - Lire la suite sur FranceSoir.fr 

  
          
            
                  <img alt="""" height=""740"" src=""https://www.francesoir.fr/sites/francesoir/files/images/2019/71e975a2adcda76208cdb8291929f60c5586744b_field_mise_en_avant_principale_1.jpg"" width=""1111"" />
                        
    
        
            
                  © JOEL SAGET / AFP - <a href=""https://www.francesoir.fr/actualites-france/mikael-petrossian-la-3e-generation-du-caviar-qui-bouscule-les-codes"">Mikaël Petrossian, la 3e génération du caviar qui bouscule les codes</a>"
FranceSoir - Articles de la rédaction,tech,"Les cocoricos de FranceSoir – Pardi, le spritz à la française de Françoise Antech",https://www.francesoir.fr/videos/les-cocoricos-de-francesoir-pardi-le-spritz-la-francaise-de-francoise-antech,"Sat, 17 Apr 2021 12:17:20 +0200","Françoise Antech est viticultrice dans l’Aude à Limoux de père en fille. 7ème génération avec celle qui arrive. La maison Antech est reconnue pour sa spécialité limouxine de la Blanquette de Limoux et des bulles fines.
Plus de 8 millions de bouteilles par an avant le premier confinement avec une...  - Lire la suite sur FranceSoir.fr 

  
          
            
                  <img alt="""" height=""444"" src=""https://www.francesoir.fr/sites/francesoir/files/pardi_spritz_field_mise_en_avant_principale_1_0.jpg"" width=""1111"" />
                        
    
        
            
                  FranceSoir - <a href=""https://www.francesoir.fr/videos/les-cocoricos-de-francesoir-pardi-le-spritz-la-francaise-de-francoise-antech"">Les cocoricos de FranceSoir – Pardi, le spritz à la française de Françoise Antech</a>"
