Le Monde.fr - Actualités et Infos en France et dans le monde,numerique,Données numériques : la chambre de l’instruction de Lyon appelée à se prononcer dans une affaire de trafic de stupéfiants,https://www.lemonde.fr/societe/article/2021/04/27/donnees-numeriques-la-chambre-de-l-instruction-de-lyon-appelee-a-se-prononcer-dans-une-affaire-de-trafic-de-stupefiants_6078262_3224.html,"Tue, 27 Apr 2021 18:00:17 +0200","Alors que le Conseil d’Etat vient de confirmer la conservation généralisée des données, deux pénalistes invoquent, eux, les critères définis par la justice européenne. Au cœur du dossier : un large réseau de trafic de stupéfiants qui a œuvré dans la région lyonnaise."
Le Monde.fr - Actualités et Infos en France et dans le monde,donnee,Données numériques : la chambre de l’instruction de Lyon appelée à se prononcer dans une affaire de trafic de stupéfiants,https://www.lemonde.fr/societe/article/2021/04/27/donnees-numeriques-la-chambre-de-l-instruction-de-lyon-appelee-a-se-prononcer-dans-une-affaire-de-trafic-de-stupefiants_6078262_3224.html,"Tue, 27 Apr 2021 18:00:17 +0200","Alors que le Conseil d’Etat vient de confirmer la conservation généralisée des données, deux pénalistes invoquent, eux, les critères définis par la justice européenne. Au cœur du dossier : un large réseau de trafic de stupéfiants qui a œuvré dans la région lyonnaise."
Le Monde diplomatique,numerique,Joyeuse colonisation numérique,https://www.monde-diplomatique.fr/2015/11/BENILDE/54179,2021-04-19T14:18:57Z,"La surveillance par les services secrets américains des données personnelles des Européens attente au « contenu essentiel du droit fondamental au respect de la vie privée ». Ce jugement de la Cour de justice de l'Union européenne rendu le 6 octobre dernier marque un tournant : sous la pression des (...)
 / <a href=""https://www.monde-diplomatique.fr/index/pays/allemagne"" rel=""tag"">Allemagne</a>, <a href=""https://www.monde-diplomatique.fr/index/pays/etatsunis"" rel=""tag"">États-Unis</a>, <a href=""https://www.monde-diplomatique.fr/index/sujet/capitalisme"" rel=""tag"">Capitalisme</a>, <a href=""https://www.monde-diplomatique.fr/index/sujet/commerceinternational"" rel=""tag"">Commerce international</a>, <a href=""https://www.monde-diplomatique.fr/index/sujet/droit"" rel=""tag"">Droit</a>, <a href=""https://www.monde-diplomatique.fr/index/sujet/fiscalite"" rel=""tag"">Fiscalité</a>, <a href=""https://www.monde-diplomatique.fr/index/sujet/industrieculturelle"" rel=""tag"">Industrie culturelle</a>, <a href=""https://www.monde-diplomatique.fr/index/sujet/internet"" rel=""tag"">Internet</a>, <a href=""https://www.monde-diplomatique.fr/index/sujet/medias"" rel=""tag"">Médias</a>, <a href=""https://www.monde-diplomatique.fr/index/sujet/mouvementsocial"" rel=""tag"">Mouvement de contestation</a>, <a href=""https://www.monde-diplomatique.fr/index/sujet/multinationale"" rel=""tag"">Multinationales</a>, <a href=""https://www.monde-diplomatique.fr/index/sujet/technologie"" rel=""tag"">Technologie</a>, <a href=""https://www.monde-diplomatique.fr/index/sujet/groupedepression"" rel=""tag"">Groupe de pression</a> - <a href=""https://www.monde-diplomatique.fr/2015/11/"" rel=""directory"">2015/11</a>"
20Minutes - Une,machine,« Les Mitchell contre les machines » mais pour l'humour et les sentiments inclusifs,https://www.20minutes.fr/arts-stars/cinema/3028955-20210427-mitchell-contre-machines-humour-sentiments-inclusifs#xtor=RSS-149,"Tue, 27 Apr 2021 15:05:02 +0200",Le film d'animation et comédie familiale « Les Mitchell contre les machines » est disponible dès vendredi sur Netflix
Franceinfo - Les Titres,reseau,Ain : un jeune homme qui vendait des mortiers d'artifice sur les réseaux sociaux a été interpellé à Oyonnax,https://www.francetvinfo.fr/faits-divers/ain-un-jeune-homme-qui-vendait-des-mortiers-d-artifice-sur-les-reseaux-sociaux-a-ete-interpelle-a-oyonnax_4601841.html#xtor=RSS-3-[lestitres],"Tue, 27 Apr 2021 17:38:53 +0200",Les policiers ont trouvé 122 mortiers et un pistolet d'alarme. L'homme a été placé en garde à vue puis libéré.
Libération,tweet,Comment Thomas Pesquet tweete-t-il depuis l’espace ?,https://www.liberation.fr/checknews/comment-thomas-pesquet-tweete-t-il-depuis-lespace-20210427_W4HAXD7MYVGUBMPOCALXWIYBH4/,"Tue, 27 Apr 2021 17:30:04 +0000","Le spationaute ne «pousse pas le bouton» pour envoyer ses très réguliers messages mais il en est souvent à l’origine et peut très bien, s’il le souhaite, les envoyer lui-même depuis l’ISS."
Libération,facebook,Pourquoi CheckNews ne fait plus de fact-checking avec Facebook,https://www.liberation.fr/checknews/pourquoi-checknews-ne-fait-plus-de-fact-checking-avec-facebook-20210307_JAHVHU2NJRA5HAV7NTCUCWX3DE/,"Sun, 07 Mar 2021 09:46:45 +0000","Après un peu plus de trois ans de collaboration, «Libération» a mis un terme à son contrat de fact-checking avec Facebook fin 2020. Un choix cohérent avec notre stratégie éditoriale."
Libération,ordinateur,"Non, l'homme qui aurait «fouillé l'ordinateur de Nancy Pelosi» au Capitole n'a pas été retrouvé mort",https://www.liberation.fr/checknews/2021/01/14/non-l-homme-qui-aurait-fouille-l-ordinateur-de-nancy-pelosi-au-capitole-n-a-pas-ete-retrouve-mort_1817264/,"Thu, 14 Jan 2021 13:30:14 +0000","Le site Sputnik a confondu le suicide d'un homme qui s'était introduit au Capitole avec l'invasion du bureau de Nancy Pelosi, le 6 janvier, donnant lieu à des interprétations conspirationnistes."
Libération,securite,"Non, le directeur de l’Agence nationale de sécurité du médicament n'a pas démissionné à cause de scandales",https://www.liberation.fr/checknews/2020/12/02/non-le-directeur-de-l-agence-nationale-de-securite-du-medicament-n-a-pas-demissionne-a-cause-de-scan_1807291/,"Wed, 02 Dec 2020 07:35:07 +0000","Le départ de Dominique Martin a fait l'objet de nombreuses spéculations, poussant l'institution à publier une «mise au point»."
Libération,donnee,Soins palliatifs : pourquoi une nouvelle dérogation a-t-elle été donnée pour prescrire du Rivotril en Ehpad et en ville ?,https://www.liberation.fr/checknews/2020/11/07/soins-palliatifs-pourquoi-une-nouvelle-derogation-a-t-elle-ete-donnee-pour-prescrire-du-rivotril-en-_1804293/,"Sat, 07 Nov 2020 08:06:38 +0000","Comme au premier confinement, un décret permet aux médecins de ville de prescrire du Rivotril, un puissant sédatif utilisé en soins palliatifs, pour remplacer le midazolam."
Libération,censure,"Non, le «Financial Times» n'a pas censuré une tribune de Macron parce qu'elle contenait des «fake news»",https://www.liberation.fr/checknews/2020/11/07/non-le-financial-times-n-a-pas-censure-une-tribune-de-macron_1804831/,"Sat, 07 Nov 2020 07:36:44 +0000",Un article britannique relatant une passe d'armes entre le chef de l'Etat et la correspondante à Bruxelles du Financial Times a été compris de travers.
Libération,tweet,Comment Thomas Pesquet tweete-t-il depuis l’espace ?,https://www.liberation.fr/checknews/comment-thomas-pesquet-tweete-t-il-depuis-lespace-20210427_W4HAXD7MYVGUBMPOCALXWIYBH4/,"Tue, 27 Apr 2021 17:30:04 +0000","Le spationaute ne «pousse pas le bouton» pour envoyer ses très réguliers messages mais il en est souvent à l’origine et peut très bien, s’il le souhaite, les envoyer lui-même depuis l’ISS."
Libération,reconnaissance,"Enquête sur le tueur de Rambouillet, le monde au chevet de l’Inde et reconnaissance du génocide arménien par Joe Biden… L’actu du week-end",https://www.liberation.fr/societe/police-justice/enquete-sur-le-tueur-de-rambouillet-le-monde-au-chevet-de-linde-et-reconnaissance-du-genocide-armenien-par-joe-biden-lactu-du-week-end-20210425_TBZDZG4ZZNGUBAKXUNBGVP6OT4/,"Sun, 25 Apr 2021 18:15:56 +0000",
Libération,reconnaissance,"Reconnaissance du génocide arménien par Biden : la Turquie condamne, l’Arménie se réjouit",https://www.liberation.fr/international/amerique/biden-doit-reconnaitre-ce-samedi-le-genocide-armenien-apres-avoir-parle-avec-erdogan-20210424_ALUL4SYWTRF5LE7L2JX4N54EAM/,"Sat, 24 Apr 2021 09:26:28 +0000","Le démocrate est le premier président américain à reconnaître le génocide arménien ce samedi. Si la dimension symbolique de cette décision est forte, et risque de tendre les relations avec la Turquie, elle n’a pas de portée légale."
Le Figaro - Les dernières actualités à la une,securite,Thoma Bravo bâtit un empire dans la cybersécurité,https://www.lefigaro.fr/secteur/high-tech/thoma-bravo-batit-un-empire-dans-la-cybersecurite-20210427,"Tue, 27 Apr 2021 20:20:30 +0200","La société de capital-investissement rachète l’américain Proofpoint pour 12,3 milliards de dollars."
Le Figaro - Les dernières actualités à la une,hyper,"Joe Biden, 100 jours de présidence hyperactive",https://www.lefigaro.fr/international/joe-biden-100-jours-de-presidence-hyperactive-20210427,"Tue, 27 Apr 2021 20:56:02 +0200","RÉCIT - Le président démocrate, présenté comme centriste lors de la campagne de 2020, se révèle plus enclin que prévu à prendre des mesures radicales."
Le Point - En continu,facebook,Gilles Kepel : « Le Facebook du tueur de Rambouillet traduit bien son parcours »,https://www.lepoint.fr/societe/tueur-de-rambouillet-sa-page-facebook-traduit-bien-son-parcours-25-04-2021-2423655_23.php,"Tue, 27 Apr 2021 14:20:00 +0200","ENTRETIEN. Le profil de Jamel Gorchene est inquietant, comme le montre le specialiste de l'islam, qui a pu etudier son activite sur les reseaux sociaux."
Le Point - En continu,reconnaissance,Les Turcs arméniens font profil bas après la reconnaissance du génocide par Washington,https://www.lepoint.fr/monde/les-turcs-armeniens-font-profil-bas-apres-la-reconnaissance-du-genocide-par-washington-27-04-2021-2423921_24.php,"Tue, 27 Apr 2021 12:36:00 +0200","Chauffee a blanc par les medias progouvernementaux, l'opinion publique en Turquie est tres remontee contre les Etats-Unis depuis la reconnaissance,..."
Le Point - En continu,censure,"Covid-19 en Inde : critiqué, le gouvernement censure les réseaux sociaux",https://www.lepoint.fr/monde/covid-19-en-inde-critique-le-gouvernement-censure-les-reseaux-sociaux-26-04-2021-2423839_24.php,"Mon, 26 Apr 2021 21:08:00 +0200","Le gouvernement a demande a Facebook, Instagram et Twitter de supprimer une centaine de posts qui fustigeaient sa gestion, indique << The New York Times   >>."
Le Point - En continu,reseau,"Covid-19 en Inde : critiqué, le gouvernement censure les réseaux sociaux",https://www.lepoint.fr/monde/covid-19-en-inde-critique-le-gouvernement-censure-les-reseaux-sociaux-26-04-2021-2423839_24.php,"Mon, 26 Apr 2021 21:08:00 +0200","Le gouvernement a demande a Facebook, Instagram et Twitter de supprimer une centaine de posts qui fustigeaient sa gestion, indique << The New York Times   >>."
Le Point - En continu,donnee,Pourquoi les données de connexion continuent d’être conservées,https://www.lepoint.fr/editos-du-point/laurence-neuer/pourquoi-les-donnees-de-connexion-continuent-d-etre-conservees-26-04-2021-2423752_56.php,"Mon, 26 Apr 2021 10:00:00 +0200","Pour le Conseil d'Etat, l'acces aux donnees se justifie par la prevention des atteintes a l'ordre public et la recherche des auteurs d'infractions penales."
La Tribune,programmation,"Covid-19 en 24h : plans de relance, variant sud-africain, « déprogrammation administrative »...",https://www.latribune.fr/economie/france/covid-19-en-24h-plans-de-relance-variant-sud-africain-deprogrammation-administrative-883373.html,"Tue, 27 Apr 2021 18:30:00 +0200","Alors que le variant sud-africain se diffuse en France et particulièrement en Ile-de-France, le ministre de l'Economie Bruno Le Maire appelle la Commission européenne à examiner rapidement les plans de relance pour aider les économies face à la crise. De leur côté, des médecins libéraux s'inquiètent de la « déprogrammation administrative » d'opérations face à la troisième vague… Voici le graphique et les informations éclairantes de ces dernières 24 heures à suivre sur l'actualité Covid, en France et dans le monde."
L'actualité par l'Humanite.fr,securite,Sécurité. Les algorithmes au service de l’antiterrorisme ?,https://www.humanite.fr/securite-les-algorithmes-au-service-de-lantiterrorisme-705060#xtor=RSS-1,"Tue, 27 Apr 2021 18:00:02 +0000","<p>Après l’attaque de Rambouillet, le projet de loi présenté ce mercredi veut pérenniser le traitement automatique des données sur Internet. Au risque d’une surveillance de masse.</p>"
L'actualité par l'Humanite.fr,algorithme,Sécurité. Les algorithmes au service de l’antiterrorisme ?,https://www.humanite.fr/securite-les-algorithmes-au-service-de-lantiterrorisme-705060#xtor=RSS-1,"Tue, 27 Apr 2021 18:00:02 +0000","<p>Après l’attaque de Rambouillet, le projet de loi présenté ce mercredi veut pérenniser le traitement automatique des données sur Internet. Au risque d’une surveillance de masse.</p>"
L'actualité par l'Humanite.fr,numerique,Télévision. Les réalités de l’exploitation à l’heure du numérique,https://www.humanite.fr/television-les-realites-de-lexploitation-lheure-du-numerique-704943#xtor=RSS-1,"Tue, 27 Apr 2021 06:17:07 +0000","<p>Dans le cadre d’une soirée spéciale sur le travail, Arte propose, ce mardi, un focus sur la main-d’œuvre, pour une part invisible, des plateformes en ligne.</p>"
Les 50 derniers articles du journal La Croix,algorithme,"Radicalisation, des algorithmes pour traquer les signaux faibles",https://www.la-croix.com/JournalV2/Radicalisation-algorithmes-traquer-signaux-faibles-2021-04-28-1101153045,"Wed, 28 Apr 2021 06:00:00 GMT","L’attentat  de Rambouillet, vendredi 23 avril, a été commis  par un individu radicalisé, passé sous les radars."
Les 50 derniers articles du journal La Croix,donnee,"En Russie, le Kremlin fait la chasse aux receleurs de données",https://www.la-croix.com/JournalV2/En-Russie-Kremlin-fait-chasse-receleurs-donnees-2021-04-28-1101153017,"Wed, 28 Apr 2021 06:00:00 GMT","Après les révélations du groupe Bellingcat, le Kremlin s’attaque avec difficulté au marché noir des données personnelles, florissant en Russie."
LEXPRESS.fr - Rss A la Une,reconnaissance,Les Turcs arméniens font profil bas après la reconnaissance du génocide par Washington,https://www.lexpress.fr/actualites/1/monde/les-turcs-armeniens-font-profil-bas-apres-la-reconnaissance-du-genocide-par-washington_2149683.html,"Tue, 27 Apr 2021 12:34:05 +0200","Istanbul - Chauffée à blanc par les médias progouvernementaux, l&#039;opinion publique en Turquie est très remontée contre les Etats-Unis depuis la reconnaissance, samedi, du génocide arménien par Joe Biden. Craignant de devenir la cible de cette colère, la petite communauté arménienne fait profil bas."
L'Obs - A la une,algorithme,Loi antiterroriste : l’utilisation des algorithmes pour déceler des menaces pose question,https://www.nouvelobs.com/terrorisme/20210427.OBS43337/loi-antiterroriste-l-utilisation-des-algorithmes-pour-deceler-des-menaces-pose-question.html,"Tue, 27 Apr 2021 14:08:49 +0200",L’inscription dans la loi de l’utilisation d’algorithmes pour repérer des individus suspectés de terrorisme interroge sur les garanties en termes de protection des données et de libertés individuelles. Le point sur les nouvelles marges de manœuvre des services de renseignement.
Courrier international - Actualités France et Monde,artificielle,Un secret des rouleaux de la mer Morte révélé par l’intelligence artificielle,https://www.courrierinternational.com/article/origines-un-secret-des-rouleaux-de-la-mer-morte-revele-par-lintelligence-artificielle,"Tue, 27 Apr 2021 15:10:23 +0200","Grâce à l’intelligence artificielle, des chercheurs néerlandais ont identifié différents styles d’écriture prouvant que les manuscrits ont été écrits par deux scribes et non un seul, contrairement à l’opinion admise jusqu’à présent."
Courrier international - Actualités France et Monde,intelligence,Un secret des rouleaux de la mer Morte révélé par l’intelligence artificielle,https://www.courrierinternational.com/article/origines-un-secret-des-rouleaux-de-la-mer-morte-revele-par-lintelligence-artificielle,"Tue, 27 Apr 2021 15:10:23 +0200","Grâce à l’intelligence artificielle, des chercheurs néerlandais ont identifié différents styles d’écriture prouvant que les manuscrits ont été écrits par deux scribes et non un seul, contrairement à l’opinion admise jusqu’à présent."
Courrier international - Actualités France et Monde,algorithme,"Pour lutter contre le terrorisme, la France mise sur les algorithmes",https://www.courrierinternational.com/article/vu-de-suisse-pour-lutter-contre-le-terrorisme-la-france-mise-sur-les-algorithmes,"Mon, 26 Apr 2021 13:29:33 +0200","Après l’attaque qui a coûté la vie à une policière à Rambouillet, la question des moyens disponibles pour prévenir les attentats est de nouveau sur la table. La France, qui a adopté une série de lois contre le terrorisme depuis 2015, pourrait à nouveau renforcer son arsenal législatif, explique ce journaliste suisse."
Courrier international - Actualités France et Monde,facebook,Comment Facebook laisse des dirigeants tromper leur population,https://www.courrierinternational.com/article/revelations-comment-facebook-laisse-des-dirigeants-tromper-leur-population,"Sat, 24 Apr 2021 16:23:33 +0200","Un utilisateur de Facebook ne peut avoir qu’un seul compte. Mais il peut créer plusieurs pages capables de liker, commenter, partager d’autres comptes, et ainsi créer du “faux engagement”. Cette faille dans la réglementation de Facebook contribue à de vastes opérations de manipulation, révèle une enquête du quotidien britannique <em>The Guardian</em>."
Courrier international - Actualités France et Monde,puce,Comment le Taïwanais TSMC est devenu le géant des puces,https://www.courrierinternational.com/article/electronique-comment-le-taiwanais-tsmc-est-devenu-le-geant-des-puces,"Sat, 24 Apr 2021 06:11:57 +0200","L’entreprise taïwanaise a discrètement bâti sa domination dans l’univers des semi-conducteurs. Elle est au cœur d’enjeux stratégiques alors qu’une pénurie mondiale freine la production automobile et reporte la sortie de consoles, ordinateurs et smartphones."
Courrier international - Actualités France et Monde,surveillance,La médina de Marrakech s’équipe de centaines de caméras de surveillance,https://www.courrierinternational.com/article/maroc-la-medina-de-marrakech-sequipe-de-centaines-de-cameras-de-surveillance,"Fri, 23 Apr 2021 15:40:48 +0200",La médina de Marrakech abritera prochainement des caméras à reconnaissance faciale. Le projet vise à sécuriser et à mettre en valeur la zone prisée par les touristes. Mais ne pose-t-il pas un problème d’intrusion dans la vie privée ? La presse marocaine s’interroge.
Courrier international - Actualités France et Monde,drone,Dans les coulisses du laboratoire suisse qui a révolutionné la soufflerie pour drones,https://www.courrierinternational.com/article/ingenuity-et-compagnie-dans-les-coulisses-du-laboratoire-suisse-qui-revolutionne-la,"Fri, 23 Apr 2021 05:45:05 +0200","Il y a quelques jours, le drone hélicoptère Ingenuity a accompli son premier vol dans l’atmosphère martienne. Reportage à Genève, dans le laboratoire à l’origine de la soufflerie qui a permis de tester cette technologie."
Courrier international - Actualités France et Monde,artificielle,L’Europe veut limiter le côté obscur de l’intelligence artificielle,https://www.courrierinternational.com/article/algorithmes-leurope-veut-limiter-le-cote-obscur-de-lintelligence-artificielle,"Thu, 22 Apr 2021 16:50:59 +0200","Le projet de règlement sur l’intelligence artificielle présenté mercredi 21 avril par la Commission européenne fixe un cadre contraignant à l’utilisation des algorithmes. La reconnaissance faciale, l’évaluation ciblée des comportements ou la manipulation des personnes seront contrôlées. Une démarche inédite saluée par la presse internationale."
Courrier international - Actualités France et Monde,intelligence,L’Europe veut limiter le côté obscur de l’intelligence artificielle,https://www.courrierinternational.com/article/algorithmes-leurope-veut-limiter-le-cote-obscur-de-lintelligence-artificielle,"Thu, 22 Apr 2021 16:50:59 +0200","Le projet de règlement sur l’intelligence artificielle présenté mercredi 21 avril par la Commission européenne fixe un cadre contraignant à l’utilisation des algorithmes. La reconnaissance faciale, l’évaluation ciblée des comportements ou la manipulation des personnes seront contrôlées. Une démarche inédite saluée par la presse internationale."
LEXPRESS.fr - RSS Tout L'Entreprise,intelligence,A paraître demain : nos sept formes d'intelligence.,https://blogs.lentreprise.com/le-management-dans-tous-ses-etats/2020/01/20/a-paraitre-demain-nos-sept-formes-dintelligence/,"Mon, 20 Jan 2020 07:51:43 +0100","De juillet 2017 à septembre 2018, j&#039;avais rédigé sur ce blog une série de vingt cinq articles sur les intelligences managériales. Mon éditeur &quot; Jouvence &quot;, m&#039;a sollicité pour en faire un guide pratique destiné non seulement aux managers , mais à tous les publics. [...]"
LEXPRESS.fr - RSS Tout L'Entreprise,reseau,Carnet d'adresses: les réseaux de femmes entrepreneures qui comptent,https://lentreprise.lexpress.fr/outils-classements/annuaires/carnet-d-adresses-des-reseaux-de-femmes-entrepreneures_1523138.html,"Wed, 07 Mar 2012 18:59:00 +0100","Que ce soit pour rompre sa solitude de femme dirigeante ou pour trouver de nouveaux contacts, voici une sélection &quot;non exhaustive&quot; d&#039;adresses de réseaux 100% féminins."
FranceSoir - Articles de la rédaction,deep,"""Covid-19, une maladie bénigne, pas de panique"" Dr Randeep Guleria, ""rassuriste"" indien",https://www.francesoir.fr/societe-sante/covid-19-est-une-maladie-benigne-pas-de-panique-inde,"Tue, 27 Apr 2021 16:01:18 +0200","Un article paru hier dans Eastern Times dans la section santé déclare que de l’avis du Dr Guleria « une panique inutile est créée ».
«Covid-19 est une maladie bénigne et il n'y a pas lieu de paniquer», a déclaré dimanche le directeur de l'AIIMS, le Dr Randeep Guleria, tout en abordant les problèmes...  - Lire la suite sur FranceSoir.fr 

  
          
            
                  <img alt="""" height=""427"" src=""https://www.francesoir.fr/sites/francesoir/files/guleria_field_mise_en_avant_principale_1_0.png"" width=""1067"" />
                        
    
        
            
                  FS - <a href=""https://www.francesoir.fr/societe-sante/covid-19-est-une-maladie-benigne-pas-de-panique-inde"">""Covid-19, une maladie bénigne, pas de panique"" Dr Randeep Guleria, ""rassuriste"" indien</a>"
FranceSoir - Articles de la rédaction,gafa,"« Bohème Agafay » à Marrakech, le nouveau spot branché du désert",https://www.francesoir.fr/lifestyle-tourisme/tourisme-marrakech-boheme-agafay-le-nouveau-spot-branche-du-desert,"Tue, 27 Apr 2021 03:41:56 +0200","On le surnomme déjà  le Nikki Beach du désert, du nom de cette célèbre chaine de clubs festifs et branchés. « Bohème Agafay » est « the new place to be » de la ville ocre face aux montagnes de l’Atlas où se bousculent déjà clients et people.
En ces temps pandémiques, l’industrie du tourisme doit se...  - Lire la suite sur FranceSoir.fr 

  
          
            
                  <img alt="""" height=""444"" src=""https://www.francesoir.fr/sites/francesoir/files/img_5563_field_mise_en_avant_principale_1_0.jpg"" width=""1111"" />
                        
    
        
            
                  Marrakech Agafay - <a href=""https://www.francesoir.fr/lifestyle-tourisme/tourisme-marrakech-boheme-agafay-le-nouveau-spot-branche-du-desert"">« Bohème Agafay » à Marrakech, le nouveau spot branché du désert</a>"
FranceSoir - Articles de la rédaction,surveillance,"L'UE propose un encadrement de l’IA, de la surveillance et de la reconnaissance faciale",https://www.francesoir.fr/societe-science-tech/lue-propose-un-encadrement-de-lia-de-la-surveillance-et-de-la-reconnaissance,"Mon, 26 Apr 2021 10:43:59 +0200","Pour mieux encadrer les nouvelles technologies sans que les citoyens en soient forcément conscients, la Commission européenne a présenté le 21 avril dernier une proposition de règlement visant à harmoniser et réglementer les applications en matière d’intelligence artificielle, de reconnaissance...  - Lire la suite sur FranceSoir.fr 

  
          
            
                  <img alt="""" height=""439"" src=""https://www.francesoir.fr/sites/francesoir/files/technology-4256272_1920_field_mise_en_avant_principale_1_0.jpg"" width=""1098"" />
                        
    
        
            
                  Pixabay - <a href=""https://www.francesoir.fr/societe-science-tech/lue-propose-un-encadrement-de-lia-de-la-surveillance-et-de-la-reconnaissance"">L&#039;UE propose un encadrement de l’IA, de la surveillance et de la reconnaissance faciale</a>"
FranceSoir - Articles de la rédaction,reconnaissance,"L'UE propose un encadrement de l’IA, de la surveillance et de la reconnaissance faciale",https://www.francesoir.fr/societe-science-tech/lue-propose-un-encadrement-de-lia-de-la-surveillance-et-de-la-reconnaissance,"Mon, 26 Apr 2021 10:43:59 +0200","Pour mieux encadrer les nouvelles technologies sans que les citoyens en soient forcément conscients, la Commission européenne a présenté le 21 avril dernier une proposition de règlement visant à harmoniser et réglementer les applications en matière d’intelligence artificielle, de reconnaissance...  - Lire la suite sur FranceSoir.fr 

  
          
            
                  <img alt="""" height=""439"" src=""https://www.francesoir.fr/sites/francesoir/files/technology-4256272_1920_field_mise_en_avant_principale_1_0.jpg"" width=""1098"" />
                        
    
        
            
                  Pixabay - <a href=""https://www.francesoir.fr/societe-science-tech/lue-propose-un-encadrement-de-lia-de-la-surveillance-et-de-la-reconnaissance"">L&#039;UE propose un encadrement de l’IA, de la surveillance et de la reconnaissance faciale</a>"
FranceSoir - Articles de la rédaction,censure,YouTube censure un entretien avec Christian Perronne,https://www.francesoir.fr/societe-sante/youtube-censure-perronne-entretien,"Sun, 25 Apr 2021 15:40:02 +0200","Le professeur Perronne, qui avait donné un entretien au ""Média en 4-4-2"" dans la lignée de son Entretien essentiel chez FranceSoir à l'occasion de la sortie de son dernier livre, a vu la vidéo être censurée par YouTube. Une mésaventure qu'a connue FranceSoir, mais aussi Sud Radio qui avait publié...  - Lire la suite sur FranceSoir.fr 

  
          
            
                  <img alt="""" height=""480"" src=""https://www.francesoir.fr/sites/francesoir/files/censure_perronne03_field_mise_en_avant_principale_1_0.png"" width=""1200"" />
                        
    
        
            
                  Le média en 4-4-2 - <a href=""https://www.francesoir.fr/societe-sante/youtube-censure-perronne-entretien"">YouTube censure un entretien avec Christian Perronne </a>"
FranceSoir - Articles de la rédaction,internet,6G: la Chine influence les nouveaux standards et menace l’Internet libre,https://www.francesoir.fr/societe-science-tech/6g-la-chine-influence-les-nouveaux-standards-menace-linternet-libre,"Sat, 24 Apr 2021 17:03:40 +0200","Alors que la 5G fait encore débat, la prochaine étape technologique se dessine déjà. La Chine, notamment, compte influencer encore plus l’évolution du Web avec l’arrivée de la 6G. L’Union européenne, loin derrière les pays asiatiques en matière de déploiement de cette technologie, se projette dans...  - Lire la suite sur FranceSoir.fr 

  
          
            
                  <img alt="""" height=""444"" src=""https://www.francesoir.fr/sites/francesoir/files/samsung-galaxynote7-francesoir_0_field_mise_en_avant_principale_1_0.jpg"" width=""1111"" />
                        
    
        
            
                  AFP - <a href=""https://www.francesoir.fr/societe-science-tech/6g-la-chine-influence-les-nouveaux-standards-menace-linternet-libre"">6G: la Chine influence les nouveaux standards et menace l’Internet libre</a>"
