Le Monde.fr - Actualités et Infos en France et dans le monde,instagram,"Donald Trump reste banni de Facebook et Instagram, mais son cas sera réexaminé",https://www.lemonde.fr/pixels/article/2021/05/05/donald-trump-reste-banni-de-facebook-et-instagram-mais-son-cas-sera-reexamine_6079229_4408996.html,"Wed, 05 May 2021 15:40:03 +0200","La « cour suprême » de Facebook a estimé que le réseau social a eu raison de suspendre Donald Trump, mais qu’il ne peut laisser ses comptes suspendus sans limite de temps."
Le Monde.fr - Actualités et Infos en France et dans le monde,facebook,"Donald Trump reste banni de Facebook et Instagram, mais son cas sera réexaminé",https://www.lemonde.fr/pixels/article/2021/05/05/donald-trump-reste-banni-de-facebook-et-instagram-mais-son-cas-sera-reexamine_6079229_4408996.html,"Wed, 05 May 2021 15:40:03 +0200","La « cour suprême » de Facebook a estimé que le réseau social a eu raison de suspendre Donald Trump, mais qu’il ne peut laisser ses comptes suspendus sans limite de temps."
20Minutes - Une,facebook,"Facebook : La suspension de Donald Trump confirmée, « une honte absolue » selon l'ex-président",https://www.20minutes.fr/monde/3035311-20210505-facebook-suspension-donald-trump-confirmee-conseil-surveillance-reseau-social#xtor=RSS-149,"Wed, 05 May 2021 17:40:20 +0200",Les sages de Facebook ont estimé que la suspension de l’ancien président américain après l’attaque du Capitole était justifiée. Mais elle fera l'objet d'un réexamen dans les six mois
20Minutes - Une,application,TikTok : Comment faites-vous pour restreindre votre usage de l’application ? Racontez-nous,https://www.20minutes.fr/arts-stars/culture/3034615-20210504-tiktok-comment-faites-restreindre-usage-application#xtor=RSS-149,"Tue, 04 May 2021 18:47:37 +0200","Limitation du temps d'utilisation, voire suppression totale de l’application, parvenez-vous à vous fixer des règles lorsque vous êtes sur TikTok ?"
Franceinfo - Les Titres,telephone,Fortnite contre Apple : ce qu'il faut savoir sur cette bataille royale qui se joue au tribunal et dans votre téléphone,https://www.francetvinfo.fr/internet/apple/fortnite-contre-apple-ce-qu-il-faut-savoir-sur-cette-bataille-royale-qui-se-joue-au-tribunal-et-dans-votre-telephone_4610717.html#xtor=RSS-3-[lestitres],"Wed, 05 May 2021 19:44:44 +0200","Epic Games, qui a développé Fortnite, accuse le géant californien d'abuser de son pouvoir&nbsp;en prenant&nbsp;une importante commission sur les gains réalisés par le jeu. Le procès s'est ouvert lundi aux Etats-Unis."
Franceinfo - Les Titres,apple,Fortnite contre Apple : ce qu'il faut savoir sur cette bataille royale qui se joue au tribunal et dans votre téléphone,https://www.francetvinfo.fr/internet/apple/fortnite-contre-apple-ce-qu-il-faut-savoir-sur-cette-bataille-royale-qui-se-joue-au-tribunal-et-dans-votre-telephone_4610717.html#xtor=RSS-3-[lestitres],"Wed, 05 May 2021 19:44:44 +0200","Epic Games, qui a développé Fortnite, accuse le géant californien d'abuser de son pouvoir&nbsp;en prenant&nbsp;une importante commission sur les gains réalisés par le jeu. Le procès s'est ouvert lundi aux Etats-Unis."
Franceinfo - Les Titres,securite,"Conflits, pandémie, chocs climatiques... L'insécurité alimentaire a atteint son plus haut niveau en 2020",https://www.francetvinfo.fr/monde/conflits-pandemie-chocs-climatiques-l-insecurite-alimentaire-a-atteint-son-plus-haut-niveau-en-2020_4612275.html#xtor=RSS-3-[lestitres],"Wed, 05 May 2021 17:53:23 +0200","En 2020, 155 millions de personnes dans 55 pays se trouvaient dans une situation de ""crise"" liée à l'insécurité alimentaire."
Franceinfo - Les Titres,surveillance,Le conseil de surveillance de Facebook confirme l'interdiction de Donald Trump sur le réseau social,https://www.francetvinfo.fr/monde/usa/presidentielle/donald-trump/le-conseil-de-surveillance-de-facebook-confirme-l-interdiction-de-donald-trump-sur-le-reseau-social_4612145.html#xtor=RSS-3-[lestitres],"Wed, 05 May 2021 16:13:02 +0200",L'ancien chef de cabinet de Donald Trump a&nbsp;estimé&nbsp;que cette décision&nbsp;aurait un effet dissuasif sur la liberté d'expression.
Franceinfo - Les Titres,facebook,Le conseil de surveillance de Facebook confirme l'interdiction de Donald Trump sur le réseau social,https://www.francetvinfo.fr/monde/usa/presidentielle/donald-trump/le-conseil-de-surveillance-de-facebook-confirme-l-interdiction-de-donald-trump-sur-le-reseau-social_4612145.html#xtor=RSS-3-[lestitres],"Wed, 05 May 2021 16:13:02 +0200",L'ancien chef de cabinet de Donald Trump a&nbsp;estimé&nbsp;que cette décision&nbsp;aurait un effet dissuasif sur la liberté d'expression.
Franceinfo - Les Titres,reseau,Le conseil de surveillance de Facebook confirme l'interdiction de Donald Trump sur le réseau social,https://www.francetvinfo.fr/monde/usa/presidentielle/donald-trump/le-conseil-de-surveillance-de-facebook-confirme-l-interdiction-de-donald-trump-sur-le-reseau-social_4612145.html#xtor=RSS-3-[lestitres],"Wed, 05 May 2021 16:13:02 +0200",L'ancien chef de cabinet de Donald Trump a&nbsp;estimé&nbsp;que cette décision&nbsp;aurait un effet dissuasif sur la liberté d'expression.
Libération,tweet,Comment Thomas Pesquet tweete-t-il depuis l’espace ?,https://www.liberation.fr/checknews/comment-thomas-pesquet-tweete-t-il-depuis-lespace-20210427_W4HAXD7MYVGUBMPOCALXWIYBH4/,"Tue, 27 Apr 2021 17:30:04 +0000","Le spationaute ne «pousse pas le bouton» pour envoyer ses très réguliers messages mais il en est souvent à l’origine et peut très bien, s’il le souhaite, les envoyer lui-même depuis l’ISS."
Libération,facebook,Pourquoi CheckNews ne fait plus de fact-checking avec Facebook,https://www.liberation.fr/checknews/pourquoi-checknews-ne-fait-plus-de-fact-checking-avec-facebook-20210307_JAHVHU2NJRA5HAV7NTCUCWX3DE/,"Sun, 07 Mar 2021 09:46:45 +0000","Après un peu plus de trois ans de collaboration, «Libération» a mis un terme à son contrat de fact-checking avec Facebook fin 2020. Un choix cohérent avec notre stratégie éditoriale."
Libération,ordinateur,"Non, l'homme qui aurait «fouillé l'ordinateur de Nancy Pelosi» au Capitole n'a pas été retrouvé mort",https://www.liberation.fr/checknews/2021/01/14/non-l-homme-qui-aurait-fouille-l-ordinateur-de-nancy-pelosi-au-capitole-n-a-pas-ete-retrouve-mort_1817264/,"Thu, 14 Jan 2021 13:30:14 +0000","Le site Sputnik a confondu le suicide d'un homme qui s'était introduit au Capitole avec l'invasion du bureau de Nancy Pelosi, le 6 janvier, donnant lieu à des interprétations conspirationnistes."
Libération,securite,"Non, le directeur de l’Agence nationale de sécurité du médicament n'a pas démissionné à cause de scandales",https://www.liberation.fr/checknews/2020/12/02/non-le-directeur-de-l-agence-nationale-de-securite-du-medicament-n-a-pas-demissionne-a-cause-de-scan_1807291/,"Wed, 02 Dec 2020 07:35:07 +0000","Le départ de Dominique Martin a fait l'objet de nombreuses spéculations, poussant l'institution à publier une «mise au point»."
Libération,facebook,Facebook confirme le bannissement de Trump,https://www.liberation.fr/international/amerique/facebook-confirme-le-bannissement-de-trump-20210505_JDH23US44FH2ZJUQ2QVYU2N3DI/,"Wed, 05 May 2021 13:46:00 +0000",L’ex locataire de la Maison Blanche avait été banni du réseau social après l’assaut du Capitole par ses partisans en janvier. Le Conseil de surveillance de Facebook a décidé mercredi que Donald Trump restait banni du réseau social.
Libération,internet,"Yahoo et AOL, deux légendes d’Internet bradées par Verizon",https://www.liberation.fr/economie/economie-numerique/yahoo-et-aol-deux-legendes-dinternet-bradees-par-verizon-20210505_BYEAU7X4DFGZDGUNCDU3LWABN4/,"Wed, 05 May 2021 13:18:14 +0000","L’opérateur télécom américain a cédé sa division média à un fonds d’investissement pour 4,2 milliards d’euros. Il était le propriétaire de ces deux marques mythiques du web qui n’ont pas su résister à la concurrence de Google ou Facebook."
Libération,vie-privee,"Covid-19 : pour la Défenseure des droits, «le droit à la vie privée et familiale a été grandement entravé» dans les Ehpad",https://www.liberation.fr/societe/sante/covid-19-pour-la-defenseure-des-droits-le-droit-a-la-vie-privee-et-familiale-a-ete-grandement-entrave-dans-les-ehpad-20210504_5CQWVSNXYVFK3EO746VIMVKRAI/,"Tue, 04 May 2021 12:10:04 +0000","Dans un rapport publié ce mardi, Claire Hédon fait le bilan des restrictions, encore plus importantes que dans le reste de la société. Des restrictions qui entraînent une très grande souffrance chez un grand nombre de résidents."
Le Point - En continu,facebook,Le conseil des sages de Facebook confirme l'interdiction de Trump sur le réseau social,https://www.lepoint.fr/monde/le-conseil-des-sages-de-facebook-attendu-au-tournant-sur-le-compte-de-trump-05-05-2021-2425077_24.php,"Wed, 05 May 2021 19:36:00 +0200","Le geant des reseaux sociaux a eu raison d'interdire a l'ancien president americain Donald Trump de poster des messages sur Facebook et Instagram,..."
Le Point - En continu,reseau,Le conseil des sages de Facebook confirme l'interdiction de Trump sur le réseau social,https://www.lepoint.fr/monde/le-conseil-des-sages-de-facebook-attendu-au-tournant-sur-le-compte-de-trump-05-05-2021-2425077_24.php,"Wed, 05 May 2021 19:36:00 +0200","Le geant des reseaux sociaux a eu raison d'interdire a l'ancien president americain Donald Trump de poster des messages sur Facebook et Instagram,..."
Le Point - En continu,reconnaissance,"""Halte au mépris"": sages-femmes ""en colère"" cherchent reconnaissance",https://www.lepoint.fr/societe/halte-au-mepris-les-sages-femmes-en-colere-donnent-de-la-voix-05-05-2021-2425167_23.php,"Wed, 05 May 2021 17:18:00 +0200","""Faut pas pousser"", ""ras le col"": des sages-femmes ont manifeste mercredi en France dans le cadre de la journee internationale qui leur est..."
Le Point - En continu,twitter,"Banni de Facebook et de Twitter, Trump lance sa plateforme de communication",https://www.lepoint.fr/monde/banni-de-facebook-et-de-twitter-trump-lance-sa-plateforme-de-communication-05-05-2021-2425190_24.php,"Wed, 05 May 2021 16:11:00 +0200","Loin d'etre un veritable reseau, Donald Trump publie desormais de courts messages sur une plateforme qui ressemble a un simple blog, rapporte Fox News."
Le Point - En continu,facebook,"Banni de Facebook et de Twitter, Trump lance sa plateforme de communication",https://www.lepoint.fr/monde/banni-de-facebook-et-de-twitter-trump-lance-sa-plateforme-de-communication-05-05-2021-2425190_24.php,"Wed, 05 May 2021 16:11:00 +0200","Loin d'etre un veritable reseau, Donald Trump publie desormais de courts messages sur une plateforme qui ressemble a un simple blog, rapporte Fox News."
Le Point - En continu,surveillance,Le conseil de surveillance de Facebook confirme l’interdiction de Trump sur le réseau social,https://www.lepoint.fr/monde/le-conseil-de-surveillance-de-facebook-confirme-l-interdiction-de-trump-sur-le-reseau-social-05-05-2021-2425189_24.php,"Wed, 05 May 2021 15:42:00 +0200",Facebook avait en effet decide de suspendre jusqu'a nouvel ordre le compte de Donald Trump au lendemain de l'invasion du Capitole.
Le Point - En continu,facebook,Le conseil de surveillance de Facebook confirme l’interdiction de Trump sur le réseau social,https://www.lepoint.fr/monde/le-conseil-de-surveillance-de-facebook-confirme-l-interdiction-de-trump-sur-le-reseau-social-05-05-2021-2425189_24.php,"Wed, 05 May 2021 15:42:00 +0200",Facebook avait en effet decide de suspendre jusqu'a nouvel ordre le compte de Donald Trump au lendemain de l'invasion du Capitole.
Le Point - En continu,reseau,Le conseil de surveillance de Facebook confirme l’interdiction de Trump sur le réseau social,https://www.lepoint.fr/monde/le-conseil-de-surveillance-de-facebook-confirme-l-interdiction-de-trump-sur-le-reseau-social-05-05-2021-2425189_24.php,"Wed, 05 May 2021 15:42:00 +0200",Facebook avait en effet decide de suspendre jusqu'a nouvel ordre le compte de Donald Trump au lendemain de l'invasion du Capitole.
Le Point - En continu,surveillance,Le conseil de surveillance de Facebook confirme l'interdiction de Trump sur le réseau social,https://www.lepoint.fr/monde/le-conseil-de-surveillance-de-facebook-confirme-l-interdiction-de-trump-sur-le-reseau-social-05-05-2021-2425187_24.php,"Wed, 05 May 2021 15:29:00 +0200",Le conseil de surveillance de Facebook a decide mercredi de maintenir la decision prise par le groupe d'interdire a l'ancien president americain...
Le Point - En continu,facebook,Le conseil de surveillance de Facebook confirme l'interdiction de Trump sur le réseau social,https://www.lepoint.fr/monde/le-conseil-de-surveillance-de-facebook-confirme-l-interdiction-de-trump-sur-le-reseau-social-05-05-2021-2425187_24.php,"Wed, 05 May 2021 15:29:00 +0200",Le conseil de surveillance de Facebook a decide mercredi de maintenir la decision prise par le groupe d'interdire a l'ancien president americain...
Le Point - En continu,reseau,Le conseil de surveillance de Facebook confirme l'interdiction de Trump sur le réseau social,https://www.lepoint.fr/monde/le-conseil-de-surveillance-de-facebook-confirme-l-interdiction-de-trump-sur-le-reseau-social-05-05-2021-2425187_24.php,"Wed, 05 May 2021 15:29:00 +0200",Le conseil de surveillance de Facebook a decide mercredi de maintenir la decision prise par le groupe d'interdire a l'ancien president americain...
Le Point - En continu,numerique,Comment les entreprises sabordent leurs efforts numériques,https://www.lepoint.fr/high-tech-internet/comment-les-entreprises-sabordent-leurs-efforts-numeriques-05-05-2021-2425138_47.php,"Wed, 05 May 2021 13:00:00 +0200",Une etude montre que les equipes reseau et cybersecurite ont des relations tellement << dysfonctionnelles >> qu'elles compromettent leurs interets communs.
Le Point - En continu,mobile,Carlos Tavares : « Les lobbys anti-automobile sont très puissants »,https://www.lepoint.fr/economie/carlos-tavares-les-lobbys-anti-automobile-sont-tres-puissants-04-05-2021-2424867_28.php,"Wed, 05 May 2021 11:24:00 +0200","Ecologie, relocalisations, Chine... Le directeur general de Stellantis, ne de la fusion entre PSA et Fiat Chrysler Automobiles, devoile son plan de route."
Le Point - En continu,securite,"Mozambique: l'exode continue dans le nord, sécurité précaire",https://www.lepoint.fr/monde/mozambique-l-exode-continue-dans-le-nord-securite-precaire-05-05-2021-2425104_24.php,"Wed, 05 May 2021 09:12:00 +0200","Six semaines apres l'attaque de groupes armes jihadistes contre Palma, dans l'extreme nord du Mozambique, des centaines de refugies epuises..."
Le Point - En continu,surveillance,Vidéosurveillance des chauffeurs-livreurs : que dit le droit ?,https://www.lepoint.fr/editos-du-point/laurence-neuer/videosurveillance-des-chauffeurs-livreurs-que-dit-le-droit-04-05-2021-2424899_56.php,"Tue, 04 May 2021 14:00:00 +0200",Les chauffeurs-livreurs d'Amazon doivent accepter la presence de cameras embarquees dans leurs vehicules : l'exemple americain est-il duplicable en France ?
Le Point - En continu,amazon,Amazon officialise son implantation à Metz et promet 1.000 emplois sur trois ans,https://www.lepoint.fr/societe/amazon-officialise-son-implantation-a-metz-et-promet-1-000-emplois-sur-trois-ans-04-05-2021-2424791_23.php,"Tue, 04 May 2021 13:49:00 +0200","Le geant americain de la vente en ligne Amazon a prevu d'ouvrir ""a l'ete 2021"" un entrepot de grande taille situe dans la metropole de Metz, et a..."
Le Point - En continu,mobile,Le marché automobile pénalisé par la pénurie de puces électroniques,https://www.lepoint.fr/automobile/le-marche-automobile-penalise-par-la-penurie-de-puces-electroniques-04-05-2021-2424778_646.php,"Tue, 04 May 2021 07:00:00 +0200","En reprise nette, le marche automobile francais n'a toutefois pas encore retrouve son niveau d'avant-crise avec une baisse de plus de 20 % par rapport a 2019."
Le Point - En continu,puce,Le marché automobile pénalisé par la pénurie de puces électroniques,https://www.lepoint.fr/automobile/le-marche-automobile-penalise-par-la-penurie-de-puces-electroniques-04-05-2021-2424778_646.php,"Tue, 04 May 2021 07:00:00 +0200","En reprise nette, le marche automobile francais n'a toutefois pas encore retrouve son niveau d'avant-crise avec une baisse de plus de 20 % par rapport a 2019."
Le Point - En continu,tech,Aucune technologie ne permet encore d’empêcher un astéroïde de s’écraser sur Terre,https://www.lepoint.fr/astronomie/aucune-technologie-ne-permet-encore-d-empecher-un-asteroide-de-s-ecraser-sur-terre-03-05-2021-2424753_1925.php,"Tue, 04 May 2021 06:02:00 +0200","La Nasa a simule l'arrivee d'un asteroide situe a 35 millions de kilometres qui menacait de frapper la Terre, rapporte Business Insider."
La Tribune,securite,Sécurité urbaine : une startup nivernaise développe des solutions par drone,https://www.latribune.fr/regions/bourgogne-franche-comte/securite-urbaine-une-startup-nivernaise-developpe-des-solutions-par-drone-884026.html,"Wed, 05 May 2021 18:23:00 +0200","Installée sur l’aéroport de Nevers, la société Apex Drone, créée en 2016, a développé grâce à la 5G des solutions numériques de sécurité par le drone."
La Tribune,drone,Sécurité urbaine : une startup nivernaise développe des solutions par drone,https://www.latribune.fr/regions/bourgogne-franche-comte/securite-urbaine-une-startup-nivernaise-developpe-des-solutions-par-drone-884026.html,"Wed, 05 May 2021 18:23:00 +0200","Installée sur l’aéroport de Nevers, la société Apex Drone, créée en 2016, a développé grâce à la 5G des solutions numériques de sécurité par le drone."
La Tribune,tech,"Face aux défis sociaux et environnementaux, le LICA mêle collaboration humaine et nouvelles technologies",https://region-sud.latribune.fr/economie/2021-05-05/face-aux-defis-sociaux-et-environnementaux-le-lica-mele-collaboration-humaine-et-nouvelles-technologies-884029.html,"Wed, 05 May 2021 18:00:00 +0200","A Marseille, le Laboratoire d’intelligence collective et artificielle est une Scop qui met à disposition des collectivités et des entreprises une expertise et des outils permettant de mieux collaborer, tout en s’appuyant sur les nouvelles technologies. Face à la demande et à l’obtention de plusieurs appels à projets, elle a accru ses effectifs et souhaite acheter un terrain de 6.000 m² pour y installer « Le 15 », un « tiers-lab des transitions »."
L'actualité par l'Humanite.fr,mobile,Industrie. Relocalisations : quand l’automobile ne tourne pas rond,https://www.humanite.fr/industrie-relocalisations-quand-lautomobile-ne-tourne-pas-rond-706208#xtor=RSS-1,"Wed, 05 May 2021 18:09:30 +0000","<p>Ce jeudi, les salariés des constructeurs et des sous-traitants sont appelés par la CGT à se mobiliser contre la casse sociale. Les syndicats proposent des solutions pour « produire là où on achète », à rebours de la mise en concurrence.</p>"
L'actualité par l'Humanite.fr,code,Santé. Les sages-femmes déclenchent le Code rouge,https://www.humanite.fr/sante-les-sages-femmes-declenchent-le-code-rouge-706217#xtor=RSS-1,"Wed, 05 May 2021 17:30:01 +0000","<p>Ces professionnelles ont manifesté, mercredi, devant le ministère de l’Enseignement supérieur pour exiger une revalorisation de leurs compétences.</p>"
L'actualité par l'Humanite.fr,tech,Un coin de voile se lève sur les arcanes de la technocratie européenne,https://www.humanite.fr/un-coin-de-voile-se-leve-sur-les-arcanes-de-la-technocratie-europeenne-706198#xtor=RSS-1,"Wed, 05 May 2021 17:58:07 +0000","<p>Un documentaire inhabituel, sur le fond et sur la forme, dévoile l’envers des négociations entre États européens sur des sujets épineux.</p>"
LEXPRESS.fr - Rss A la Une,facebook,Le conseil des sages de Facebook confirme l'interdiction de Trump sur le réseau social,https://www.lexpress.fr/actualites/1/monde/le-conseil-des-sages-de-facebook-attendu-au-tournant-sur-le-compte-de-trump_2150190.html,"Wed, 05 May 2021 04:11:29 +0200","New York - Le géant des réseaux sociaux a eu raison d&#039;interdire à l&#039;ancien président américain Donald Trump de poster des messages sur Facebook et Instagram, mais il doit examiner à nouveau le cas dans les six mois, a annoncé mercredi le conseil de surveillance du groupe californien."
LEXPRESS.fr - Rss A la Une,reseau,Le conseil des sages de Facebook confirme l'interdiction de Trump sur le réseau social,https://www.lexpress.fr/actualites/1/monde/le-conseil-des-sages-de-facebook-attendu-au-tournant-sur-le-compte-de-trump_2150190.html,"Wed, 05 May 2021 04:11:29 +0200","New York - Le géant des réseaux sociaux a eu raison d&#039;interdire à l&#039;ancien président américain Donald Trump de poster des messages sur Facebook et Instagram, mais il doit examiner à nouveau le cas dans les six mois, a annoncé mercredi le conseil de surveillance du groupe californien."
LEXPRESS.fr - Rss A la Une,internet,"Yahoo!, AOL... la difficile survie des anciennes gloires d'Internet",https://lexpansion.lexpress.fr/high-tech/yahoo-aol-la-difficile-survie-des-anciennes-gloires-d-internet_2150205.html,"Wed, 05 May 2021 15:19:00 +0200",L&#039;opérateur de télécommunications Verizon revend à prix cassés ces deux ex-stars d&#039;Internet. D&#039;autres grands noms cherchent toujours à se relancer.
LEXPRESS.fr - Rss A la Une,facebook,"Donald Trump : toujours banni de Facebook, l'ancien président se réfugie sur un blog",https://www.lexpress.fr/actualite/monde/donald-trump-toujours-banni-de-facebook-l-ancien-president-se-refugie-sur-un-blog_2150239.html,"Wed, 05 May 2021 17:41:00 +0200","Le conseil de surveillance de Facebook a maintenu, mercredi, l&#039;interdiction faite à Donald Trump de poster des messages sur sa page Facebook et sur son compte Instagram."
LEXPRESS.fr - Rss A la Une,reconnaissance,"""Halte au mépris"": sages-femmes ""en colère"" cherchent reconnaissance",https://www.lexpress.fr/actualites/1/societe/halte-au-mepris-les-sages-femmes-en-colere-donnent-de-la-voix_2150226.html,"Wed, 05 May 2021 14:42:12 +0200","Paris - &quot;Faut pas pousser&quot;, &quot;ras le col&quot;: des sages-femmes ont manifesté mercredi en France dans le cadre de la journée internationale qui leur est consacrée, réclamant reconnaissance et effectifs."
LEXPRESS.fr - Rss A la Une,mobile,"Les constructeurs automobiles, ces banquiers pas comme les autres",https://lexpansion.lexpress.fr/actualite-economique/les-constructeurs-automobiles-ces-banquiers-pas-comme-les-autres_2149770.html,"Wed, 05 May 2021 17:00:00 +0200","Durement impactés par la crise, les constructeurs misent plus que jamais sur leurs propres banques pour rebondir. Et se diversifier."
LEXPRESS.fr - Rss A la Une,surveillance,Le conseil de surveillance de Facebook confirme l'interdiction de Trump sur le réseau social,https://www.lexpress.fr/actualites/1/monde/le-conseil-de-surveillance-de-facebook-confirme-l-interdiction-de-trump-sur-le-reseau-social_2150233.html,"Wed, 05 May 2021 15:28:05 +0200",New York - Le conseil de surveillance de Facebook a décidé mercredi de maintenir la décision prise par le groupe d&#039;interdire à l&#039;ancien président américain Donald Trump de poster des messages sur sa page Facebook et sur son compte Instagram.
LEXPRESS.fr - Rss A la Une,facebook,Le conseil de surveillance de Facebook confirme l'interdiction de Trump sur le réseau social,https://www.lexpress.fr/actualites/1/monde/le-conseil-de-surveillance-de-facebook-confirme-l-interdiction-de-trump-sur-le-reseau-social_2150233.html,"Wed, 05 May 2021 15:28:05 +0200",New York - Le conseil de surveillance de Facebook a décidé mercredi de maintenir la décision prise par le groupe d&#039;interdire à l&#039;ancien président américain Donald Trump de poster des messages sur sa page Facebook et sur son compte Instagram.
LEXPRESS.fr - Rss A la Une,reseau,Le conseil de surveillance de Facebook confirme l'interdiction de Trump sur le réseau social,https://www.lexpress.fr/actualites/1/monde/le-conseil-de-surveillance-de-facebook-confirme-l-interdiction-de-trump-sur-le-reseau-social_2150233.html,"Wed, 05 May 2021 15:28:05 +0200",New York - Le conseil de surveillance de Facebook a décidé mercredi de maintenir la décision prise par le groupe d&#039;interdire à l&#039;ancien président américain Donald Trump de poster des messages sur sa page Facebook et sur son compte Instagram.
LEXPRESS.fr - Rss A la Une,amazon,"Après des années de négociations secrètes, Amazon s'installe à Metz",https://lexpansion.lexpress.fr/actualite-economique/amazon-s-installe-a-metz-en-silence_2105344.html,"Tue, 05 Nov 2019 16:56:00 +0100","Après avoir essuyé plusieurs refus en Alsace, le géant de l&#039;e-commerce vient d&#039;officialiser l&#039;installation à Metz d&#039;un vaste entrepôt."
L'Obs - A la une,surveillance,Mutilé par un tir de LBD à 7 mètres : des images de vidéosurveillance accablent un policier de la BAC,https://www.nouvelobs.com/societe/20210505.OBS43666/mutile-par-un-tir-de-lbd-a-7-metres-des-images-de-videosurveillance-accablent-un-agent-de-la-bac.html,"Wed, 05 May 2021 13:14:31 +0200","Un agent d’une brigade anticriminalité est accusé d’avoir tiré avec un lanceur de balles de défense sur le visage d’un jeune homme, à une distance largement inférieure aux règles et alors qu’il n’était pas menacé. Images à l’appui, «&nbsp;Libération&nbsp;» a enquêté sur cette affaire."
Le fil info Actu de Paris-Match,surveillance,Le conseil de surveillance de Facebook confirme l'interdiction de Trump sur le réseau social,https://www.parismatch.com/Actu/International/Le-conseil-de-surveillance-de-Facebook-confirme-l-interdiction-de-Trump-sur-le-reseau-social-1736738,"Wed, 05 May 2021 16:10:42 +0200",L'ex-président américain Donald Trump n'a plus le droit de publier des messages sur ses comptes Facebook et Instagram. Cette décision du conseil de...
Le fil info Actu de Paris-Match,facebook,Le conseil de surveillance de Facebook confirme l'interdiction de Trump sur le réseau social,https://www.parismatch.com/Actu/International/Le-conseil-de-surveillance-de-Facebook-confirme-l-interdiction-de-Trump-sur-le-reseau-social-1736738,"Wed, 05 May 2021 16:10:42 +0200",L'ex-président américain Donald Trump n'a plus le droit de publier des messages sur ses comptes Facebook et Instagram. Cette décision du conseil de...
Le fil info Actu de Paris-Match,reseau,Le conseil de surveillance de Facebook confirme l'interdiction de Trump sur le réseau social,https://www.parismatch.com/Actu/International/Le-conseil-de-surveillance-de-Facebook-confirme-l-interdiction-de-Trump-sur-le-reseau-social-1736738,"Wed, 05 May 2021 16:10:42 +0200",L'ex-président américain Donald Trump n'a plus le droit de publier des messages sur ses comptes Facebook et Instagram. Cette décision du conseil de...
Courrier international - Actualités France et Monde,facebook,Trump ne sera pas de retour sur Facebook avant six mois,https://www.courrierinternational.com/article/reseaux-trump-ne-sera-pas-de-retour-sur-facebook-avant-six-mois,"Wed, 05 May 2021 18:22:12 +0200","Le conseil de surveillance de Facebook a donné raison au réseau social, qui avait banni l’ancien président pour <em>“incitation à la violence”</em> à la suite des émeutes du Capitole. Son cas sera néanmoins réexaminé pour statuer sur le caractère définitif de la mesure."
Courrier international - Actualités France et Monde,securite,Insécurité au Nigeria : “Le pays est en guerre et nous faisons semblant de rien”,https://www.courrierinternational.com/article/inaction-insecurite-au-nigeria-le-pays-est-en-guerre-et-nous-faisons-semblant-de-rien,"Wed, 05 May 2021 18:19:27 +0200","Quelque 600 civils sont morts au mois d’avril au Nigeria. L’inaction du président Muhammadu Buhari est critiquée par le Prix Nobel de littérature Wole Soyinka, mais aussi dans les rangs de son propre parti : le 26 avril, le sénateur Smart Adeyemi a conclu un discours ​au Parlement nigérian en larmes et n’a pas hésité à tenir Buhari pour responsable. Un désaveu cinglant, raconte la presse."
Courrier international - Actualités France et Monde,instagram,La promotion de l’Apetamin sur Instagram épinglée au Royaume-Uni,https://www.courrierinternational.com/article/dangers-la-promotion-de-lapetamin-sur-instagram-epinglee-au-royaume-uni,"Wed, 05 May 2021 13:47:06 +0200","Le complément alimentaire permet, selon ses promoteurs, de prendre du poids et d’obtenir les formes d’icônes telles que Kim Kardashian. Mais le NHS, le service de santé publique britannique, s’inquiète des effets secondaires du produit et demande à Instagram de mieux contrôler sa publicité, qui vise particulièrement les jeunes femmes."
Courrier international - Actualités France et Monde,apple,La bataille d’Epic Games contre Apple face aux juges,https://www.courrierinternational.com/revue-de-presse/concurrence-la-bataille-depic-games-contre-apple-face-aux-juges,"Mon, 03 May 2021 17:31:05 +0200","C’est ce lundi 3 mai que débute le procès d’Apple devant la justice californienne. Epic Games, éditeur du jeu <em>Fortnite,</em> l’accuse d’abuser de sa position dominante sur son App Store. Une affaire qui pourrait redéfinir l’économie des plateformes numériques."
Courrier international - Actualités France et Monde,censure,Homophobie : une tentative de censure lors du concert du 1er mai agite l’Italie,https://www.courrierinternational.com/article/polemique-homophobie-une-tentative-de-censure-lors-du-concert-du-1er-mai-agite-litalie,"Mon, 03 May 2021 17:26:08 +0200","Lors du traditionnel concert romain qui célèbre la Fête du travail, le rappeur Fedez a accusé les organisateurs et la télévision publique italienne d’avoir voulu censurer son discours brocardant les déclarations homophobes de responsables politiques. Une affaire qui s’inscrit dans le contexte, déjà tendu, de l’approbation d’une loi controversée sur la discrimination."
Courrier international - Actualités France et Monde,wiki,"Avec WikiAfrica, les Africains prennent le pouvoir sur leur propre histoire",https://www.courrierinternational.com/article/memoire-avec-wikiafrica-les-africains-prennent-le-pouvoir-sur-leur-propre-histoire,"Mon, 03 May 2021 06:02:39 +0200","C’est une bible de connaissances et l’un des sites les plus visités du monde. Mais sur Wikipédia, les sujets qui concernent l’Afrique sont largement sous-représentés. En réaction, l’initiative WikiAfrica est née. <em>Reasons to Be Cheerful</em> raconte ce projet colossal."
Courrier international - Actualités France et Monde,crypto,"Le bitcoin n’est pas une cryptomonnaie, c’est une religion",https://www.courrierinternational.com/article/decryptage-le-bitcoin-nest-pas-une-cryptomonnaie-cest-une-religion,"Sun, 02 May 2021 06:13:25 +0200","La réussite de la célèbre cryptomonnaie repose sur une construction mythologique n’ayant rien à envier à une religion classique, analyse <em>Le Temps</em>. Et comme dans tout autre système financier, la foi joue un rôle prépondérant."
Courrier international - Actualités France et Monde,apple,L’Europe accuse Apple d’abus de position dominante,https://www.courrierinternational.com/article/antitrust-leurope-accuse-apple-dabus-de-position-dominante,"Fri, 30 Apr 2021 18:05:38 +0200","C’est une première : suite à une plainte déposée par Spotify en 2019, la Commission européenne inculpe le géant à la pomme pour avoir enfreint les règles à la concurrence. Apple impose aux développeurs d’applications une commission de 30 % sur son AppStore sur chaque téléchargement."
LEXPRESS.fr - RSS Tout L'Entreprise,intelligence,A paraître demain : nos sept formes d'intelligence.,https://blogs.lentreprise.com/le-management-dans-tous-ses-etats/2020/01/20/a-paraitre-demain-nos-sept-formes-dintelligence/,"Mon, 20 Jan 2020 07:51:43 +0100","De juillet 2017 à septembre 2018, j&#039;avais rédigé sur ce blog une série de vingt cinq articles sur les intelligences managériales. Mon éditeur &quot; Jouvence &quot;, m&#039;a sollicité pour en faire un guide pratique destiné non seulement aux managers , mais à tous les publics. [...]"
LEXPRESS.fr - RSS Tout L'Entreprise,reseau,Carnet d'adresses: les réseaux de femmes entrepreneures qui comptent,https://lentreprise.lexpress.fr/outils-classements/annuaires/carnet-d-adresses-des-reseaux-de-femmes-entrepreneures_1523138.html,"Wed, 07 Mar 2012 18:59:00 +0100","Que ce soit pour rompre sa solitude de femme dirigeante ou pour trouver de nouveaux contacts, voici une sélection &quot;non exhaustive&quot; d&#039;adresses de réseaux 100% féminins."
FranceSoir - Articles de la rédaction,artificielle,"Les bots et les interactions ""artificiellement intimes"", quels impacts dans nos relations ?",https://www.francesoir.fr/societe-science-tech/les-bots-et-les-interactions-artificiellement-intimes-quels-impacts-dans-nos,"Wed, 05 May 2021 17:42:37 +0200","Quelles sont les technologies « artificiellement intimes » ? Le numérique imprègne aujourd’hui tous les aspects de la vie, et les relations intimes ne font pas exception. Le biologiste Rob Brooks, vient de sortir un ouvrage&nbsp;explorant la manière dont les nouvelles technologies appliquées à l’...  - Lire la suite sur FranceSoir.fr 

  
          
            
                  <img alt="""" height=""739"" src=""https://www.francesoir.fr/sites/francesoir/files/images/ad345e6317092b9548fcf5fb1ad9914cf68e89f1_field_mise_en_avant_principale_1.jpg"" width=""1111"" />
                        
    
        
            
                  © GABRIEL BOUYS                     / AFP - <a href=""https://www.francesoir.fr/societe-science-tech/les-bots-et-les-interactions-artificiellement-intimes-quels-impacts-dans-nos"">Les bots et les interactions ""artificiellement intimes"", quels impacts dans nos relations ?</a>"
FranceSoir - Articles de la rédaction,reconnaissance,"""Halte au mépris"": sages-femmes ""en colère"" cherchent reconnaissance",https://www.francesoir.fr/actualites-france/halte-au-mepris-les-sages-femmes-en-colere-donnent-de-la-voix,"Wed, 05 May 2021 14:19:06 +0200","""Faut pas pousser"", ""ras le col"": des sages-femmes ont manifesté mercredi en France dans le cadre de la journée internationale qui leur est consacrée, réclamant reconnaissance et effectifs. 
""Notre profession est très peu connue et très peu reconnue"", a expliqué à l'AFP Camille Dumortier,...  - Lire la suite sur FranceSoir.fr 

  
          
            
                  <img alt="""" height=""740"" src=""https://www.francesoir.fr/sites/francesoir/files/images/2019/541e609479252367869a5ca6262a93823b73c0e2_field_mise_en_avant_principale_1.jpg"" width=""1111"" />
                        
    
        
            
                  © Alain JOCARD / AFP/Archives - <a href=""https://www.francesoir.fr/actualites-france/halte-au-mepris-les-sages-femmes-en-colere-donnent-de-la-voix"">""Halte au mépris"": sages-femmes ""en colère"" cherchent reconnaissance</a>"
FranceSoir - Articles de la rédaction,donnee,Pollution atmosphérique en Chine : une étude confirme la sous-estimation des données locales,https://www.francesoir.fr/societe-environnement/pollution-atmospherique-en-chine-une-etude-confirme-la-sous-estimation-des,"Wed, 05 May 2021 11:03:08 +0200","La Chine est le premier émetteur mondial de gaz à effet de serre et de mercure, mais c’est aussi un pays officiellement très engagé dans les efforts de réduction des émissions de Co2. Pour essayer de “reverdir” son blason, il semble que la Chine ait aussi manipulé les données concernant sa...  - Lire la suite sur FranceSoir.fr 

  
          
            
                  <img alt="""" height=""444"" src=""https://www.francesoir.fr/sites/francesoir/files/chine_0_field_mise_en_avant_principale_1_0.jpg"" width=""1110"" />
                        
    
        
            
                  Unsplash - <a href=""https://www.francesoir.fr/societe-environnement/pollution-atmospherique-en-chine-une-etude-confirme-la-sous-estimation-des"">Pollution atmosphérique en Chine : une étude confirme la sous-estimation des données locales</a>"
FranceSoir - Articles de la rédaction,ecran,Écrans : comment accompagner les enfants dans leur usage et éviter les dangers ?,https://www.francesoir.fr/societe-sante/ecrans-comment-accompagner-les-enfants-dans-leur-usage-et-eviter-les-dangers,"Tue, 04 May 2021 17:59:31 +0200","Bien que de nombreuses études aient démontré leurs effets néfastes, les écrans sont omniprésents dans le quotidien des enfants. Comment accompagner leur usage de la télévision, de la tablette ou du smartphone afin de protéger leur santé&nbsp;? Quelques conseils à appliquer.
Des effets sur le...  - Lire la suite sur FranceSoir.fr 

  
          
            
                  <img alt="""" height=""739"" src=""https://www.francesoir.fr/sites/francesoir/files/images/2019/16fc5a2d9d67babdf190f2dc743b782ff39fb946_field_mise_en_avant_principale_3.jpg"" width=""1111"" />
                        
    
        
            
                  © TANG CHHIN Sothy / AFP/Archives - <a href=""https://www.francesoir.fr/societe-sante/ecrans-comment-accompagner-les-enfants-dans-leur-usage-et-eviter-les-dangers"">Écrans : comment accompagner les enfants dans leur usage et éviter les dangers ? </a>"
FranceSoir - Articles de la rédaction,amazon,Amazon officialise son implantation à Metz et promet 1.000 emplois sur trois ans,https://www.francesoir.fr/actualites-france/amazon-officialise-son-implantation-metz-et-promet-1000-emplois-sur-trois-ans,"Tue, 04 May 2021 08:53:10 +0200","Le géant américain de la vente en ligne Amazon a prévu d'ouvrir ""à l'été 2021"" un entrepôt de grande taille situé dans la métropole de Metz, et a promis mardi la création de 1.000 emplois en CDI dans les trois ans.
Le ""centre de distribution"", la terminologie d'Amazon pour désigner les entrepôts de...  - Lire la suite sur FranceSoir.fr 

  
          
            
                  <img alt="""" height=""1128"" src=""https://www.francesoir.fr/sites/francesoir/files/images/2019/325da19b769ffdc7329c0707ff864012d2b99500_field_mise_en_avant_principale.jpg"" width=""1111"" />
                        
    
        
            
                  © DENIS CHARLET / AFP/Archives - <a href=""https://www.francesoir.fr/actualites-france/amazon-officialise-son-implantation-metz-et-promet-1000-emplois-sur-trois-ans"">Amazon officialise son implantation à Metz et promet 1.000 emplois sur trois ans</a>"
FranceSoir - Articles de la rédaction,facebook,La nouvelle règle de confidentialité d’Apple inquiète Google et Facebook,https://www.francesoir.fr/societe-economie/la-nouvelle-regle-de-confidentialite-dapple-inquiete-google-et-facebook,"Mon, 03 May 2021 21:44:49 +0200","Dès ce lundi 3 mai, les propriétaires d’iPhone devront donner leur accord sur chaque application, concernant la collecte et le traçage de leurs données durant leur navigation. Un changement de paradigme qui ne plaît pas à Facebook, qui fonctionne justement sur ce système de publicités ciblées.
Des...  - Lire la suite sur FranceSoir.fr 

  
          
            
                  <img alt="""" height=""419"" src=""https://www.francesoir.fr/sites/francesoir/files/images/Part-GTY-495316169-1-1-2_field_mise_en_avant_principale_1_0.jpg"" width=""1049"" />
                        
    
        
            
                  © JUSTIN SULLIVAN / GETTY IMAGES NORTH AMERICA/AFP/Archives - <a href=""https://www.francesoir.fr/societe-economie/la-nouvelle-regle-de-confidentialite-dapple-inquiete-google-et-facebook"">La nouvelle règle de confidentialité d’Apple inquiète Google et Facebook</a>"
FranceSoir - Articles de la rédaction,google,La nouvelle règle de confidentialité d’Apple inquiète Google et Facebook,https://www.francesoir.fr/societe-economie/la-nouvelle-regle-de-confidentialite-dapple-inquiete-google-et-facebook,"Mon, 03 May 2021 21:44:49 +0200","Dès ce lundi 3 mai, les propriétaires d’iPhone devront donner leur accord sur chaque application, concernant la collecte et le traçage de leurs données durant leur navigation. Un changement de paradigme qui ne plaît pas à Facebook, qui fonctionne justement sur ce système de publicités ciblées.
Des...  - Lire la suite sur FranceSoir.fr 

  
          
            
                  <img alt="""" height=""419"" src=""https://www.francesoir.fr/sites/francesoir/files/images/Part-GTY-495316169-1-1-2_field_mise_en_avant_principale_1_0.jpg"" width=""1049"" />
                        
    
        
            
                  © JUSTIN SULLIVAN / GETTY IMAGES NORTH AMERICA/AFP/Archives - <a href=""https://www.francesoir.fr/societe-economie/la-nouvelle-regle-de-confidentialite-dapple-inquiete-google-et-facebook"">La nouvelle règle de confidentialité d’Apple inquiète Google et Facebook</a>"
FranceSoir - Articles de la rédaction,apple,La nouvelle règle de confidentialité d’Apple inquiète Google et Facebook,https://www.francesoir.fr/societe-economie/la-nouvelle-regle-de-confidentialite-dapple-inquiete-google-et-facebook,"Mon, 03 May 2021 21:44:49 +0200","Dès ce lundi 3 mai, les propriétaires d’iPhone devront donner leur accord sur chaque application, concernant la collecte et le traçage de leurs données durant leur navigation. Un changement de paradigme qui ne plaît pas à Facebook, qui fonctionne justement sur ce système de publicités ciblées.
Des...  - Lire la suite sur FranceSoir.fr 

  
          
            
                  <img alt="""" height=""419"" src=""https://www.francesoir.fr/sites/francesoir/files/images/Part-GTY-495316169-1-1-2_field_mise_en_avant_principale_1_0.jpg"" width=""1049"" />
                        
    
        
            
                  © JUSTIN SULLIVAN / GETTY IMAGES NORTH AMERICA/AFP/Archives - <a href=""https://www.francesoir.fr/societe-economie/la-nouvelle-regle-de-confidentialite-dapple-inquiete-google-et-facebook"">La nouvelle règle de confidentialité d’Apple inquiète Google et Facebook</a>"
FranceSoir - Articles de la rédaction,google,Heads Up : la nouvelle fonctionnalité de Google pour vous inciter à lever la tête dans la rue,https://www.francesoir.fr/societe-science-tech/heads-une-nouvelle-fonctionnalite-de-google-pour-vous-inciter-lever-la-tete-dans-la-rue,"Mon, 03 May 2021 15:11:32 +0200","Êtes-vous un smombie ? Contraction de « smartphone » et « zombie », ce mot-valise désigne un piéton ne décollant pas les yeux de son smartphone. Si cette posture est de plus en plus répandue, elle n’est pas sans danger : risque de collision entre piétons, rencontre hasardeuse avec un poteau ou pire...  - Lire la suite sur FranceSoir.fr 

  
          
            
                  <img alt="""" height=""444"" src=""https://www.francesoir.fr/sites/francesoir/files/jon-tyson-bp8tte8zqma-unsplash_field_mise_en_avant_principale_1_0.jpg"" width=""1110"" />
                        
    
        
            
                  Unsplash - <a href=""https://www.francesoir.fr/societe-science-tech/heads-une-nouvelle-fonctionnalite-de-google-pour-vous-inciter-lever-la-tete-dans-la-rue"">Heads Up : la nouvelle fonctionnalité de Google pour vous inciter à lever la tête dans la rue</a>"
FranceSoir - Articles de la rédaction,artificielle,Méduses : l'intelligence artificielle pour les anticiper,https://www.francesoir.fr/societe-science-tech/meduses-de-lintelligence-artificielle-pour-les-anticiper,"Sun, 02 May 2021 14:48:06 +0200","Il y a deux semaines, en plein mois d'avril, des méduses ont été répertoriées sur le littoral méditerranéen, surprenant les baigneurs courageux qui profitaient des premiers jours de beau temps. L'apparition de méduses se fait souvent de façon inattendue, et cette arrivée soudaine induit forcément...  - Lire la suite sur FranceSoir.fr 

  
          
            
                  <img alt="""" height=""443"" src=""https://www.francesoir.fr/sites/francesoir/files/joel-filipe-_ajqggafofe-unsplash_field_mise_en_avant_principale_1_0.jpg"" width=""1109"" />
                        
    
        
            
                  Unsplash - <a href=""https://www.francesoir.fr/societe-science-tech/meduses-de-lintelligence-artificielle-pour-les-anticiper"">Méduses : l&#039;intelligence artificielle pour les anticiper</a>"
FranceSoir - Articles de la rédaction,intelligence,Méduses : l'intelligence artificielle pour les anticiper,https://www.francesoir.fr/societe-science-tech/meduses-de-lintelligence-artificielle-pour-les-anticiper,"Sun, 02 May 2021 14:48:06 +0200","Il y a deux semaines, en plein mois d'avril, des méduses ont été répertoriées sur le littoral méditerranéen, surprenant les baigneurs courageux qui profitaient des premiers jours de beau temps. L'apparition de méduses se fait souvent de façon inattendue, et cette arrivée soudaine induit forcément...  - Lire la suite sur FranceSoir.fr 

  
          
            
                  <img alt="""" height=""443"" src=""https://www.francesoir.fr/sites/francesoir/files/joel-filipe-_ajqggafofe-unsplash_field_mise_en_avant_principale_1_0.jpg"" width=""1109"" />
                        
    
        
            
                  Unsplash - <a href=""https://www.francesoir.fr/societe-science-tech/meduses-de-lintelligence-artificielle-pour-les-anticiper"">Méduses : l&#039;intelligence artificielle pour les anticiper</a>"
